Timing Report Max Delay Analysis

SmartTime Version v11.9 SP5
Microsemi Corporation - Microsemi Libero Software Release v11.9 SP5 (Version 11.9.5.5)
Date: Thu Apr 16 17:30:50 2020


Design: jtag_interface_top
Family: ProASIC3
Die: A3P250
Package: 144 FBGA
Temperature Range: -40 - 85 C
Voltage Range: 1.425 - 1.575 V
Speed Grade: -1
Design State: Post-Layout
Data source: Silicon verified
Min Operating Conditions: BEST - 1.575 V - -40 C
Max Operating Conditions: WORST - 1.425 V - 85 C
Using Enhanced Min Delay Analysis
Scenario for Timing Analysis: Primary


-----------------------------------------------------
SUMMARY

Clock Domain:               clocking/Core:GLA
Period (ns):                0.864
Frequency (MHz):            1157.407
Required Period (ns):       25.000
Required Frequency (MHz):   40.000
External Setup (ns):        -1.323
Max Clock-To-Out (ns):      12.119

Clock Domain:               clocking/Core:GLB
Period (ns):                4.563
Frequency (MHz):            219.154
Required Period (ns):       4.167
Required Frequency (MHz):   239.981
External Setup (ns):        0.612
Max Clock-To-Out (ns):      N/A

Clock Domain:               gbt_clk40
Period (ns):                4.000
Frequency (MHz):            250.000
Required Period (ns):       24.950
Required Frequency (MHz):   40.080
External Setup (ns):        N/A
Max Clock-To-Out (ns):      N/A

Clock Domain:               osc_clk40
Period (ns):                4.000
Frequency (MHz):            250.000
Required Period (ns):       25.000
Required Frequency (MHz):   40.000
External Setup (ns):        N/A
Max Clock-To-Out (ns):      N/A

                            Input to Output
Max Delay (ns):             N/A

END SUMMARY
-----------------------------------------------------

Clock Domain clocking/Core:GLA

Info: The maximum frequency of this clock domain is limited by the minimum pulse widths of pin jtag_out_loc[1]:CLK

SET Register to Register

No Path

END SET Register to Register

----------------------------------------------------

SET External Setup

Path 1
  From:                  gbt_tck_p[0]
  To:                    jtag_out_loc[2]:D
  Delay (ns):            3.218
  Slack (ns):
  Arrival (ns):          3.218
  Required (ns):
  Setup (ns):            0.616
  External Setup (ns):   -1.323

Path 2
  From:                  gbt_tck_n[0]
  To:                    jtag_out_loc[2]:D
  Delay (ns):            3.204
  Slack (ns):
  Arrival (ns):          3.204
  Required (ns):
  Setup (ns):            0.616
  External Setup (ns):   -1.337

Path 3
  From:                  gbt_dvalid
  To:                    jtag_out_rem_tri_enable:D
  Delay (ns):            2.861
  Slack (ns):
  Arrival (ns):          2.861
  Required (ns):
  Setup (ns):            0.616
  External Setup (ns):   -1.677

Path 4
  From:                  gbt_tdi_p[0]
  To:                    jtag_out_loc[1]:D
  Delay (ns):            2.848
  Slack (ns):
  Arrival (ns):          2.848
  Required (ns):
  Setup (ns):            0.616
  External Setup (ns):   -1.773

Path 5
  From:                  gbt_tdi_n[0]
  To:                    jtag_out_loc[1]:D
  Delay (ns):            2.834
  Slack (ns):
  Arrival (ns):          2.834
  Required (ns):
  Setup (ns):            0.616
  External Setup (ns):   -1.787


Expanded Path 1
  From: gbt_tck_p[0]
  To: jtag_out_loc[2]:D
  data required time                             N/C
  data arrival time                          -   3.218
  slack                                          N/C
  ________________________________________________________
  Data arrival time calculation
  0.000                        gbt_tck_p[0] (f)
               +     0.000          net: gbt_tck_p[0]
  0.000                        jtag_in0/\\INBUF_LVDS[2]\\/U0/U0:PAD (f)
               +     1.436          cell: ADLIB:IOPADP_IN
  1.436                        jtag_in0/\\INBUF_LVDS[2]\\/U0/U0:Y (f)
               +     0.000          net: jtag_in0/_INBUF_LVDS[2]_/U0/NET1
  1.436                        jtag_in0/\\INBUF_LVDS[2]\\/U0/U1:YIN (f)
               +     0.035          cell: ADLIB:IOIN_IB
  1.471                        jtag_in0/\\INBUF_LVDS[2]\\/U0/U1:Y (f)
               +     1.747          net: jtag_loc[2]
  3.218                        jtag_out_loc[2]:D (f)
                                    
  3.218                        data arrival time
  ________________________________________________________
  Data required time calculation
  N/C                          clocking/Core:GLA
               +     0.000          Clock source
  N/C                          clocking/Core:GLA (f)
               +     4.552          Clock generation
  N/C
               +     0.605          net: GLA
  N/C                          jtag_out_loc[2]:CLK (f)
               -     0.616          Library setup time: ADLIB:DFN0
  N/C                          jtag_out_loc[2]:D


END SET External Setup

----------------------------------------------------

SET Clock to Output

Path 1
  From:                  jtag_out_rem_tri_enable:CLK
  To:                    proasic_tck[1]
  Delay (ns):            6.965
  Slack (ns):
  Arrival (ns):          12.119
  Required (ns):
  Clock to Out (ns):     12.119

Path 2
  From:                  jtag_out_rem_tri_enable:CLK
  To:                    proasic_tck[0]
  Delay (ns):            6.188
  Slack (ns):
  Arrival (ns):          11.342
  Required (ns):
  Clock to Out (ns):     11.342

Path 3
  From:                  jtag_out_rem_tri_enable:CLK
  To:                    proasic_tdi[1]
  Delay (ns):            5.925
  Slack (ns):
  Arrival (ns):          11.079
  Required (ns):
  Clock to Out (ns):     11.079

Path 4
  From:                  jtag_out_rem[1]:CLK
  To:                    proasic_tdi[1]
  Delay (ns):            5.922
  Slack (ns):
  Arrival (ns):          11.079
  Required (ns):
  Clock to Out (ns):     11.079

Path 5
  From:                  jtag_out_rem_tri_enable:CLK
  To:                    proasic_tms[0]
  Delay (ns):            5.631
  Slack (ns):
  Arrival (ns):          10.785
  Required (ns):
  Clock to Out (ns):     10.785


Expanded Path 1
  From: jtag_out_rem_tri_enable:CLK
  To: proasic_tck[1]
  data required time                             N/C
  data arrival time                          -   12.119
  slack                                          N/C
  ________________________________________________________
  Data arrival time calculation
  0.000                        clocking/Core:GLA
               +     0.000          Clock source
  0.000                        clocking/Core:GLA (f)
               +     4.552          Clock generation
  4.552
               +     0.602          net: GLA
  5.154                        jtag_out_rem_tri_enable:CLK (f)
               +     0.565          cell: ADLIB:DFN0
  5.719                        jtag_out_rem_tri_enable:Q (f)
               +     3.226          net: jtag_out_rem_tri_enable
  8.945                        proasic_tck_pad[1]/U0/U1:E (f)
               +     0.360          cell: ADLIB:IOTRI_OB_EB
  9.305                        proasic_tck_pad[1]/U0/U1:EOUT (f)
               +     0.000          net: proasic_tck_pad[1]/U0/NET2
  9.305                        proasic_tck_pad[1]/U0/U0:E (f)
               +     2.814          cell: ADLIB:IOPAD_TRI
  12.119                       proasic_tck_pad[1]/U0/U0:PAD (f)
               +     0.000          net: proasic_tck_0[1]
  12.119                       proasic_tck[1] (f)
                                    
  12.119                       data arrival time
  ________________________________________________________
  Data required time calculation
  N/C                          clocking/Core:GLA
               +     0.000          Clock source
  N/C                          clocking/Core:GLA (r)
               +     4.552          Clock generation
  N/C
                                    
  N/C                          proasic_tck[1] (f)


END SET Clock to Output

----------------------------------------------------

SET Register to Asynchronous

No Path

END SET Register to Asynchronous

----------------------------------------------------

SET External Recovery

No Path

END SET External Recovery

----------------------------------------------------

SET Asynchronous to Register

No Path

END SET Asynchronous to Register

----------------------------------------------------

Clock Domain clocking/Core:GLB

SET Register to Register

Path 1
  From:                  fc1/counter[0]:CLK
  To:                    fc1/counter[3]:D
  Delay (ns):            4.059
  Slack (ns):            -0.396
  Arrival (ns):          9.904
  Required (ns):         9.508
  Setup (ns):            0.466
  Minimum Period (ns):   4.563

Path 2
  From:                  fc0/state:CLK
  To:                    fc2/counter[0]:D
  Delay (ns):            3.926
  Slack (ns):            -0.266
  Arrival (ns):          9.771
  Required (ns):         9.505
  Setup (ns):            0.466
  Minimum Period (ns):   4.433

Path 3
  From:                  fc1/counter[1]:CLK
  To:                    fc1/counter[3]:D
  Delay (ns):            3.878
  Slack (ns):            -0.215
  Arrival (ns):          9.723
  Required (ns):         9.508
  Setup (ns):            0.466
  Minimum Period (ns):   4.382

Path 4
  From:                  fc0/counter[0]:CLK
  To:                    fc0/counter[3]:D
  Delay (ns):            3.833
  Slack (ns):            -0.170
  Arrival (ns):          9.678
  Required (ns):         9.508
  Setup (ns):            0.466
  Minimum Period (ns):   4.337

Path 5
  From:                  fc0/state:CLK
  To:                    fc2/counter[3]:D
  Delay (ns):            3.744
  Slack (ns):            -0.103
  Arrival (ns):          9.589
  Required (ns):         9.486
  Setup (ns):            0.466
  Minimum Period (ns):   4.270


Expanded Path 1
  From: fc1/counter[0]:CLK
  To: fc1/counter[3]:D
  data required time                             9.508
  data arrival time                          -   9.904
  slack                                          -0.396
  ________________________________________________________
  Data arrival time calculation
  0.000                        clocking/Core:GLB
               +     0.000          Clock source
  0.000                        clocking/Core:GLB (r)
               +     5.201          Clock generation
  5.201
               +     0.644          net: GLB
  5.845                        fc1/counter[0]:CLK (r)
               +     0.637          cell: ADLIB:DFN1
  6.482                        fc1/counter[0]:Q (f)
               +     0.559          net: fc1/counter[0]
  7.041                        HIEFFPLA_INST_0_743:C (f)
               +     0.589          cell: ADLIB:AND3
  7.630                        HIEFFPLA_INST_0_743:Y (f)
               +     0.495          net: HIEFFPLA_NET_0_1648
  8.125                        HIEFFPLA_INST_0_745:B (f)
               +     0.809          cell: ADLIB:XOR2
  8.934                        HIEFFPLA_INST_0_745:Y (r)
               +     0.336          net: HIEFFPLA_NET_0_1647
  9.270                        HIEFFPLA_INST_1_2104:C (r)
               +     0.344          cell: ADLIB:OA1A
  9.614                        HIEFFPLA_INST_1_2104:Y (r)
               +     0.290          net: HIEFFPLA_NET_1_2232
  9.904                        fc1/counter[3]:D (r)
                                    
  9.904                        data arrival time
  ________________________________________________________
  Data required time calculation
  4.167                        clocking/Core:GLB
               +     0.000          Clock source
  4.167                        clocking/Core:GLB (r)
               +     5.201          Clock generation
  9.368
               +     0.606          net: GLB
  9.974                        fc1/counter[3]:CLK (r)
               -     0.466          Library setup time: ADLIB:DFN1
  9.508                        fc1/counter[3]:D
                                    
  9.508                        data required time


END SET Register to Register

----------------------------------------------------

SET External Setup

Path 1
  From:                  gbt_rxrdy
  To:                    fc1/ck_ok:D
  Delay (ns):            5.936
  Slack (ns):
  Arrival (ns):          5.936
  Required (ns):
  Setup (ns):            0.466
  External Setup (ns):   0.612

Path 2
  From:                  gbt_rxrdy
  To:                    fc2/ck_ok:D
  Delay (ns):            5.717
  Slack (ns):
  Arrival (ns):          5.717
  Required (ns):
  Setup (ns):            0.466
  External Setup (ns):   0.393

Path 3
  From:                  gbt_rxrdy
  To:                    fc0/ck_ok:D
  Delay (ns):            5.118
  Slack (ns):
  Arrival (ns):          5.118
  Required (ns):
  Setup (ns):            0.466
  External Setup (ns):   -0.261

Path 4
  From:                  gbt_clk40
  To:                    fc1/final_count[0]:E
  Delay (ns):            4.059
  Slack (ns):
  Arrival (ns):          4.059
  Required (ns):
  Setup (ns):            0.375
  External Setup (ns):   -1.356

Path 5
  From:                  gbt_clk40
  To:                    fc2/final_count[3]:E
  Delay (ns):            4.059
  Slack (ns):
  Arrival (ns):          4.059
  Required (ns):
  Setup (ns):            0.375
  External Setup (ns):   -1.370


Expanded Path 1
  From: gbt_rxrdy
  To: fc1/ck_ok:D
  data required time                             N/C
  data arrival time                          -   5.936
  slack                                          N/C
  ________________________________________________________
  Data arrival time calculation
  0.000                        gbt_rxrdy (r)
               +     0.000          net: gbt_rxrdy
  0.000                        gbt_rxrdy_pad/U0/U0:PAD (r)
               +     0.875          cell: ADLIB:IOPAD_IN
  0.875                        gbt_rxrdy_pad/U0/U0:Y (r)
               +     0.000          net: gbt_rxrdy_pad/U0/NET1
  0.875                        gbt_rxrdy_pad/U0/U1:YIN (r)
               +     0.037          cell: ADLIB:IOIN_IB
  0.912                        gbt_rxrdy_pad/U0/U1:Y (r)
               +     4.072          net: gbt_rxrdy_c
  4.984                        HIEFFPLA_INST_0_1581:C (r)
               +     0.662          cell: ADLIB:AO1B
  5.646                        HIEFFPLA_INST_0_1581:Y (f)
               +     0.290          net: HIEFFPLA_NET_0_1655
  5.936                        fc1/ck_ok:D (f)
                                    
  5.936                        data arrival time
  ________________________________________________________
  Data required time calculation
  N/C                          clocking/Core:GLB
               +     0.000          Clock source
  N/C                          clocking/Core:GLB (r)
               +     5.201          Clock generation
  N/C
               +     0.589          net: GLB
  N/C                          fc1/ck_ok:CLK (r)
               -     0.466          Library setup time: ADLIB:DFN1
  N/C                          fc1/ck_ok:D


END SET External Setup

----------------------------------------------------

SET Clock to Output

No Path

END SET Clock to Output

----------------------------------------------------

SET Register to Asynchronous

No Path

END SET Register to Asynchronous

----------------------------------------------------

SET External Recovery

No Path

END SET External Recovery

----------------------------------------------------

SET Asynchronous to Register

No Path

END SET Asynchronous to Register

----------------------------------------------------

Clock Domain gbt_clk40

Info: The maximum frequency of this clock domain is limited by the minimum pulse widths of pin gbt_clk40_pad/U0/U0:PAD

SET Register to Register

No Path

END SET Register to Register

----------------------------------------------------

SET External Setup

No Path

END SET External Setup

----------------------------------------------------

SET Clock to Output

No Path

END SET Clock to Output

----------------------------------------------------

SET Register to Asynchronous

No Path

END SET Register to Asynchronous

----------------------------------------------------

SET External Recovery

No Path

END SET External Recovery

----------------------------------------------------

SET Asynchronous to Register

No Path

END SET Asynchronous to Register

----------------------------------------------------

Clock Domain osc_clk40

Info: The maximum frequency of this clock domain is limited by the minimum pulse widths of pin osc_clk40_pad/U0/U0:PAD

SET Register to Register

No Path

END SET Register to Register

----------------------------------------------------

SET External Setup

No Path

END SET External Setup

----------------------------------------------------

SET Clock to Output

No Path

END SET Clock to Output

----------------------------------------------------

SET Register to Asynchronous

No Path

END SET Register to Asynchronous

----------------------------------------------------

SET External Recovery

No Path

END SET External Recovery

----------------------------------------------------

SET Asynchronous to Register

No Path

END SET Asynchronous to Register

----------------------------------------------------

Path set Pin to Pin

SET Input to Output

No Path

END SET Input to Output

----------------------------------------------------

Path set User Sets

