Timing Violation Report Max Delay Analysis

SmartTime Version v11.9 SP5
Microsemi Corporation - Microsemi Libero Software Release v11.9 SP5 (Version 11.9.5.5)
Date: Thu Apr 16 17:21:50 2020


Design: jtag_interface_top
Family: ProASIC3
Die: A3P250
Package: 144 FBGA
Temperature Range: -40 - 85 C
Voltage Range: 1.425 - 1.575 V
Speed Grade: -1
Design State: Post-Layout
Data source: Silicon verified
Min Operating Conditions: BEST - 1.575 V - -40 C
Max Operating Conditions: WORST - 1.425 V - 85 C
Using Enhanced Min Delay Analysis
Scenario for Timing Analysis: Primary


Path 1
  From:                  fc1/counter[0]:CLK
  To:                    fc1/counter[3]:D
  Delay (ns):            3.910
  Slack (ns):            -0.229
  Arrival (ns):          9.705
  Required (ns):         9.476

Path 2
  From:                  fc2/counter[1]:CLK
  To:                    fc2/counter[3]:D
  Delay (ns):            3.822
  Slack (ns):            -0.140
  Arrival (ns):          9.638
  Required (ns):         9.498

Path 3
  From:                  fc1/counter[1]:CLK
  To:                    fc1/counter[3]:D
  Delay (ns):            3.760
  Slack (ns):            -0.089
  Arrival (ns):          9.565
  Required (ns):         9.476

Path 4
  From:                  fc2/counter[0]:CLK
  To:                    fc2/counter[3]:D
  Delay (ns):            3.680
  Slack (ns):            0.002
  Arrival (ns):          9.496
  Required (ns):         9.498

Path 5
  From:                  fc0/counter[0]:CLK
  To:                    fc0/counter[1]:D
  Delay (ns):            3.472
  Slack (ns):            0.199
  Arrival (ns):          9.299
  Required (ns):         9.498

Path 6
  From:                  fc0/state:CLK
  To:                    fc1/final_count[1]:E
  Delay (ns):            3.389
  Slack (ns):            0.371
  Arrival (ns):          9.216
  Required (ns):         9.587

Path 7
  From:                  fc0/state:CLK
  To:                    fc1/final_count[0]:E
  Delay (ns):            3.389
  Slack (ns):            0.381
  Arrival (ns):          9.216
  Required (ns):         9.597

Path 8
  From:                  fc1/counter[0]:CLK
  To:                    fc1/final_count[3]:D
  Delay (ns):            3.292
  Slack (ns):            0.389
  Arrival (ns):          9.087
  Required (ns):         9.476

Path 9
  From:                  fc0/state:CLK
  To:                    fc0/counter[1]:D
  Delay (ns):            3.241
  Slack (ns):            0.460
  Arrival (ns):          9.068
  Required (ns):         9.528

Path 10
  From:                  fc1/counter[1]:CLK
  To:                    fc1/counter[2]:D
  Delay (ns):            3.205
  Slack (ns):            0.466
  Arrival (ns):          9.010
  Required (ns):         9.476

Path 11
  From:                  fc2/counter[1]:CLK
  To:                    fc2/final_count[3]:D
  Delay (ns):            3.208
  Slack (ns):            0.474
  Arrival (ns):          9.024
  Required (ns):         9.498

Path 12
  From:                  fc0/counter[0]:CLK
  To:                    fc0/counter[3]:D
  Delay (ns):            3.211
  Slack (ns):            0.490
  Arrival (ns):          9.038
  Required (ns):         9.528

Path 13
  From:                  fc0/counter[1]:CLK
  To:                    fc0/counter[3]:D
  Delay (ns):            3.209
  Slack (ns):            0.492
  Arrival (ns):          9.036
  Required (ns):         9.528

Path 14
  From:                  fc0/counter[0]:CLK
  To:                    fc0/final_count[3]:D
  Delay (ns):            3.194
  Slack (ns):            0.496
  Arrival (ns):          9.021
  Required (ns):         9.517

Path 15
  From:                  fc0/counter[1]:CLK
  To:                    fc0/final_count[3]:D
  Delay (ns):            3.192
  Slack (ns):            0.498
  Arrival (ns):          9.019
  Required (ns):         9.517

Path 16
  From:                  fc1/counter[0]:CLK
  To:                    fc1/counter[2]:D
  Delay (ns):            3.158
  Slack (ns):            0.523
  Arrival (ns):          8.953
  Required (ns):         9.476

Path 17
  From:                  fc0/counter[2]:CLK
  To:                    fc0/counter[3]:D
  Delay (ns):            3.175
  Slack (ns):            0.526
  Arrival (ns):          9.002
  Required (ns):         9.528

Path 18
  From:                  fc1/counter[1]:CLK
  To:                    fc1/final_count[3]:D
  Delay (ns):            3.142
  Slack (ns):            0.529
  Arrival (ns):          8.947
  Required (ns):         9.476

Path 19
  From:                  fc0/counter[2]:CLK
  To:                    fc0/final_count[3]:D
  Delay (ns):            3.158
  Slack (ns):            0.532
  Arrival (ns):          8.985
  Required (ns):         9.517

Path 20
  From:                  fc2/counter[2]:CLK
  To:                    fc2/counter[3]:D
  Delay (ns):            3.149
  Slack (ns):            0.544
  Arrival (ns):          8.954
  Required (ns):         9.498

Path 21
  From:                  fc2/counter[0]:CLK
  To:                    fc2/final_count[3]:D
  Delay (ns):            3.066
  Slack (ns):            0.616
  Arrival (ns):          8.882
  Required (ns):         9.498

Path 22
  From:                  fc0/state:CLK
  To:                    fc0/final_count[3]:E
  Delay (ns):            3.137
  Slack (ns):            0.644
  Arrival (ns):          8.964
  Required (ns):         9.608

Path 23
  From:                  fc0/state:CLK
  To:                    fc0/final_count[1]:E
  Delay (ns):            3.137
  Slack (ns):            0.644
  Arrival (ns):          8.964
  Required (ns):         9.608

Path 24
  From:                  fc0/state:CLK
  To:                    fc0/final_count[0]:E
  Delay (ns):            3.137
  Slack (ns):            0.644
  Arrival (ns):          8.964
  Required (ns):         9.608

Path 25
  From:                  fc0/state:CLK
  To:                    fc2/final_count[3]:E
  Delay (ns):            3.137
  Slack (ns):            0.655
  Arrival (ns):          8.964
  Required (ns):         9.619

Path 26
  From:                  fc0/state:CLK
  To:                    fc2/final_count[0]:E
  Delay (ns):            3.137
  Slack (ns):            0.655
  Arrival (ns):          8.964
  Required (ns):         9.619

Path 27
  From:                  fc0/state:CLK
  To:                    fc0/final_count[2]:E
  Delay (ns):            3.137
  Slack (ns):            0.655
  Arrival (ns):          8.964
  Required (ns):         9.619

Path 28
  From:                  fc0/state:CLK
  To:                    fc2/final_count[1]:E
  Delay (ns):            3.137
  Slack (ns):            0.655
  Arrival (ns):          8.964
  Required (ns):         9.619

Path 29
  From:                  fc0/state:CLK
  To:                    fc1/counter[1]:D
  Delay (ns):            3.021
  Slack (ns):            0.658
  Arrival (ns):          8.848
  Required (ns):         9.506

Path 30
  From:                  fc0/state:CLK
  To:                    fc2/counter[2]:D
  Delay (ns):            3.021
  Slack (ns):            0.658
  Arrival (ns):          8.848
  Required (ns):         9.506

Path 31
  From:                  fc0/state:CLK
  To:                    fc2/counter[1]:D
  Delay (ns):            3.021
  Slack (ns):            0.669
  Arrival (ns):          8.848
  Required (ns):         9.517

Path 32
  From:                  fc0/state:CLK
  To:                    fc2/final_count[2]:E
  Delay (ns):            3.106
  Slack (ns):            0.675
  Arrival (ns):          8.933
  Required (ns):         9.608

Path 33
  From:                  fc0/state:CLK
  To:                    fc0/counter[2]:D
  Delay (ns):            2.996
  Slack (ns):            0.705
  Arrival (ns):          8.823
  Required (ns):         9.528

Path 34
  From:                  fc0/state:CLK
  To:                    fc2/counter[3]:D
  Delay (ns):            2.996
  Slack (ns):            0.705
  Arrival (ns):          8.823
  Required (ns):         9.528

Path 35
  From:                  fc0/state:CLK
  To:                    fc1/counter[3]:D
  Delay (ns):            2.963
  Slack (ns):            0.716
  Arrival (ns):          8.790
  Required (ns):         9.506

Path 36
  From:                  fc0/state:CLK
  To:                    fc0/counter[3]:D
  Delay (ns):            2.931
  Slack (ns):            0.770
  Arrival (ns):          8.758
  Required (ns):         9.528

Path 37
  From:                  fc0/counter[0]:CLK
  To:                    fc0/final_count[1]:D
  Delay (ns):            2.858
  Slack (ns):            0.802
  Arrival (ns):          8.685
  Required (ns):         9.487

Path 38
  From:                  fc1/counter[2]:CLK
  To:                    fc1/counter[2]:D
  Delay (ns):            2.868
  Slack (ns):            0.803
  Arrival (ns):          8.673
  Required (ns):         9.476

Path 39
  From:                  fc0/counter[1]:CLK
  To:                    fc0/counter[2]:D
  Delay (ns):            2.864
  Slack (ns):            0.807
  Arrival (ns):          8.691
  Required (ns):         9.498

Path 40
  From:                  fc0/state:CLK
  To:                    fc1/counter[0]:D
  Delay (ns):            2.856
  Slack (ns):            0.813
  Arrival (ns):          8.683
  Required (ns):         9.496

Path 41
  From:                  fc0/state:CLK
  To:                    fc1/final_count[2]:E
  Delay (ns):            2.947
  Slack (ns):            0.813
  Arrival (ns):          8.774
  Required (ns):         9.587

Path 42
  From:                  fc0/state:CLK
  To:                    fc0/counter[0]:D
  Delay (ns):            2.886
  Slack (ns):            0.815
  Arrival (ns):          8.713
  Required (ns):         9.528

Path 43
  From:                  fc0/counter[1]:CLK
  To:                    fc0/counter[1]:D
  Delay (ns):            2.855
  Slack (ns):            0.816
  Arrival (ns):          8.682
  Required (ns):         9.498

Path 44
  From:                  fc2/counter[1]:CLK
  To:                    fc2/counter[2]:D
  Delay (ns):            2.831
  Slack (ns):            0.829
  Arrival (ns):          8.647
  Required (ns):         9.476

Path 45
  From:                  fc0/counter[0]:CLK
  To:                    fc0/counter[2]:D
  Delay (ns):            2.814
  Slack (ns):            0.857
  Arrival (ns):          8.641
  Required (ns):         9.498

Path 46
  From:                  fc0/state:CLK
  To:                    fc1/final_count[3]:E
  Delay (ns):            2.880
  Slack (ns):            0.890
  Arrival (ns):          8.707
  Required (ns):         9.597

Path 47
  From:                  fc1/counter[2]:CLK
  To:                    fc1/counter[3]:D
  Delay (ns):            2.737
  Slack (ns):            0.934
  Arrival (ns):          8.542
  Required (ns):         9.476

Path 48
  From:                  fc2/final_count[1]:CLK
  To:                    fc2/ck_ok:D
  Delay (ns):            2.724
  Slack (ns):            0.966
  Arrival (ns):          8.551
  Required (ns):         9.517

Path 49
  From:                  fc2/counter[0]:CLK
  To:                    fc2/counter[2]:D
  Delay (ns):            2.689
  Slack (ns):            0.971
  Arrival (ns):          8.505
  Required (ns):         9.476

Path 50
  From:                  fc1/final_count[1]:CLK
  To:                    fc1/ck_ok:D
  Delay (ns):            2.732
  Slack (ns):            0.977
  Arrival (ns):          8.527
  Required (ns):         9.504

Path 51
  From:                  fc0/final_count[1]:CLK
  To:                    fc0/ck_ok:D
  Delay (ns):            2.732
  Slack (ns):            0.978
  Arrival (ns):          8.548
  Required (ns):         9.526

Path 52
  From:                  fc0/counter[3]:CLK
  To:                    fc0/counter[3]:D
  Delay (ns):            2.675
  Slack (ns):            0.996
  Arrival (ns):          8.502
  Required (ns):         9.498

Path 53
  From:                  fc0/counter[3]:CLK
  To:                    fc0/final_count[3]:D
  Delay (ns):            2.622
  Slack (ns):            1.038
  Arrival (ns):          8.449
  Required (ns):         9.487

Path 54
  From:                  fc1/counter[0]:CLK
  To:                    fc1/final_count[1]:D
  Delay (ns):            2.627
  Slack (ns):            1.044
  Arrival (ns):          8.422
  Required (ns):         9.466

Path 55
  From:                  fc0/state:CLK
  To:                    fc2/counter[0]:D
  Delay (ns):            2.557
  Slack (ns):            1.133
  Arrival (ns):          8.384
  Required (ns):         9.517

Path 56
  From:                  fc2/final_count[0]:CLK
  To:                    fc2/ck_ok:D
  Delay (ns):            2.544
  Slack (ns):            1.146
  Arrival (ns):          8.371
  Required (ns):         9.517

Path 57
  From:                  fc1/final_count[0]:CLK
  To:                    fc1/ck_ok:D
  Delay (ns):            2.552
  Slack (ns):            1.147
  Arrival (ns):          8.357
  Required (ns):         9.504

Path 58
  From:                  fc2/counter[2]:CLK
  To:                    fc2/final_count[3]:D
  Delay (ns):            2.535
  Slack (ns):            1.158
  Arrival (ns):          8.340
  Required (ns):         9.498

Path 59
  From:                  fc0/final_count[0]:CLK
  To:                    fc0/ck_ok:D
  Delay (ns):            2.552
  Slack (ns):            1.158
  Arrival (ns):          8.368
  Required (ns):         9.526

Path 60
  From:                  fc0/counter[2]:CLK
  To:                    fc0/counter[2]:D
  Delay (ns):            2.370
  Slack (ns):            1.301
  Arrival (ns):          8.197
  Required (ns):         9.498

Path 61
  From:                  fc2/counter[2]:CLK
  To:                    fc2/final_count[2]:D
  Delay (ns):            2.368
  Slack (ns):            1.314
  Arrival (ns):          8.173
  Required (ns):         9.487

Path 62
  From:                  fc1/final_count[3]:CLK
  To:                    fc1/ck_ok:D
  Delay (ns):            2.339
  Slack (ns):            1.330
  Arrival (ns):          8.144
  Required (ns):         9.474

Path 63
  From:                  fc2/final_count[3]:CLK
  To:                    fc2/ck_ok:D
  Delay (ns):            2.328
  Slack (ns):            1.332
  Arrival (ns):          8.155
  Required (ns):         9.487

Path 64
  From:                  fc0/final_count[3]:CLK
  To:                    fc0/ck_ok:D
  Delay (ns):            2.339
  Slack (ns):            1.341
  Arrival (ns):          8.155
  Required (ns):         9.496

Path 65
  From:                  fc1/counter[3]:CLK
  To:                    fc1/counter[3]:D
  Delay (ns):            2.312
  Slack (ns):            1.359
  Arrival (ns):          8.117
  Required (ns):         9.476

Path 66
  From:                  fc2/counter[3]:CLK
  To:                    fc2/counter[3]:D
  Delay (ns):            2.311
  Slack (ns):            1.360
  Arrival (ns):          8.138
  Required (ns):         9.498

Path 67
  From:                  fc1/counter[1]:CLK
  To:                    fc1/final_count[2]:D
  Delay (ns):            2.262
  Slack (ns):            1.399
  Arrival (ns):          8.067
  Required (ns):         9.466

Path 68
  From:                  fc1/counter[1]:CLK
  To:                    fc1/final_count[1]:D
  Delay (ns):            2.252
  Slack (ns):            1.409
  Arrival (ns):          8.057
  Required (ns):         9.466

Path 69
  From:                  fc2/counter[1]:CLK
  To:                    fc2/final_count[2]:D
  Delay (ns):            2.262
  Slack (ns):            1.409
  Arrival (ns):          8.078
  Required (ns):         9.487

Path 70
  From:                  fc0/counter[1]:CLK
  To:                    fc0/final_count[1]:D
  Delay (ns):            2.241
  Slack (ns):            1.419
  Arrival (ns):          8.068
  Required (ns):         9.487

Path 71
  From:                  fc2/counter[0]:CLK
  To:                    fc2/final_count[2]:D
  Delay (ns):            2.250
  Slack (ns):            1.421
  Arrival (ns):          8.066
  Required (ns):         9.487

Path 72
  From:                  fc0/counter[1]:CLK
  To:                    fc0/final_count[2]:D
  Delay (ns):            2.248
  Slack (ns):            1.423
  Arrival (ns):          8.075
  Required (ns):         9.498

Path 73
  From:                  fc2/counter[1]:CLK
  To:                    fc2/final_count[1]:D
  Delay (ns):            2.252
  Slack (ns):            1.430
  Arrival (ns):          8.068
  Required (ns):         9.498

Path 74
  From:                  fc1/counter[0]:CLK
  To:                    fc1/final_count[2]:D
  Delay (ns):            2.215
  Slack (ns):            1.456
  Arrival (ns):          8.010
  Required (ns):         9.466

Path 75
  From:                  fc0/counter[0]:CLK
  To:                    fc0/final_count[2]:D
  Delay (ns):            2.198
  Slack (ns):            1.473
  Arrival (ns):          8.025
  Required (ns):         9.498

Path 76
  From:                  fc1/counter[2]:CLK
  To:                    fc1/final_count[3]:D
  Delay (ns):            2.119
  Slack (ns):            1.552
  Arrival (ns):          7.924
  Required (ns):         9.476

Path 77
  From:                  fc0/state:CLK
  To:                    fc1/counter[2]:D
  Delay (ns):            2.123
  Slack (ns):            1.556
  Arrival (ns):          7.950
  Required (ns):         9.506

Path 78
  From:                  fc2/counter[0]:CLK
  To:                    fc2/counter[1]:D
  Delay (ns):            2.107
  Slack (ns):            1.564
  Arrival (ns):          7.923
  Required (ns):         9.487

Path 79
  From:                  fc1/counter[0]:CLK
  To:                    fc1/counter[1]:D
  Delay (ns):            2.070
  Slack (ns):            1.611
  Arrival (ns):          7.865
  Required (ns):         9.476

Path 80
  From:                  fc1/counter[2]:CLK
  To:                    fc1/final_count[2]:D
  Delay (ns):            1.925
  Slack (ns):            1.736
  Arrival (ns):          7.730
  Required (ns):         9.466

Path 81
  From:                  fc2/counter[1]:CLK
  To:                    fc2/counter[1]:D
  Delay (ns):            1.933
  Slack (ns):            1.738
  Arrival (ns):          7.749
  Required (ns):         9.487

Path 82
  From:                  fc1/counter[1]:CLK
  To:                    fc1/counter[1]:D
  Delay (ns):            1.962
  Slack (ns):            1.739
  Arrival (ns):          7.767
  Required (ns):         9.506

Path 83
  From:                  fc2/counter[2]:CLK
  To:                    fc2/counter[2]:D
  Delay (ns):            1.919
  Slack (ns):            1.752
  Arrival (ns):          7.724
  Required (ns):         9.476

Path 84
  From:                  fc0/final_count[2]:CLK
  To:                    fc0/ck_ok:D
  Delay (ns):            1.894
  Slack (ns):            1.805
  Arrival (ns):          7.721
  Required (ns):         9.526

Path 85
  From:                  fc2/counter[0]:CLK
  To:                    fc2/final_count[1]:D
  Delay (ns):            1.828
  Slack (ns):            1.854
  Arrival (ns):          7.644
  Required (ns):         9.498

Path 86
  From:                  fc0/counter[2]:CLK
  To:                    fc0/final_count[2]:D
  Delay (ns):            1.754
  Slack (ns):            1.917
  Arrival (ns):          7.581
  Required (ns):         9.498

Path 87
  From:                  fc2/counter[0]:CLK
  To:                    fc2/final_count[0]:D
  Delay (ns):            1.773
  Slack (ns):            1.939
  Arrival (ns):          7.589
  Required (ns):         9.528

Path 88
  From:                  fc2/counter[0]:CLK
  To:                    fc2/counter[0]:D
  Delay (ns):            1.732
  Slack (ns):            1.969
  Arrival (ns):          7.548
  Required (ns):         9.517

Path 89
  From:                  fc2/counter[3]:CLK
  To:                    fc2/final_count[3]:D
  Delay (ns):            1.697
  Slack (ns):            1.974
  Arrival (ns):          7.524
  Required (ns):         9.498

Path 90
  From:                  fc1/counter[3]:CLK
  To:                    fc1/final_count[3]:D
  Delay (ns):            1.694
  Slack (ns):            1.977
  Arrival (ns):          7.499
  Required (ns):         9.476

Path 91
  From:                  fc1/counter[0]:CLK
  To:                    fc1/counter[0]:D
  Delay (ns):            1.707
  Slack (ns):            1.994
  Arrival (ns):          7.502
  Required (ns):         9.496

Path 92
  From:                  fc0/counter[0]:CLK
  To:                    fc0/counter[0]:D
  Delay (ns):            1.632
  Slack (ns):            2.069
  Arrival (ns):          7.459
  Required (ns):         9.528

Path 93
  From:                  fc1/final_count[2]:CLK
  To:                    fc1/ck_ok:D
  Delay (ns):            1.529
  Slack (ns):            2.180
  Arrival (ns):          7.324
  Required (ns):         9.504

Path 94
  From:                  fc2/final_count[2]:CLK
  To:                    fc2/ck_ok:D
  Delay (ns):            1.521
  Slack (ns):            2.180
  Arrival (ns):          7.337
  Required (ns):         9.517

Path 95
  From:                  fc1/counter[0]:CLK
  To:                    fc1/final_count[0]:D
  Delay (ns):            1.510
  Slack (ns):            2.201
  Arrival (ns):          7.305
  Required (ns):         9.506

Path 96
  From:                  fc0/counter[0]:CLK
  To:                    fc0/final_count[0]:D
  Delay (ns):            1.338
  Slack (ns):            2.352
  Arrival (ns):          7.165
  Required (ns):         9.517

