Timing Violation Report Max Delay Analysis

SmartTime Version v11.9 SP5
Microsemi Corporation - Microsemi Libero Software Release v11.9 SP5 (Version 11.9.5.5)
Date: Wed Apr 15 16:14:07 2020


Design: jtag_interface_top
Family: ProASIC3
Die: A3P250
Package: 144 FBGA
Temperature Range: -40 - 85 C
Voltage Range: 1.425 - 1.575 V
Speed Grade: -1
Design State: Post-Layout
Data source: Silicon verified
Min Operating Conditions: BEST - 1.575 V - -40 C
Max Operating Conditions: WORST - 1.425 V - 85 C
Using Enhanced Min Delay Analysis
Scenario for Timing Analysis: Primary


Path 1
  From:                  fc0/state:CLK
  To:                    fc0/counter[1]:D
  Delay (ns):            3.994
  Slack (ns):            -0.324
  Arrival (ns):          9.814
  Required (ns):         9.490

Path 2
  From:                  fc0/state:CLK
  To:                    fc1/counter[0]:D
  Delay (ns):            3.856
  Slack (ns):            -0.182
  Arrival (ns):          9.676
  Required (ns):         9.494

Path 3
  From:                  fc0/state:CLK
  To:                    fc0/counter[0]:D
  Delay (ns):            3.838
  Slack (ns):            -0.149
  Arrival (ns):          9.658
  Required (ns):         9.509

Path 4
  From:                  fc0/state:CLK
  To:                    fc0/counter[3]:D
  Delay (ns):            3.674
  Slack (ns):            -0.003
  Arrival (ns):          9.494
  Required (ns):         9.491

Path 5
  From:                  fc0/counter[1]:CLK
  To:                    fc0/counter[3]:D
  Delay (ns):            3.644
  Slack (ns):            0.028
  Arrival (ns):          9.463
  Required (ns):         9.491

Path 6
  From:                  fc0/counter[2]:CLK
  To:                    fc0/counter[3]:D
  Delay (ns):            3.607
  Slack (ns):            0.065
  Arrival (ns):          9.426
  Required (ns):         9.491

Path 7
  From:                  fc0/state:CLK
  To:                    fc1/counter[3]:D
  Delay (ns):            3.538
  Slack (ns):            0.096
  Arrival (ns):          9.358
  Required (ns):         9.454

Path 8
  From:                  fc0/state:CLK
  To:                    fc2/counter[0]:D
  Delay (ns):            3.537
  Slack (ns):            0.164
  Arrival (ns):          9.357
  Required (ns):         9.521

Path 9
  From:                  fc0/counter[0]:CLK
  To:                    fc0/counter[3]:D
  Delay (ns):            3.515
  Slack (ns):            0.168
  Arrival (ns):          9.323
  Required (ns):         9.491

Path 10
  From:                  fc0/state:CLK
  To:                    fc1/counter[2]:D
  Delay (ns):            3.466
  Slack (ns):            0.178
  Arrival (ns):          9.286
  Required (ns):         9.464

Path 11
  From:                  fc0/state:CLK
  To:                    fc2/counter[2]:D
  Delay (ns):            3.462
  Slack (ns):            0.192
  Arrival (ns):          9.282
  Required (ns):         9.474

Path 12
  From:                  fc0/final_count[3]:CLK
  To:                    fc0/ck_ok:D
  Delay (ns):            3.428
  Slack (ns):            0.231
  Arrival (ns):          9.248
  Required (ns):         9.479

Path 13
  From:                  fc2/final_count[3]:CLK
  To:                    fc2/ck_ok:D
  Delay (ns):            3.426
  Slack (ns):            0.245
  Arrival (ns):          9.229
  Required (ns):         9.474

Path 14
  From:                  fc1/final_count[3]:CLK
  To:                    fc1/ck_ok:D
  Delay (ns):            3.428
  Slack (ns):            0.268
  Arrival (ns):          9.211
  Required (ns):         9.479

Path 15
  From:                  fc1/counter[1]:CLK
  To:                    fc1/counter[3]:D
  Delay (ns):            3.378
  Slack (ns):            0.283
  Arrival (ns):          9.171
  Required (ns):         9.454

Path 16
  From:                  fc2/counter[1]:CLK
  To:                    fc2/counter[3]:D
  Delay (ns):            3.376
  Slack (ns):            0.295
  Arrival (ns):          9.179
  Required (ns):         9.474

Path 17
  From:                  fc0/state:CLK
  To:                    fc1/counter[1]:D
  Delay (ns):            3.348
  Slack (ns):            0.296
  Arrival (ns):          9.168
  Required (ns):         9.464

Path 18
  From:                  fc0/state:CLK
  To:                    fc0/counter[2]:D
  Delay (ns):            3.365
  Slack (ns):            0.305
  Arrival (ns):          9.185
  Required (ns):         9.490

Path 19
  From:                  fc1/counter[2]:CLK
  To:                    fc1/counter[3]:D
  Delay (ns):            3.344
  Slack (ns):            0.317
  Arrival (ns):          9.137
  Required (ns):         9.454

Path 20
  From:                  fc2/counter[2]:CLK
  To:                    fc2/counter[3]:D
  Delay (ns):            3.342
  Slack (ns):            0.329
  Arrival (ns):          9.145
  Required (ns):         9.474

Path 21
  From:                  fc1/counter[0]:CLK
  To:                    fc1/counter[3]:D
  Delay (ns):            3.314
  Slack (ns):            0.347
  Arrival (ns):          9.107
  Required (ns):         9.454

Path 22
  From:                  fc2/final_count[2]:CLK
  To:                    fc2/ck_ok:D
  Delay (ns):            3.335
  Slack (ns):            0.366
  Arrival (ns):          9.138
  Required (ns):         9.504

Path 23
  From:                  fc1/final_count[2]:CLK
  To:                    fc1/ck_ok:D
  Delay (ns):            3.337
  Slack (ns):            0.379
  Arrival (ns):          9.130
  Required (ns):         9.509

Path 24
  From:                  fc2/counter[0]:CLK
  To:                    fc2/counter[3]:D
  Delay (ns):            3.268
  Slack (ns):            0.386
  Arrival (ns):          9.088
  Required (ns):         9.474

Path 25
  From:                  fc0/final_count[2]:CLK
  To:                    fc0/ck_ok:D
  Delay (ns):            3.277
  Slack (ns):            0.424
  Arrival (ns):          9.085
  Required (ns):         9.509

Path 26
  From:                  fc0/state:CLK
  To:                    fc2/counter[3]:D
  Delay (ns):            3.138
  Slack (ns):            0.516
  Arrival (ns):          8.958
  Required (ns):         9.474

Path 27
  From:                  fc0/counter[1]:CLK
  To:                    fc0/counter[2]:D
  Delay (ns):            3.091
  Slack (ns):            0.610
  Arrival (ns):          8.910
  Required (ns):         9.520

Path 28
  From:                  fc0/counter[1]:CLK
  To:                    fc0/counter[1]:D
  Delay (ns):            3.087
  Slack (ns):            0.614
  Arrival (ns):          8.906
  Required (ns):         9.520

Path 29
  From:                  fc1/counter[1]:CLK
  To:                    fc1/counter[2]:D
  Delay (ns):            3.079
  Slack (ns):            0.622
  Arrival (ns):          8.872
  Required (ns):         9.494

Path 30
  From:                  fc2/counter[1]:CLK
  To:                    fc2/counter[1]:D
  Delay (ns):            3.075
  Slack (ns):            0.626
  Arrival (ns):          8.878
  Required (ns):         9.504

Path 31
  From:                  fc1/counter[1]:CLK
  To:                    fc1/counter[1]:D
  Delay (ns):            3.074
  Slack (ns):            0.627
  Arrival (ns):          8.867
  Required (ns):         9.494

Path 32
  From:                  fc1/counter[0]:CLK
  To:                    fc1/counter[2]:D
  Delay (ns):            3.073
  Slack (ns):            0.628
  Arrival (ns):          8.866
  Required (ns):         9.494

Path 33
  From:                  fc0/counter[0]:CLK
  To:                    fc0/counter[2]:D
  Delay (ns):            3.080
  Slack (ns):            0.632
  Arrival (ns):          8.888
  Required (ns):         9.520

Path 34
  From:                  fc0/state:CLK
  To:                    fc1/final_count[3]:E
  Delay (ns):            3.114
  Slack (ns):            0.641
  Arrival (ns):          8.934
  Required (ns):         9.575

Path 35
  From:                  fc2/counter[0]:CLK
  To:                    fc2/counter[2]:D
  Delay (ns):            3.019
  Slack (ns):            0.665
  Arrival (ns):          8.839
  Required (ns):         9.504

Path 36
  From:                  fc2/counter[1]:CLK
  To:                    fc2/counter[2]:D
  Delay (ns):            3.025
  Slack (ns):            0.676
  Arrival (ns):          8.828
  Required (ns):         9.504

Path 37
  From:                  fc0/state:CLK
  To:                    fc2/final_count[0]:E
  Delay (ns):            3.108
  Slack (ns):            0.684
  Arrival (ns):          8.928
  Required (ns):         9.612

Path 38
  From:                  fc0/state:CLK
  To:                    fc2/final_count[2]:E
  Delay (ns):            3.021
  Slack (ns):            0.754
  Arrival (ns):          8.841
  Required (ns):         9.595

Path 39
  From:                  fc0/counter[3]:CLK
  To:                    fc0/counter[3]:D
  Delay (ns):            2.946
  Slack (ns):            0.755
  Arrival (ns):          8.766
  Required (ns):         9.521

Path 40
  From:                  fc2/counter[3]:CLK
  To:                    fc2/counter[3]:D
  Delay (ns):            2.946
  Slack (ns):            0.755
  Arrival (ns):          8.749
  Required (ns):         9.504

Path 41
  From:                  fc1/counter[3]:CLK
  To:                    fc1/counter[3]:D
  Delay (ns):            2.945
  Slack (ns):            0.756
  Arrival (ns):          8.728
  Required (ns):         9.484

Path 42
  From:                  fc0/counter[1]:CLK
  To:                    fc0/final_count[3]:D
  Delay (ns):            2.920
  Slack (ns):            0.782
  Arrival (ns):          8.739
  Required (ns):         9.521

Path 43
  From:                  fc0/state:CLK
  To:                    fc0/final_count[2]:E
  Delay (ns):            2.974
  Slack (ns):            0.806
  Arrival (ns):          8.794
  Required (ns):         9.600

Path 44
  From:                  fc0/state:CLK
  To:                    fc0/final_count[1]:E
  Delay (ns):            2.974
  Slack (ns):            0.806
  Arrival (ns):          8.794
  Required (ns):         9.600

Path 45
  From:                  fc0/state:CLK
  To:                    fc1/final_count[1]:E
  Delay (ns):            2.974
  Slack (ns):            0.818
  Arrival (ns):          8.794
  Required (ns):         9.612

Path 46
  From:                  fc0/state:CLK
  To:                    fc1/final_count[0]:E
  Delay (ns):            2.974
  Slack (ns):            0.818
  Arrival (ns):          8.794
  Required (ns):         9.612

Path 47
  From:                  fc0/state:CLK
  To:                    fc0/final_count[0]:E
  Delay (ns):            2.974
  Slack (ns):            0.818
  Arrival (ns):          8.794
  Required (ns):         9.612

Path 48
  From:                  fc0/counter[2]:CLK
  To:                    fc0/final_count[3]:D
  Delay (ns):            2.883
  Slack (ns):            0.819
  Arrival (ns):          8.702
  Required (ns):         9.521

Path 49
  From:                  fc2/counter[0]:CLK
  To:                    fc2/final_count[2]:D
  Delay (ns):            2.747
  Slack (ns):            0.907
  Arrival (ns):          8.567
  Required (ns):         9.474

Path 50
  From:                  fc2/counter[1]:CLK
  To:                    fc2/final_count[2]:D
  Delay (ns):            2.753
  Slack (ns):            0.918
  Arrival (ns):          8.556
  Required (ns):         9.474

Path 51
  From:                  fc0/counter[0]:CLK
  To:                    fc0/final_count[3]:D
  Delay (ns):            2.791
  Slack (ns):            0.922
  Arrival (ns):          8.599
  Required (ns):         9.521

Path 52
  From:                  fc0/counter[0]:CLK
  To:                    fc0/final_count[0]:D
  Delay (ns):            2.770
  Slack (ns):            0.943
  Arrival (ns):          8.578
  Required (ns):         9.521

Path 53
  From:                  fc0/state:CLK
  To:                    fc1/final_count[2]:E
  Delay (ns):            2.766
  Slack (ns):            0.999
  Arrival (ns):          8.586
  Required (ns):         9.585

Path 54
  From:                  fc2/counter[0]:CLK
  To:                    fc2/counter[1]:D
  Delay (ns):            2.656
  Slack (ns):            1.028
  Arrival (ns):          8.476
  Required (ns):         9.504

Path 55
  From:                  fc1/counter[1]:CLK
  To:                    fc1/final_count[3]:D
  Delay (ns):            2.652
  Slack (ns):            1.039
  Arrival (ns):          8.445
  Required (ns):         9.484

Path 56
  From:                  fc1/counter[0]:CLK
  To:                    fc1/counter[1]:D
  Delay (ns):            2.655
  Slack (ns):            1.046
  Arrival (ns):          8.448
  Required (ns):         9.494

Path 57
  From:                  fc2/counter[1]:CLK
  To:                    fc2/final_count[3]:D
  Delay (ns):            2.652
  Slack (ns):            1.049
  Arrival (ns):          8.455
  Required (ns):         9.504

Path 58
  From:                  fc0/counter[0]:CLK
  To:                    fc0/counter[1]:D
  Delay (ns):            2.663
  Slack (ns):            1.049
  Arrival (ns):          8.471
  Required (ns):         9.520

Path 59
  From:                  fc1/counter[2]:CLK
  To:                    fc1/final_count[3]:D
  Delay (ns):            2.618
  Slack (ns):            1.073
  Arrival (ns):          8.411
  Required (ns):         9.484

Path 60
  From:                  fc2/counter[0]:CLK
  To:                    fc2/final_count[0]:D
  Delay (ns):            2.626
  Slack (ns):            1.075
  Arrival (ns):          8.446
  Required (ns):         9.521

Path 61
  From:                  fc2/counter[2]:CLK
  To:                    fc2/final_count[3]:D
  Delay (ns):            2.618
  Slack (ns):            1.083
  Arrival (ns):          8.421
  Required (ns):         9.504

Path 62
  From:                  fc0/state:CLK
  To:                    fc2/counter[1]:D
  Delay (ns):            2.564
  Slack (ns):            1.090
  Arrival (ns):          8.384
  Required (ns):         9.474

Path 63
  From:                  fc2/final_count[0]:CLK
  To:                    fc2/ck_ok:D
  Delay (ns):            2.586
  Slack (ns):            1.098
  Arrival (ns):          8.406
  Required (ns):         9.504

Path 64
  From:                  fc1/final_count[0]:CLK
  To:                    fc1/ck_ok:D
  Delay (ns):            2.586
  Slack (ns):            1.103
  Arrival (ns):          8.406
  Required (ns):         9.509

Path 65
  From:                  fc0/final_count[0]:CLK
  To:                    fc0/ck_ok:D
  Delay (ns):            2.586
  Slack (ns):            1.103
  Arrival (ns):          8.406
  Required (ns):         9.509

Path 66
  From:                  fc1/counter[0]:CLK
  To:                    fc1/final_count[3]:D
  Delay (ns):            2.588
  Slack (ns):            1.103
  Arrival (ns):          8.381
  Required (ns):         9.484

Path 67
  From:                  fc0/counter[2]:CLK
  To:                    fc0/counter[2]:D
  Delay (ns):            2.595
  Slack (ns):            1.106
  Arrival (ns):          8.414
  Required (ns):         9.520

Path 68
  From:                  fc1/counter[2]:CLK
  To:                    fc1/counter[2]:D
  Delay (ns):            2.591
  Slack (ns):            1.110
  Arrival (ns):          8.384
  Required (ns):         9.494

Path 69
  From:                  fc2/counter[0]:CLK
  To:                    fc2/final_count[3]:D
  Delay (ns):            2.544
  Slack (ns):            1.140
  Arrival (ns):          8.364
  Required (ns):         9.504

Path 70
  From:                  fc0/state:CLK
  To:                    fc2/final_count[3]:E
  Delay (ns):            2.632
  Slack (ns):            1.143
  Arrival (ns):          8.452
  Required (ns):         9.595

Path 71
  From:                  fc2/final_count[1]:CLK
  To:                    fc2/ck_ok:D
  Delay (ns):            2.526
  Slack (ns):            1.158
  Arrival (ns):          8.346
  Required (ns):         9.504

Path 72
  From:                  fc1/final_count[1]:CLK
  To:                    fc1/ck_ok:D
  Delay (ns):            2.526
  Slack (ns):            1.163
  Arrival (ns):          8.346
  Required (ns):         9.509

Path 73
  From:                  fc2/counter[2]:CLK
  To:                    fc2/counter[2]:D
  Delay (ns):            2.537
  Slack (ns):            1.164
  Arrival (ns):          8.340
  Required (ns):         9.504

Path 74
  From:                  fc0/final_count[1]:CLK
  To:                    fc0/ck_ok:D
  Delay (ns):            2.526
  Slack (ns):            1.175
  Arrival (ns):          8.334
  Required (ns):         9.509

Path 75
  From:                  fc0/state:CLK
  To:                    fc0/final_count[3]:E
  Delay (ns):            2.610
  Slack (ns):            1.182
  Arrival (ns):          8.430
  Required (ns):         9.612

Path 76
  From:                  fc2/counter[2]:CLK
  To:                    fc2/final_count[2]:D
  Delay (ns):            2.314
  Slack (ns):            1.387
  Arrival (ns):          8.117
  Required (ns):         9.504

Path 77
  From:                  fc0/counter[1]:CLK
  To:                    fc0/final_count[2]:D
  Delay (ns):            2.250
  Slack (ns):            1.410
  Arrival (ns):          8.069
  Required (ns):         9.479

Path 78
  From:                  fc0/counter[1]:CLK
  To:                    fc0/final_count[1]:D
  Delay (ns):            2.246
  Slack (ns):            1.414
  Arrival (ns):          8.065
  Required (ns):         9.479

Path 79
  From:                  fc1/counter[1]:CLK
  To:                    fc1/final_count[2]:D
  Delay (ns):            2.247
  Slack (ns):            1.424
  Arrival (ns):          8.040
  Required (ns):         9.464

Path 80
  From:                  fc1/counter[0]:CLK
  To:                    fc1/final_count[2]:D
  Delay (ns):            2.241
  Slack (ns):            1.430
  Arrival (ns):          8.034
  Required (ns):         9.464

Path 81
  From:                  fc0/counter[0]:CLK
  To:                    fc0/final_count[2]:D
  Delay (ns):            2.239
  Slack (ns):            1.432
  Arrival (ns):          8.047
  Required (ns):         9.479

Path 82
  From:                  fc1/counter[0]:CLK
  To:                    fc1/final_count[0]:D
  Delay (ns):            2.293
  Slack (ns):            1.435
  Arrival (ns):          8.086
  Required (ns):         9.521

Path 83
  From:                  fc2/counter[1]:CLK
  To:                    fc2/final_count[1]:D
  Delay (ns):            2.243
  Slack (ns):            1.445
  Arrival (ns):          8.046
  Required (ns):         9.491

Path 84
  From:                  fc1/counter[1]:CLK
  To:                    fc1/final_count[1]:D
  Delay (ns):            2.241
  Slack (ns):            1.457
  Arrival (ns):          8.034
  Required (ns):         9.491

Path 85
  From:                  fc0/counter[3]:CLK
  To:                    fc0/final_count[3]:D
  Delay (ns):            2.114
  Slack (ns):            1.557
  Arrival (ns):          7.934
  Required (ns):         9.491

Path 86
  From:                  fc2/counter[3]:CLK
  To:                    fc2/final_count[3]:D
  Delay (ns):            2.114
  Slack (ns):            1.557
  Arrival (ns):          7.917
  Required (ns):         9.474

Path 87
  From:                  fc1/counter[3]:CLK
  To:                    fc1/final_count[3]:D
  Delay (ns):            2.112
  Slack (ns):            1.559
  Arrival (ns):          7.895
  Required (ns):         9.454

Path 88
  From:                  fc2/counter[0]:CLK
  To:                    fc2/final_count[1]:D
  Delay (ns):            1.824
  Slack (ns):            1.847
  Arrival (ns):          7.644
  Required (ns):         9.491

Path 89
  From:                  fc0/counter[0]:CLK
  To:                    fc0/final_count[1]:D
  Delay (ns):            1.822
  Slack (ns):            1.849
  Arrival (ns):          7.630
  Required (ns):         9.479

Path 90
  From:                  fc1/counter[0]:CLK
  To:                    fc1/final_count[1]:D
  Delay (ns):            1.822
  Slack (ns):            1.876
  Arrival (ns):          7.615
  Required (ns):         9.491

Path 91
  From:                  fc0/counter[2]:CLK
  To:                    fc0/final_count[2]:D
  Delay (ns):            1.754
  Slack (ns):            1.906
  Arrival (ns):          7.573
  Required (ns):         9.479

Path 92
  From:                  fc1/counter[0]:CLK
  To:                    fc1/counter[0]:D
  Delay (ns):            1.792
  Slack (ns):            1.909
  Arrival (ns):          7.585
  Required (ns):         9.494

Path 93
  From:                  fc0/counter[0]:CLK
  To:                    fc0/counter[0]:D
  Delay (ns):            1.792
  Slack (ns):            1.909
  Arrival (ns):          7.600
  Required (ns):         9.509

Path 94
  From:                  fc2/counter[0]:CLK
  To:                    fc2/counter[0]:D
  Delay (ns):            1.792
  Slack (ns):            1.909
  Arrival (ns):          7.612
  Required (ns):         9.521

Path 95
  From:                  fc1/counter[2]:CLK
  To:                    fc1/final_count[2]:D
  Delay (ns):            1.759
  Slack (ns):            1.912
  Arrival (ns):          7.552
  Required (ns):         9.464

Path 96
  From:                  fc0/state:CLK
  To:                    fc2/final_count[1]:E
  Delay (ns):            1.864
  Slack (ns):            1.928
  Arrival (ns):          7.684
  Required (ns):         9.612

