Timing Report Max Delay Analysis

SmartTime Version v11.9 SP5
Microsemi Corporation - Microsemi Libero Software Release v11.9 SP5 (Version 11.9.5.5)
Date: Wed Apr 15 16:12:38 2020


Design: jtag_interface_top
Family: ProASIC3
Die: A3P250
Package: 144 FBGA
Temperature Range: -40 - 85 C
Voltage Range: 1.425 - 1.575 V
Speed Grade: -1
Design State: Post-Layout
Data source: Silicon verified
Min Operating Conditions: BEST - 1.575 V - -40 C
Max Operating Conditions: WORST - 1.425 V - 85 C
Using Enhanced Min Delay Analysis
Scenario for Timing Analysis: Primary


-----------------------------------------------------
SUMMARY

Clock Domain:               clocking/Core:GLA
Period (ns):                0.864
Frequency (MHz):            1157.407
Required Period (ns):       25.000
Required Frequency (MHz):   40.000
External Setup (ns):        -1.595
Max Clock-To-Out (ns):      14.385

Clock Domain:               clocking/Core:GLB
Period (ns):                4.301
Frequency (MHz):            232.504
Required Period (ns):       4.167
Required Frequency (MHz):   239.981
External Setup (ns):        0.130
Max Clock-To-Out (ns):      N/A

Clock Domain:               gbt_clk40
Period (ns):                4.000
Frequency (MHz):            250.000
Required Period (ns):       24.950
Required Frequency (MHz):   40.080
External Setup (ns):        N/A
Max Clock-To-Out (ns):      N/A

Clock Domain:               osc_clk40
Period (ns):                4.000
Frequency (MHz):            250.000
Required Period (ns):       25.000
Required Frequency (MHz):   40.000
External Setup (ns):        N/A
Max Clock-To-Out (ns):      N/A

                            Input to Output
Max Delay (ns):             N/A

END SUMMARY
-----------------------------------------------------

Clock Domain clocking/Core:GLA

Info: The maximum frequency of this clock domain is limited by the minimum pulse widths of pin jtag_out_rem[2]:CLK

SET Register to Register

No Path

END SET Register to Register

----------------------------------------------------

SET External Setup

Path 1
  From:                  gbt_dvalid
  To:                    jtag_out_rem_tri_enable:D
  Delay (ns):            2.948
  Slack (ns):
  Arrival (ns):          2.948
  Required (ns):
  Setup (ns):            0.616
  External Setup (ns):   -1.595

Path 2
  From:                  gbt_tck_p[1]
  To:                    jtag_out_rem[2]:D
  Delay (ns):            2.700
  Slack (ns):
  Arrival (ns):          2.700
  Required (ns):
  Setup (ns):            0.616
  External Setup (ns):   -1.921

Path 3
  From:                  gbt_tck_n[1]
  To:                    jtag_out_rem[2]:D
  Delay (ns):            2.686
  Slack (ns):
  Arrival (ns):          2.686
  Required (ns):
  Setup (ns):            0.616
  External Setup (ns):   -1.935

Path 4
  From:                  gbt_rst_p[0]
  To:                    jtag_out_loc[3]:D
  Delay (ns):            2.618
  Slack (ns):
  Arrival (ns):          2.618
  Required (ns):
  Setup (ns):            0.616
  External Setup (ns):   -2.011

Path 5
  From:                  gbt_rst_n[0]
  To:                    jtag_out_loc[3]:D
  Delay (ns):            2.610
  Slack (ns):
  Arrival (ns):          2.610
  Required (ns):
  Setup (ns):            0.616
  External Setup (ns):   -2.019


Expanded Path 1
  From: gbt_dvalid
  To: jtag_out_rem_tri_enable:D
  data required time                             N/C
  data arrival time                          -   2.948
  slack                                          N/C
  ________________________________________________________
  Data arrival time calculation
  0.000                        gbt_dvalid (r)
               +     0.000          net: gbt_dvalid
  0.000                        gbt_dvalid_pad/U0/U0:PAD (r)
               +     0.875          cell: ADLIB:IOPAD_IN
  0.875                        gbt_dvalid_pad/U0/U0:Y (r)
               +     0.000          net: gbt_dvalid_pad/U0/NET1
  0.875                        gbt_dvalid_pad/U0/U1:YIN (r)
               +     0.037          cell: ADLIB:IOIN_IB
  0.912                        gbt_dvalid_pad/U0/U1:Y (r)
               +     1.097          net: gbt_dvalid_c
  2.009                        jtag_out_rem_tri_enable_RNO:C (r)
               +     0.649          cell: ADLIB:NOR3C
  2.658                        jtag_out_rem_tri_enable_RNO:Y (r)
               +     0.290          net: jtag_loc_en
  2.948                        jtag_out_rem_tri_enable:D (r)
                                    
  2.948                        data arrival time
  ________________________________________________________
  Data required time calculation
  N/C                          clocking/Core:GLA
               +     0.000          Clock source
  N/C                          clocking/Core:GLA (f)
               +     4.552          Clock generation
  N/C
               +     0.607          net: GLA
  N/C                          jtag_out_rem_tri_enable:CLK (f)
               -     0.616          Library setup time: ADLIB:DFN0
  N/C                          jtag_out_rem_tri_enable:D


END SET External Setup

----------------------------------------------------

SET Clock to Output

Path 1
  From:                  jtag_out_rem_tri_enable:CLK
  To:                    proasic_tck[1]
  Delay (ns):            9.226
  Slack (ns):
  Arrival (ns):          14.385
  Required (ns):
  Clock to Out (ns):     14.385

Path 2
  From:                  jtag_out_rem_tri_enable:CLK
  To:                    proasic_tdi[1]
  Delay (ns):            7.824
  Slack (ns):
  Arrival (ns):          12.983
  Required (ns):
  Clock to Out (ns):     12.983

Path 3
  From:                  jtag_out_rem_tri_enable:CLK
  To:                    proasic_rst[1]
  Delay (ns):            7.431
  Slack (ns):
  Arrival (ns):          12.590
  Required (ns):
  Clock to Out (ns):     12.590

Path 4
  From:                  jtag_out_rem_tri_enable:CLK
  To:                    proasic_tms[1]
  Delay (ns):            6.072
  Slack (ns):
  Arrival (ns):          11.231
  Required (ns):
  Clock to Out (ns):     11.231

Path 5
  From:                  jtag_out_loc[2]:CLK
  To:                    proasic_tck[0]
  Delay (ns):            5.614
  Slack (ns):
  Arrival (ns):          10.773
  Required (ns):
  Clock to Out (ns):     10.773


Expanded Path 1
  From: jtag_out_rem_tri_enable:CLK
  To: proasic_tck[1]
  data required time                             N/C
  data arrival time                          -   14.385
  slack                                          N/C
  ________________________________________________________
  Data arrival time calculation
  0.000                        clocking/Core:GLA
               +     0.000          Clock source
  0.000                        clocking/Core:GLA (f)
               +     4.552          Clock generation
  4.552
               +     0.607          net: GLA
  5.159                        jtag_out_rem_tri_enable:CLK (f)
               +     0.565          cell: ADLIB:DFN0
  5.724                        jtag_out_rem_tri_enable:Q (f)
               +     5.487          net: jtag_out_rem_tri_enable
  11.211                       proasic_tck_pad[1]/U0/U1:E (f)
               +     0.360          cell: ADLIB:IOTRI_OB_EB
  11.571                       proasic_tck_pad[1]/U0/U1:EOUT (f)
               +     0.000          net: proasic_tck_pad[1]/U0/NET2
  11.571                       proasic_tck_pad[1]/U0/U0:E (f)
               +     2.814          cell: ADLIB:IOPAD_TRI
  14.385                       proasic_tck_pad[1]/U0/U0:PAD (f)
               +     0.000          net: proasic_tck_0[1]
  14.385                       proasic_tck[1] (f)
                                    
  14.385                       data arrival time
  ________________________________________________________
  Data required time calculation
  N/C                          clocking/Core:GLA
               +     0.000          Clock source
  N/C                          clocking/Core:GLA (r)
               +     4.552          Clock generation
  N/C
                                    
  N/C                          proasic_tck[1] (f)


END SET Clock to Output

----------------------------------------------------

SET Register to Asynchronous

No Path

END SET Register to Asynchronous

----------------------------------------------------

SET External Recovery

No Path

END SET External Recovery

----------------------------------------------------

SET Asynchronous to Register

No Path

END SET Asynchronous to Register

----------------------------------------------------

Clock Domain clocking/Core:GLB

SET Register to Register

Path 1
  From:                  fc0/state:CLK
  To:                    fc0/counter[0]:D
  Delay (ns):            3.814
  Slack (ns):            -0.134
  Arrival (ns):          9.656
  Required (ns):         9.522
  Setup (ns):            0.466
  Minimum Period (ns):   4.301

Path 2
  From:                  fc0/state:CLK
  To:                    fc0/counter[1]:D
  Delay (ns):            3.620
  Slack (ns):            0.030
  Arrival (ns):          9.462
  Required (ns):         9.492
  Setup (ns):            0.496
  Minimum Period (ns):   4.137

Path 3
  From:                  fc2/counter[1]:CLK
  To:                    fc2/counter[3]:D
  Delay (ns):            3.503
  Slack (ns):            0.123
  Arrival (ns):          9.369
  Required (ns):         9.492
  Setup (ns):            0.496
  Minimum Period (ns):   4.044

Path 4
  From:                  fc0/final_count[3]:CLK
  To:                    fc0/ck_ok:D
  Delay (ns):            3.508
  Slack (ns):            0.127
  Arrival (ns):          9.350
  Required (ns):         9.477
  Setup (ns):            0.496
  Minimum Period (ns):   4.040

Path 5
  From:                  fc0/state:CLK
  To:                    fc2/counter[1]:D
  Delay (ns):            3.537
  Slack (ns):            0.158
  Arrival (ns):          9.379
  Required (ns):         9.537
  Setup (ns):            0.496
  Minimum Period (ns):   4.009


Expanded Path 1
  From: fc0/state:CLK
  To: fc0/counter[0]:D
  data required time                             9.522
  data arrival time                          -   9.656
  slack                                          -0.134
  ________________________________________________________
  Data arrival time calculation
  0.000                        clocking/Core:GLB
               +     0.000          Clock source
  0.000                        clocking/Core:GLB (r)
               +     5.201          Clock generation
  5.201
               +     0.641          net: GLB
  5.842                        fc0/state:CLK (r)
               +     0.637          cell: ADLIB:DFN1
  6.479                        fc0/state:Q (f)
               +     0.290          net: fc0/state
  6.769                        fc0/state_RNIM29B:A (f)
               +     0.545          cell: ADLIB:NOR2A
  7.314                        fc0/state_RNIM29B:Y (f)
               +     1.476          net: fc0_counter_0_sqmuxa
  8.790                        fc0/counter_RNO[0]:B (f)
               +     0.562          cell: ADLIB:NOR2
  9.352                        fc0/counter_RNO[0]:Y (r)
               +     0.304          net: fc0/counter_4[0]
  9.656                        fc0/counter[0]:D (r)
                                    
  9.656                        data arrival time
  ________________________________________________________
  Data required time calculation
  4.167                        clocking/Core:GLB
               +     0.000          Clock source
  4.167                        clocking/Core:GLB (r)
               +     5.201          Clock generation
  9.368
               +     0.620          net: GLB
  9.988                        fc0/counter[0]:CLK (r)
               -     0.466          Library setup time: ADLIB:DFN1
  9.522                        fc0/counter[0]:D
                                    
  9.522                        data required time


END SET Register to Register

----------------------------------------------------

SET External Setup

Path 1
  From:                  gbt_clk40
  To:                    fc0/counter[0]:D
  Delay (ns):            5.485
  Slack (ns):
  Arrival (ns):          5.485
  Required (ns):
  Setup (ns):            0.466
  External Setup (ns):   0.130

Path 2
  From:                  gbt_clk40
  To:                    fc0/counter[1]:D
  Delay (ns):            5.291
  Slack (ns):
  Arrival (ns):          5.291
  Required (ns):
  Setup (ns):            0.496
  External Setup (ns):   -0.034

Path 3
  From:                  gbt_clk40
  To:                    fc2/counter[1]:D
  Delay (ns):            5.208
  Slack (ns):
  Arrival (ns):          5.208
  Required (ns):
  Setup (ns):            0.496
  External Setup (ns):   -0.162

Path 4
  From:                  gbt_clk40
  To:                    fc2/counter[0]:D
  Delay (ns):            5.192
  Slack (ns):
  Arrival (ns):          5.192
  Required (ns):
  Setup (ns):            0.466
  External Setup (ns):   -0.184

Path 5
  From:                  gbt_clk40
  To:                    fc0/counter[2]:D
  Delay (ns):            5.137
  Slack (ns):
  Arrival (ns):          5.137
  Required (ns):
  Setup (ns):            0.496
  External Setup (ns):   -0.209


Expanded Path 1
  From: gbt_clk40
  To: fc0/counter[0]:D
  data required time                             N/C
  data arrival time                          -   5.485
  slack                                          N/C
  ________________________________________________________
  Data arrival time calculation
  0.000                        gbt_clk40 (r)
               +     0.000          net: gbt_clk40
  0.000                        gbt_clk40_pad/U0/U0:PAD (r)
               +     0.875          cell: ADLIB:IOPAD_IN
  0.875                        gbt_clk40_pad/U0/U0:Y (r)
               +     0.000          net: gbt_clk40_pad/U0/NET1
  0.875                        gbt_clk40_pad/U0/U1:YIN (r)
               +     0.037          cell: ADLIB:IOIN_IB
  0.912                        gbt_clk40_pad/U0/U1:Y (r)
               +     1.786          net: gbt_clk40_c
  2.698                        fc0/state_RNIM29B:B (r)
               +     0.445          cell: ADLIB:NOR2A
  3.143                        fc0/state_RNIM29B:Y (f)
               +     1.476          net: fc0_counter_0_sqmuxa
  4.619                        fc0/counter_RNO[0]:B (f)
               +     0.562          cell: ADLIB:NOR2
  5.181                        fc0/counter_RNO[0]:Y (r)
               +     0.304          net: fc0/counter_4[0]
  5.485                        fc0/counter[0]:D (r)
                                    
  5.485                        data arrival time
  ________________________________________________________
  Data required time calculation
  N/C                          clocking/Core:GLB
               +     0.000          Clock source
  N/C                          clocking/Core:GLB (r)
               +     5.201          Clock generation
  N/C
               +     0.620          net: GLB
  N/C                          fc0/counter[0]:CLK (r)
               -     0.466          Library setup time: ADLIB:DFN1
  N/C                          fc0/counter[0]:D


END SET External Setup

----------------------------------------------------

SET Clock to Output

No Path

END SET Clock to Output

----------------------------------------------------

SET Register to Asynchronous

No Path

END SET Register to Asynchronous

----------------------------------------------------

SET External Recovery

No Path

END SET External Recovery

----------------------------------------------------

SET Asynchronous to Register

No Path

END SET Asynchronous to Register

----------------------------------------------------

Clock Domain gbt_clk40

Info: The maximum frequency of this clock domain is limited by the minimum pulse widths of pin gbt_clk40_pad/U0/U0:PAD

SET Register to Register

No Path

END SET Register to Register

----------------------------------------------------

SET External Setup

No Path

END SET External Setup

----------------------------------------------------

SET Clock to Output

No Path

END SET Clock to Output

----------------------------------------------------

SET Register to Asynchronous

No Path

END SET Register to Asynchronous

----------------------------------------------------

SET External Recovery

No Path

END SET External Recovery

----------------------------------------------------

SET Asynchronous to Register

No Path

END SET Asynchronous to Register

----------------------------------------------------

Clock Domain osc_clk40

Info: The maximum frequency of this clock domain is limited by the minimum pulse widths of pin osc_clk40_pad/U0/U0:PAD

SET Register to Register

No Path

END SET Register to Register

----------------------------------------------------

SET External Setup

No Path

END SET External Setup

----------------------------------------------------

SET Clock to Output

No Path

END SET Clock to Output

----------------------------------------------------

SET Register to Asynchronous

No Path

END SET Register to Asynchronous

----------------------------------------------------

SET External Recovery

No Path

END SET External Recovery

----------------------------------------------------

SET Asynchronous to Register

No Path

END SET Asynchronous to Register

----------------------------------------------------

Path set Pin to Pin

SET Input to Output

No Path

END SET Input to Output

----------------------------------------------------

Path set User Sets

