Timing Violation Report Min Delay Analysis

SmartTime Version v11.9 SP5
Microsemi Corporation - Microsemi Libero Software Release v11.9 SP5 (Version 11.9.5.5)
Date: Wed Apr 15 16:16:05 2020


Design: jtag_interface_top
Family: ProASIC3
Die: A3P250
Package: 144 FBGA
Temperature Range: -40 - 85 C
Voltage Range: 1.425 - 1.575 V
Speed Grade: -1
Design State: Post-Layout
Data source: Silicon verified
Min Operating Conditions: BEST - 1.575 V - -40 C
Max Operating Conditions: WORST - 1.425 V - 85 C
Using Enhanced Min Delay Analysis
Scenario for Timing Analysis: Primary


Path 1
  From:                  fc1/counter[0]:CLK
  To:                    fc1/final_count[0]:D
  Delay (ns):            0.541
  Slack (ns):            0.533
  Arrival (ns):          3.204
  Required (ns):         2.671

Path 2
  From:                  fc1/counter[0]:CLK
  To:                    fc1/counter[0]:D
  Delay (ns):            0.557
  Slack (ns):            0.557
  Arrival (ns):          3.220
  Required (ns):         2.663

Path 3
  From:                  fc2/counter[0]:CLK
  To:                    fc2/counter[0]:D
  Delay (ns):            0.562
  Slack (ns):            0.562
  Arrival (ns):          3.230
  Required (ns):         2.668

Path 4
  From:                  fc1/counter[2]:CLK
  To:                    fc1/final_count[2]:D
  Delay (ns):            0.591
  Slack (ns):            0.564
  Arrival (ns):          3.254
  Required (ns):         2.690

Path 5
  From:                  fc2/counter[2]:CLK
  To:                    fc2/final_count[2]:D
  Delay (ns):            0.592
  Slack (ns):            0.571
  Arrival (ns):          3.261
  Required (ns):         2.690

Path 6
  From:                  fc0/counter[0]:CLK
  To:                    fc0/counter[0]:D
  Delay (ns):            0.580
  Slack (ns):            0.580
  Arrival (ns):          3.243
  Required (ns):         2.663

Path 7
  From:                  fc2/counter[0]:CLK
  To:                    fc2/final_count[0]:D
  Delay (ns):            0.597
  Slack (ns):            0.594
  Arrival (ns):          3.265
  Required (ns):         2.671

Path 8
  From:                  fc0/counter[0]:CLK
  To:                    fc0/final_count[1]:D
  Delay (ns):            0.671
  Slack (ns):            0.644
  Arrival (ns):          3.334
  Required (ns):         2.690

Path 9
  From:                  fc0/counter[3]:CLK
  To:                    fc0/final_count[3]:D
  Delay (ns):            0.671
  Slack (ns):            0.650
  Arrival (ns):          3.340
  Required (ns):         2.690

Path 10
  From:                  fc1/counter[1]:CLK
  To:                    fc1/final_count[2]:D
  Delay (ns):            0.715
  Slack (ns):            0.688
  Arrival (ns):          3.378
  Required (ns):         2.690

Path 11
  From:                  fc2/counter[1]:CLK
  To:                    fc2/final_count[2]:D
  Delay (ns):            0.715
  Slack (ns):            0.688
  Arrival (ns):          3.378
  Required (ns):         2.690

Path 12
  From:                  fc0/counter[1]:CLK
  To:                    fc0/final_count[1]:D
  Delay (ns):            0.715
  Slack (ns):            0.688
  Arrival (ns):          3.378
  Required (ns):         2.690

Path 13
  From:                  fc0/counter[0]:CLK
  To:                    fc0/final_count[0]:D
  Delay (ns):            0.716
  Slack (ns):            0.689
  Arrival (ns):          3.379
  Required (ns):         2.690

Path 14
  From:                  fc2/counter[3]:CLK
  To:                    fc2/final_count[3]:D
  Delay (ns):            0.741
  Slack (ns):            0.714
  Arrival (ns):          3.404
  Required (ns):         2.690

Path 15
  From:                  fc0/state:CLK
  To:                    fc1/counter[1]:D
  Delay (ns):            0.757
  Slack (ns):            0.736
  Arrival (ns):          3.420
  Required (ns):         2.684

Path 16
  From:                  fc0/state:CLK
  To:                    fc2/counter[1]:D
  Delay (ns):            0.757
  Slack (ns):            0.736
  Arrival (ns):          3.420
  Required (ns):         2.684

Path 17
  From:                  fc0/state:CLK
  To:                    fc1/counter[0]:D
  Delay (ns):            0.760
  Slack (ns):            0.739
  Arrival (ns):          3.423
  Required (ns):         2.684

Path 18
  From:                  fc0/state:CLK
  To:                    fc2/counter[0]:D
  Delay (ns):            0.765
  Slack (ns):            0.739
  Arrival (ns):          3.428
  Required (ns):         2.689

Path 19
  From:                  fc2/counter[0]:CLK
  To:                    fc2/final_count[1]:D
  Delay (ns):            0.786
  Slack (ns):            0.764
  Arrival (ns):          3.454
  Required (ns):         2.690

Path 20
  From:                  fc0/state:CLK
  To:                    fc1/counter[3]:D
  Delay (ns):            0.764
  Slack (ns):            0.764
  Arrival (ns):          3.427
  Required (ns):         2.663

Path 21
  From:                  fc1/counter[1]:CLK
  To:                    fc1/final_count[1]:D
  Delay (ns):            0.800
  Slack (ns):            0.773
  Arrival (ns):          3.463
  Required (ns):         2.690

Path 22
  From:                  fc0/counter[2]:CLK
  To:                    fc0/final_count[2]:D
  Delay (ns):            0.804
  Slack (ns):            0.777
  Arrival (ns):          3.467
  Required (ns):         2.690

Path 23
  From:                  fc1/counter[0]:CLK
  To:                    fc1/final_count[2]:D
  Delay (ns):            0.807
  Slack (ns):            0.780
  Arrival (ns):          3.470
  Required (ns):         2.690

Path 24
  From:                  fc2/counter[0]:CLK
  To:                    fc2/counter[1]:D
  Delay (ns):            0.804
  Slack (ns):            0.788
  Arrival (ns):          3.472
  Required (ns):         2.684

Path 25
  From:                  fc0/state:CLK
  To:                    fc1/final_count[1]:E
  Delay (ns):            0.826
  Slack (ns):            0.799
  Arrival (ns):          3.489
  Required (ns):         2.690

Path 26
  From:                  fc0/state:CLK
  To:                    fc1/final_count[2]:E
  Delay (ns):            0.826
  Slack (ns):            0.799
  Arrival (ns):          3.489
  Required (ns):         2.690

Path 27
  From:                  fc0/state:CLK
  To:                    fc2/final_count[1]:E
  Delay (ns):            0.826
  Slack (ns):            0.799
  Arrival (ns):          3.489
  Required (ns):         2.690

Path 28
  From:                  fc0/counter[2]:CLK
  To:                    fc0/counter[2]:D
  Delay (ns):            0.806
  Slack (ns):            0.806
  Arrival (ns):          3.469
  Required (ns):         2.663

Path 29
  From:                  fc1/counter[3]:CLK
  To:                    fc1/final_count[3]:D
  Delay (ns):            0.850
  Slack (ns):            0.807
  Arrival (ns):          3.497
  Required (ns):         2.690

Path 30
  From:                  fc2/counter[0]:CLK
  To:                    fc2/final_count[2]:D
  Delay (ns):            0.829
  Slack (ns):            0.807
  Arrival (ns):          3.497
  Required (ns):         2.690

Path 31
  From:                  fc2/final_count[1]:CLK
  To:                    fc2/ck_ok:D
  Delay (ns):            0.816
  Slack (ns):            0.814
  Arrival (ns):          3.485
  Required (ns):         2.671

Path 32
  From:                  fc1/final_count[1]:CLK
  To:                    fc1/ck_ok:D
  Delay (ns):            0.816
  Slack (ns):            0.814
  Arrival (ns):          3.485
  Required (ns):         2.671

Path 33
  From:                  fc0/final_count[1]:CLK
  To:                    fc0/ck_ok:D
  Delay (ns):            0.821
  Slack (ns):            0.819
  Arrival (ns):          3.490
  Required (ns):         2.671

Path 34
  From:                  fc2/counter[2]:CLK
  To:                    fc2/counter[2]:D
  Delay (ns):            0.825
  Slack (ns):            0.825
  Arrival (ns):          3.494
  Required (ns):         2.669

Path 35
  From:                  fc1/counter[2]:CLK
  To:                    fc1/counter[2]:D
  Delay (ns):            0.825
  Slack (ns):            0.825
  Arrival (ns):          3.488
  Required (ns):         2.663

Path 36
  From:                  fc0/counter[0]:CLK
  To:                    fc0/final_count[3]:D
  Delay (ns):            0.858
  Slack (ns):            0.831
  Arrival (ns):          3.521
  Required (ns):         2.690

Path 37
  From:                  fc1/counter[0]:CLK
  To:                    fc1/final_count[1]:D
  Delay (ns):            0.886
  Slack (ns):            0.859
  Arrival (ns):          3.549
  Required (ns):         2.690

Path 38
  From:                  fc2/counter[3]:CLK
  To:                    fc2/counter[3]:D
  Delay (ns):            0.884
  Slack (ns):            0.884
  Arrival (ns):          3.547
  Required (ns):         2.663

Path 39
  From:                  fc2/counter[1]:CLK
  To:                    fc2/final_count[1]:D
  Delay (ns):            0.911
  Slack (ns):            0.884
  Arrival (ns):          3.574
  Required (ns):         2.690

Path 40
  From:                  fc0/counter[0]:CLK
  To:                    fc0/counter[1]:D
  Delay (ns):            0.910
  Slack (ns):            0.889
  Arrival (ns):          3.573
  Required (ns):         2.684

Path 41
  From:                  fc2/final_count[0]:CLK
  To:                    fc2/ck_ok:D
  Delay (ns):            0.909
  Slack (ns):            0.891
  Arrival (ns):          3.562
  Required (ns):         2.671

Path 42
  From:                  fc1/final_count[0]:CLK
  To:                    fc1/ck_ok:D
  Delay (ns):            0.909
  Slack (ns):            0.891
  Arrival (ns):          3.562
  Required (ns):         2.671

Path 43
  From:                  fc1/counter[3]:CLK
  To:                    fc1/counter[3]:D
  Delay (ns):            0.895
  Slack (ns):            0.895
  Arrival (ns):          3.542
  Required (ns):         2.647

Path 44
  From:                  fc0/counter[0]:CLK
  To:                    fc0/final_count[2]:D
  Delay (ns):            0.923
  Slack (ns):            0.896
  Arrival (ns):          3.586
  Required (ns):         2.690

Path 45
  From:                  fc2/final_count[2]:CLK
  To:                    fc2/ck_ok:D
  Delay (ns):            0.898
  Slack (ns):            0.896
  Arrival (ns):          3.567
  Required (ns):         2.671

Path 46
  From:                  fc1/final_count[2]:CLK
  To:                    fc1/ck_ok:D
  Delay (ns):            0.898
  Slack (ns):            0.896
  Arrival (ns):          3.567
  Required (ns):         2.671

Path 47
  From:                  fc0/counter[1]:CLK
  To:                    fc0/final_count[2]:D
  Delay (ns):            0.927
  Slack (ns):            0.900
  Arrival (ns):          3.590
  Required (ns):         2.690

Path 48
  From:                  fc0/counter[2]:CLK
  To:                    fc0/final_count[3]:D
  Delay (ns):            0.929
  Slack (ns):            0.902
  Arrival (ns):          3.592
  Required (ns):         2.690

Path 49
  From:                  fc0/counter[0]:CLK
  To:                    fc0/counter[2]:D
  Delay (ns):            0.925
  Slack (ns):            0.904
  Arrival (ns):          3.588
  Required (ns):         2.684

Path 50
  From:                  fc0/counter[3]:CLK
  To:                    fc0/counter[3]:D
  Delay (ns):            0.905
  Slack (ns):            0.905
  Arrival (ns):          3.574
  Required (ns):         2.669

Path 51
  From:                  fc0/counter[1]:CLK
  To:                    fc0/counter[2]:D
  Delay (ns):            0.929
  Slack (ns):            0.908
  Arrival (ns):          3.592
  Required (ns):         2.684

Path 52
  From:                  fc0/counter[1]:CLK
  To:                    fc0/final_count[3]:D
  Delay (ns):            0.941
  Slack (ns):            0.914
  Arrival (ns):          3.604
  Required (ns):         2.690

Path 53
  From:                  fc0/state:CLK
  To:                    fc2/counter[2]:D
  Delay (ns):            0.942
  Slack (ns):            0.915
  Arrival (ns):          3.605
  Required (ns):         2.690

Path 54
  From:                  fc0/final_count[0]:CLK
  To:                    fc0/ck_ok:D
  Delay (ns):            0.918
  Slack (ns):            0.916
  Arrival (ns):          3.587
  Required (ns):         2.671

Path 55
  From:                  fc2/counter[1]:CLK
  To:                    fc2/counter[2]:D
  Delay (ns):            0.948
  Slack (ns):            0.921
  Arrival (ns):          3.611
  Required (ns):         2.690

Path 56
  From:                  fc1/counter[1]:CLK
  To:                    fc1/counter[2]:D
  Delay (ns):            0.949
  Slack (ns):            0.928
  Arrival (ns):          3.612
  Required (ns):         2.684

Path 57
  From:                  fc1/counter[1]:CLK
  To:                    fc1/counter[1]:D
  Delay (ns):            0.929
  Slack (ns):            0.929
  Arrival (ns):          3.592
  Required (ns):         2.663

Path 58
  From:                  fc2/counter[1]:CLK
  To:                    fc2/counter[1]:D
  Delay (ns):            0.929
  Slack (ns):            0.929
  Arrival (ns):          3.592
  Required (ns):         2.663

Path 59
  From:                  fc0/state:CLK
  To:                    fc2/counter[3]:D
  Delay (ns):            0.974
  Slack (ns):            0.953
  Arrival (ns):          3.637
  Required (ns):         2.684

Path 60
  From:                  fc0/counter[1]:CLK
  To:                    fc0/counter[1]:D
  Delay (ns):            0.954
  Slack (ns):            0.954
  Arrival (ns):          3.617
  Required (ns):         2.663

Path 61
  From:                  fc0/state:CLK
  To:                    fc2/final_count[2]:E
  Delay (ns):            0.994
  Slack (ns):            0.967
  Arrival (ns):          3.657
  Required (ns):         2.690

Path 62
  From:                  fc0/state:CLK
  To:                    fc0/counter[2]:D
  Delay (ns):            0.990
  Slack (ns):            0.969
  Arrival (ns):          3.653
  Required (ns):         2.684

Path 63
  From:                  fc2/counter[2]:CLK
  To:                    fc2/final_count[3]:D
  Delay (ns):            1.004
  Slack (ns):            0.983
  Arrival (ns):          3.673
  Required (ns):         2.690

Path 64
  From:                  fc0/state:CLK
  To:                    fc1/counter[2]:D
  Delay (ns):            1.004
  Slack (ns):            0.983
  Arrival (ns):          3.667
  Required (ns):         2.684

Path 65
  From:                  fc2/counter[1]:CLK
  To:                    fc2/final_count[3]:D
  Delay (ns):            1.016
  Slack (ns):            0.989
  Arrival (ns):          3.679
  Required (ns):         2.690

Path 66
  From:                  fc1/counter[0]:CLK
  To:                    fc1/final_count[3]:D
  Delay (ns):            1.019
  Slack (ns):            0.992
  Arrival (ns):          3.682
  Required (ns):         2.690

Path 67
  From:                  fc0/state:CLK
  To:                    fc0/counter[0]:D
  Delay (ns):            1.015
  Slack (ns):            0.994
  Arrival (ns):          3.678
  Required (ns):         2.684

Path 68
  From:                  fc1/counter[0]:CLK
  To:                    fc1/counter[1]:D
  Delay (ns):            1.015
  Slack (ns):            0.994
  Arrival (ns):          3.678
  Required (ns):         2.684

Path 69
  From:                  fc2/counter[0]:CLK
  To:                    fc2/final_count[3]:D
  Delay (ns):            1.022
  Slack (ns):            1.000
  Arrival (ns):          3.690
  Required (ns):         2.690

Path 70
  From:                  fc0/state:CLK
  To:                    fc1/final_count[3]:E
  Delay (ns):            1.028
  Slack (ns):            1.001
  Arrival (ns):          3.691
  Required (ns):         2.690

Path 71
  From:                  fc0/state:CLK
  To:                    fc2/final_count[3]:E
  Delay (ns):            1.044
  Slack (ns):            1.017
  Arrival (ns):          3.707
  Required (ns):         2.690

Path 72
  From:                  fc1/counter[0]:CLK
  To:                    fc1/counter[2]:D
  Delay (ns):            1.041
  Slack (ns):            1.020
  Arrival (ns):          3.704
  Required (ns):         2.684

Path 73
  From:                  fc2/counter[0]:CLK
  To:                    fc2/counter[2]:D
  Delay (ns):            1.062
  Slack (ns):            1.040
  Arrival (ns):          3.730
  Required (ns):         2.690

Path 74
  From:                  fc0/state:CLK
  To:                    fc1/final_count[0]:E
  Delay (ns):            1.060
  Slack (ns):            1.052
  Arrival (ns):          3.723
  Required (ns):         2.671

Path 75
  From:                  fc1/counter[0]:CLK
  To:                    fc1/counter[3]:D
  Delay (ns):            1.061
  Slack (ns):            1.061
  Arrival (ns):          3.724
  Required (ns):         2.663

Path 76
  From:                  fc0/counter[0]:CLK
  To:                    fc0/counter[3]:D
  Delay (ns):            1.097
  Slack (ns):            1.070
  Arrival (ns):          3.760
  Required (ns):         2.690

Path 77
  From:                  fc0/state:CLK
  To:                    fc0/final_count[0]:E
  Delay (ns):            1.104
  Slack (ns):            1.077
  Arrival (ns):          3.767
  Required (ns):         2.690

Path 78
  From:                  fc0/final_count[2]:CLK
  To:                    fc0/ck_ok:D
  Delay (ns):            1.085
  Slack (ns):            1.083
  Arrival (ns):          3.754
  Required (ns):         2.671

Path 79
  From:                  fc1/counter[2]:CLK
  To:                    fc1/final_count[3]:D
  Delay (ns):            1.111
  Slack (ns):            1.084
  Arrival (ns):          3.774
  Required (ns):         2.690

Path 80
  From:                  fc1/counter[1]:CLK
  To:                    fc1/final_count[3]:D
  Delay (ns):            1.124
  Slack (ns):            1.097
  Arrival (ns):          3.787
  Required (ns):         2.690

Path 81
  From:                  fc0/state:CLK
  To:                    fc0/counter[3]:D
  Delay (ns):            1.142
  Slack (ns):            1.115
  Arrival (ns):          3.805
  Required (ns):         2.690

Path 82
  From:                  fc0/state:CLK
  To:                    fc2/final_count[0]:E
  Delay (ns):            1.134
  Slack (ns):            1.126
  Arrival (ns):          3.797
  Required (ns):         2.671

Path 83
  From:                  fc2/counter[2]:CLK
  To:                    fc2/counter[3]:D
  Delay (ns):            1.145
  Slack (ns):            1.130
  Arrival (ns):          3.814
  Required (ns):         2.684

Path 84
  From:                  fc2/counter[1]:CLK
  To:                    fc2/counter[3]:D
  Delay (ns):            1.157
  Slack (ns):            1.136
  Arrival (ns):          3.820
  Required (ns):         2.684

Path 85
  From:                  fc0/counter[2]:CLK
  To:                    fc0/counter[3]:D
  Delay (ns):            1.168
  Slack (ns):            1.141
  Arrival (ns):          3.831
  Required (ns):         2.690

Path 86
  From:                  fc2/counter[0]:CLK
  To:                    fc2/counter[3]:D
  Delay (ns):            1.163
  Slack (ns):            1.147
  Arrival (ns):          3.831
  Required (ns):         2.684

Path 87
  From:                  fc0/state:CLK
  To:                    fc0/final_count[3]:E
  Delay (ns):            1.177
  Slack (ns):            1.150
  Arrival (ns):          3.840
  Required (ns):         2.690

Path 88
  From:                  fc0/state:CLK
  To:                    fc0/final_count[2]:E
  Delay (ns):            1.177
  Slack (ns):            1.150
  Arrival (ns):          3.840
  Required (ns):         2.690

Path 89
  From:                  fc1/counter[2]:CLK
  To:                    fc1/counter[3]:D
  Delay (ns):            1.153
  Slack (ns):            1.153
  Arrival (ns):          3.816
  Required (ns):         2.663

Path 90
  From:                  fc0/counter[1]:CLK
  To:                    fc0/counter[3]:D
  Delay (ns):            1.180
  Slack (ns):            1.153
  Arrival (ns):          3.843
  Required (ns):         2.690

Path 91
  From:                  fc0/state:CLK
  To:                    fc0/counter[1]:D
  Delay (ns):            1.186
  Slack (ns):            1.165
  Arrival (ns):          3.849
  Required (ns):         2.684

Path 92
  From:                  fc1/counter[1]:CLK
  To:                    fc1/counter[3]:D
  Delay (ns):            1.166
  Slack (ns):            1.166
  Arrival (ns):          3.829
  Required (ns):         2.663

Path 93
  From:                  fc0/state:CLK
  To:                    fc0/final_count[1]:E
  Delay (ns):            1.237
  Slack (ns):            1.210
  Arrival (ns):          3.900
  Required (ns):         2.690

Path 94
  From:                  fc0/final_count[3]:CLK
  To:                    fc0/ck_ok:D
  Delay (ns):            1.281
  Slack (ns):            1.279
  Arrival (ns):          3.950
  Required (ns):         2.671

Path 95
  From:                  fc2/final_count[3]:CLK
  To:                    fc2/ck_ok:D
  Delay (ns):            1.282
  Slack (ns):            1.280
  Arrival (ns):          3.951
  Required (ns):         2.671

Path 96
  From:                  fc1/final_count[3]:CLK
  To:                    fc1/ck_ok:D
  Delay (ns):            1.282
  Slack (ns):            1.280
  Arrival (ns):          3.951
  Required (ns):         2.671

