Timing Report Max Delay Analysis

SmartTime Version v11.9 SP5
Microsemi Corporation - Microsemi Libero Software Release v11.9 SP5 (Version 11.9.5.5)
Date: Thu Apr 16 17:28:35 2020


Design: jtag_interface_top
Family: ProASIC3
Die: A3P250
Package: 144 FBGA
Temperature Range: -40 - 85 C
Voltage Range: 1.425 - 1.575 V
Speed Grade: -1
Design State: Post-Layout
Data source: Silicon verified
Min Operating Conditions: BEST - 1.575 V - -40 C
Max Operating Conditions: WORST - 1.425 V - 85 C
Using Enhanced Min Delay Analysis
Scenario for Timing Analysis: Primary


-----------------------------------------------------
SUMMARY

Clock Domain:               clocking/Core:GLA
Period (ns):                0.858
Frequency (MHz):            1165.501
Required Period (ns):       25.000
Required Frequency (MHz):   40.000
External Setup (ns):        -1.766
Max Clock-To-Out (ns):      11.745

Clock Domain:               clocking/Core:GLB
Period (ns):                4.355
Frequency (MHz):            229.621
Required Period (ns):       4.167
Required Frequency (MHz):   239.981
External Setup (ns):        -0.133
Max Clock-To-Out (ns):      N/A

Clock Domain:               gbt_clk40
Period (ns):                4.000
Frequency (MHz):            250.000
Required Period (ns):       24.950
Required Frequency (MHz):   40.080
External Setup (ns):        N/A
Max Clock-To-Out (ns):      N/A

Clock Domain:               osc_clk40
Period (ns):                4.000
Frequency (MHz):            250.000
Required Period (ns):       25.000
Required Frequency (MHz):   40.000
External Setup (ns):        N/A
Max Clock-To-Out (ns):      N/A

                            Input to Output
Max Delay (ns):             N/A

END SUMMARY
-----------------------------------------------------

Clock Domain clocking/Core:GLA

Info: The maximum frequency of this clock domain is limited by the minimum pulse widths of pin jtag_out_rem[1]:CLK

SET Register to Register

No Path

END SET Register to Register

----------------------------------------------------

SET External Setup

Path 1
  From:                  gbt_tck_p[1]
  To:                    jtag_out_rem[2]:D
  Delay (ns):            2.795
  Slack (ns):
  Arrival (ns):          2.795
  Required (ns):
  Setup (ns):            0.616
  External Setup (ns):   -1.766

Path 2
  From:                  gbt_tck_n[1]
  To:                    jtag_out_rem[2]:D
  Delay (ns):            2.781
  Slack (ns):
  Arrival (ns):          2.781
  Required (ns):
  Setup (ns):            0.616
  External Setup (ns):   -1.780

Path 3
  From:                  gbt_tms_p[0]
  To:                    jtag_out_loc[0]:D
  Delay (ns):            2.754
  Slack (ns):
  Arrival (ns):          2.754
  Required (ns):
  Setup (ns):            0.616
  External Setup (ns):   -1.808

Path 4
  From:                  gbt_tms_n[0]
  To:                    jtag_out_loc[0]:D
  Delay (ns):            2.740
  Slack (ns):
  Arrival (ns):          2.740
  Required (ns):
  Setup (ns):            0.616
  External Setup (ns):   -1.822

Path 5
  From:                  gbt_dvalid
  To:                    jtag_out_rem_tri_enable:D
  Delay (ns):            2.658
  Slack (ns):
  Arrival (ns):          2.658
  Required (ns):
  Setup (ns):            0.616
  External Setup (ns):   -1.893


Expanded Path 1
  From: gbt_tck_p[1]
  To: jtag_out_rem[2]:D
  data required time                             N/C
  data arrival time                          -   2.795
  slack                                          N/C
  ________________________________________________________
  Data arrival time calculation
  0.000                        gbt_tck_p[1] (f)
               +     0.000          net: gbt_tck_p[1]
  0.000                        jtag_in1/\\INBUF_LVDS[2]\\/U0/U0:PAD (f)
               +     1.436          cell: ADLIB:IOPADP_IN
  1.436                        jtag_in1/\\INBUF_LVDS[2]\\/U0/U0:Y (f)
               +     0.000          net: jtag_in1/_INBUF_LVDS[2]_/U0/NET1
  1.436                        jtag_in1/\\INBUF_LVDS[2]\\/U0/U1:YIN (f)
               +     0.035          cell: ADLIB:IOIN_IB
  1.471                        jtag_in1/\\INBUF_LVDS[2]\\/U0/U1:Y (f)
               +     1.324          net: jtag_rem[2]
  2.795                        jtag_out_rem[2]:D (f)
                                    
  2.795                        data arrival time
  ________________________________________________________
  Data required time calculation
  N/C                          clocking/Core:GLA
               +     0.000          Clock source
  N/C                          clocking/Core:GLA (f)
               +     4.565          Clock generation
  N/C
               +     0.612          net: GLA
  N/C                          jtag_out_rem[2]:CLK (f)
               -     0.616          Library setup time: ADLIB:DFN0
  N/C                          jtag_out_rem[2]:D


END SET External Setup

----------------------------------------------------

SET Clock to Output

Path 1
  From:                  jtag_out_rem_tri_enable:CLK
  To:                    proasic_tck[1]
  Delay (ns):            6.578
  Slack (ns):
  Arrival (ns):          11.745
  Required (ns):
  Clock to Out (ns):     11.745

Path 2
  From:                  jtag_out_rem_tri_enable:CLK
  To:                    proasic_tms[0]
  Delay (ns):            6.273
  Slack (ns):
  Arrival (ns):          11.440
  Required (ns):
  Clock to Out (ns):     11.440

Path 3
  From:                  jtag_out_rem_tri_enable:CLK
  To:                    proasic_rst[1]
  Delay (ns):            6.123
  Slack (ns):
  Arrival (ns):          11.290
  Required (ns):
  Clock to Out (ns):     11.290

Path 4
  From:                  jtag_out_rem_tri_enable:CLK
  To:                    proasic_rst[0]
  Delay (ns):            6.066
  Slack (ns):
  Arrival (ns):          11.233
  Required (ns):
  Clock to Out (ns):     11.233

Path 5
  From:                  jtag_out_rem_tri_enable:CLK
  To:                    proasic_tck[0]
  Delay (ns):            5.935
  Slack (ns):
  Arrival (ns):          11.102
  Required (ns):
  Clock to Out (ns):     11.102


Expanded Path 1
  From: jtag_out_rem_tri_enable:CLK
  To: proasic_tck[1]
  data required time                             N/C
  data arrival time                          -   11.745
  slack                                          N/C
  ________________________________________________________
  Data arrival time calculation
  0.000                        clocking/Core:GLA
               +     0.000          Clock source
  0.000                        clocking/Core:GLA (f)
               +     4.565          Clock generation
  4.565
               +     0.602          net: GLA
  5.167                        jtag_out_rem_tri_enable:CLK (f)
               +     0.565          cell: ADLIB:DFN0
  5.732                        jtag_out_rem_tri_enable:Q (f)
               +     2.839          net: jtag_out_rem_tri_enable
  8.571                        proasic_tck_pad[1]/U0/U1:E (f)
               +     0.360          cell: ADLIB:IOTRI_OB_EB
  8.931                        proasic_tck_pad[1]/U0/U1:EOUT (f)
               +     0.000          net: proasic_tck_pad[1]/U0/NET2
  8.931                        proasic_tck_pad[1]/U0/U0:E (f)
               +     2.814          cell: ADLIB:IOPAD_TRI
  11.745                       proasic_tck_pad[1]/U0/U0:PAD (f)
               +     0.000          net: proasic_tck_0[1]
  11.745                       proasic_tck[1] (f)
                                    
  11.745                       data arrival time
  ________________________________________________________
  Data required time calculation
  N/C                          clocking/Core:GLA
               +     0.000          Clock source
  N/C                          clocking/Core:GLA (r)
               +     4.565          Clock generation
  N/C
                                    
  N/C                          proasic_tck[1] (f)


END SET Clock to Output

----------------------------------------------------

SET Register to Asynchronous

No Path

END SET Register to Asynchronous

----------------------------------------------------

SET External Recovery

No Path

END SET External Recovery

----------------------------------------------------

SET Asynchronous to Register

No Path

END SET Asynchronous to Register

----------------------------------------------------

Clock Domain clocking/Core:GLB

SET Register to Register

Path 1
  From:                  fc0/state:CLK
  To:                    fc0/counter[1]:D
  Delay (ns):            3.863
  Slack (ns):            -0.188
  Arrival (ns):          9.714
  Required (ns):         9.526
  Setup (ns):            0.466
  Minimum Period (ns):   4.355

Path 2
  From:                  fc0/counter[0]:CLK
  To:                    fc0/counter[3]:D
  Delay (ns):            3.769
  Slack (ns):            -0.068
  Arrival (ns):          9.620
  Required (ns):         9.552
  Setup (ns):            0.466
  Minimum Period (ns):   4.235

Path 3
  From:                  fc0/counter[1]:CLK
  To:                    fc0/counter[3]:D
  Delay (ns):            3.734
  Slack (ns):            -0.007
  Arrival (ns):          9.559
  Required (ns):         9.552
  Setup (ns):            0.466
  Minimum Period (ns):   4.174

Path 4
  From:                  fc2/counter[1]:CLK
  To:                    fc2/counter[3]:D
  Delay (ns):            3.627
  Slack (ns):            0.044
  Arrival (ns):          9.478
  Required (ns):         9.522
  Setup (ns):            0.496
  Minimum Period (ns):   4.123

Path 5
  From:                  fc0/state:CLK
  To:                    fc2/final_count[2]:E
  Delay (ns):            3.624
  Slack (ns):            0.127
  Arrival (ns):          9.475
  Required (ns):         9.602
  Setup (ns):            0.375
  Minimum Period (ns):   4.040


Expanded Path 1
  From: fc0/state:CLK
  To: fc0/counter[1]:D
  data required time                             9.526
  data arrival time                          -   9.714
  slack                                          -0.188
  ________________________________________________________
  Data arrival time calculation
  0.000                        clocking/Core:GLB
               +     0.000          Clock source
  0.000                        clocking/Core:GLB (r)
               +     5.214          Clock generation
  5.214
               +     0.637          net: GLB
  5.851                        fc0/state:CLK (r)
               +     0.637          cell: ADLIB:DFN1
  6.488                        fc0/state:Q (f)
               +     0.764          net: fc0/state
  7.252                        HIEFFPLA_INST_0_704:B (f)
               +     0.545          cell: ADLIB:AND2A
  7.797                        HIEFFPLA_INST_0_704:Y (f)
               +     1.172          net: HIEFFPLA_NET_0_1660
  8.969                        HIEFFPLA_INST_0_697:C (f)
               +     0.455          cell: ADLIB:XA1B
  9.424                        HIEFFPLA_INST_0_697:Y (r)
               +     0.290          net: HIEFFPLA_NET_0_1663
  9.714                        fc0/counter[1]:D (r)
                                    
  9.714                        data arrival time
  ________________________________________________________
  Data required time calculation
  4.167                        clocking/Core:GLB
               +     0.000          Clock source
  4.167                        clocking/Core:GLB (r)
               +     5.214          Clock generation
  9.381
               +     0.611          net: GLB
  9.992                        fc0/counter[1]:CLK (r)
               -     0.466          Library setup time: ADLIB:DFN1
  9.526                        fc0/counter[1]:D
                                    
  9.526                        data required time


END SET Register to Register

----------------------------------------------------

SET External Setup

Path 1
  From:                  gbt_clk40
  To:                    fc0/counter[1]:D
  Delay (ns):            5.226
  Slack (ns):
  Arrival (ns):          5.226
  Required (ns):
  Setup (ns):            0.466
  External Setup (ns):   -0.133

Path 2
  From:                  gbt_clk40
  To:                    fc2/final_count[2]:E
  Delay (ns):            4.987
  Slack (ns):
  Arrival (ns):          4.987
  Required (ns):
  Setup (ns):            0.375
  External Setup (ns):   -0.448

Path 3
  From:                  gbt_clk40
  To:                    fc0/counter[3]:D
  Delay (ns):            4.876
  Slack (ns):
  Arrival (ns):          4.876
  Required (ns):
  Setup (ns):            0.466
  External Setup (ns):   -0.509

Path 4
  From:                  gbt_clk40
  To:                    fc1/final_count[3]:E
  Delay (ns):            4.737
  Slack (ns):
  Arrival (ns):          4.737
  Required (ns):
  Setup (ns):            0.375
  External Setup (ns):   -0.725

Path 5
  From:                  gbt_clk40
  To:                    fc1/final_count[0]:E
  Delay (ns):            4.743
  Slack (ns):
  Arrival (ns):          4.743
  Required (ns):
  Setup (ns):            0.375
  External Setup (ns):   -0.727


Expanded Path 1
  From: gbt_clk40
  To: fc0/counter[1]:D
  data required time                             N/C
  data arrival time                          -   5.226
  slack                                          N/C
  ________________________________________________________
  Data arrival time calculation
  0.000                        gbt_clk40 (r)
               +     0.000          net: gbt_clk40
  0.000                        gbt_clk40_pad/U0/U0:PAD (r)
               +     0.875          cell: ADLIB:IOPAD_IN
  0.875                        gbt_clk40_pad/U0/U0:Y (r)
               +     0.000          net: gbt_clk40_pad/U0/NET1
  0.875                        gbt_clk40_pad/U0/U1:YIN (r)
               +     0.037          cell: ADLIB:IOIN_IB
  0.912                        gbt_clk40_pad/U0/U1:Y (r)
               +     1.952          net: gbt_clk40_c
  2.864                        HIEFFPLA_INST_0_704:A (r)
               +     0.445          cell: ADLIB:AND2A
  3.309                        HIEFFPLA_INST_0_704:Y (f)
               +     1.172          net: HIEFFPLA_NET_0_1660
  4.481                        HIEFFPLA_INST_0_697:C (f)
               +     0.455          cell: ADLIB:XA1B
  4.936                        HIEFFPLA_INST_0_697:Y (r)
               +     0.290          net: HIEFFPLA_NET_0_1663
  5.226                        fc0/counter[1]:D (r)
                                    
  5.226                        data arrival time
  ________________________________________________________
  Data required time calculation
  N/C                          clocking/Core:GLB
               +     0.000          Clock source
  N/C                          clocking/Core:GLB (r)
               +     5.214          Clock generation
  N/C
               +     0.611          net: GLB
  N/C                          fc0/counter[1]:CLK (r)
               -     0.466          Library setup time: ADLIB:DFN1
  N/C                          fc0/counter[1]:D


END SET External Setup

----------------------------------------------------

SET Clock to Output

No Path

END SET Clock to Output

----------------------------------------------------

SET Register to Asynchronous

No Path

END SET Register to Asynchronous

----------------------------------------------------

SET External Recovery

No Path

END SET External Recovery

----------------------------------------------------

SET Asynchronous to Register

No Path

END SET Asynchronous to Register

----------------------------------------------------

Clock Domain gbt_clk40

Info: The maximum frequency of this clock domain is limited by the minimum pulse widths of pin gbt_clk40_pad/U0/U0:PAD

SET Register to Register

No Path

END SET Register to Register

----------------------------------------------------

SET External Setup

No Path

END SET External Setup

----------------------------------------------------

SET Clock to Output

No Path

END SET Clock to Output

----------------------------------------------------

SET Register to Asynchronous

No Path

END SET Register to Asynchronous

----------------------------------------------------

SET External Recovery

No Path

END SET External Recovery

----------------------------------------------------

SET Asynchronous to Register

No Path

END SET Asynchronous to Register

----------------------------------------------------

Clock Domain osc_clk40

Info: The maximum frequency of this clock domain is limited by the minimum pulse widths of pin osc_clk40_pad/U0/U0:PAD

SET Register to Register

No Path

END SET Register to Register

----------------------------------------------------

SET External Setup

No Path

END SET External Setup

----------------------------------------------------

SET Clock to Output

No Path

END SET Clock to Output

----------------------------------------------------

SET Register to Asynchronous

No Path

END SET Register to Asynchronous

----------------------------------------------------

SET External Recovery

No Path

END SET External Recovery

----------------------------------------------------

SET Asynchronous to Register

No Path

END SET Asynchronous to Register

----------------------------------------------------

Path set Pin to Pin

SET Input to Output

No Path

END SET Input to Output

----------------------------------------------------

Path set User Sets

