Timing Violation Report Min Delay Analysis

SmartTime Version v11.9 SP5
Microsemi Corporation - Microsemi Libero Software Release v11.9 SP5 (Version 11.9.5.5)
Date: Wed Apr 15 16:13:47 2020


Design: jtag_interface_top
Family: ProASIC3
Die: A3P250
Package: 144 FBGA
Temperature Range: -40 - 85 C
Voltage Range: 1.425 - 1.575 V
Speed Grade: -1
Design State: Post-Layout
Data source: Silicon verified
Min Operating Conditions: BEST - 1.575 V - -40 C
Max Operating Conditions: WORST - 1.425 V - 85 C
Using Enhanced Min Delay Analysis
Scenario for Timing Analysis: Primary


Path 1
  From:                  fc2/counter[2]:CLK
  To:                    fc2/final_count[2]:D
  Delay (ns):            0.575
  Slack (ns):            0.568
  Arrival (ns):          3.229
  Required (ns):         2.661

Path 2
  From:                  fc0/counter[2]:CLK
  To:                    fc0/final_count[2]:D
  Delay (ns):            0.599
  Slack (ns):            0.575
  Arrival (ns):          3.256
  Required (ns):         2.681

Path 3
  From:                  fc1/counter[0]:CLK
  To:                    fc1/final_count[1]:D
  Delay (ns):            0.612
  Slack (ns):            0.591
  Arrival (ns):          3.266
  Required (ns):         2.675

Path 4
  From:                  fc1/counter[0]:CLK
  To:                    fc1/counter[0]:D
  Delay (ns):            0.595
  Slack (ns):            0.595
  Arrival (ns):          3.249
  Required (ns):         2.654

Path 5
  From:                  fc2/counter[0]:CLK
  To:                    fc2/counter[0]:D
  Delay (ns):            0.596
  Slack (ns):            0.596
  Arrival (ns):          3.250
  Required (ns):         2.654

Path 6
  From:                  fc1/counter[0]:CLK
  To:                    fc1/final_count[0]:D
  Delay (ns):            0.632
  Slack (ns):            0.611
  Arrival (ns):          3.286
  Required (ns):         2.675

Path 7
  From:                  fc0/counter[0]:CLK
  To:                    fc0/counter[0]:D
  Delay (ns):            0.627
  Slack (ns):            0.627
  Arrival (ns):          3.288
  Required (ns):         2.661

Path 8
  From:                  fc0/counter[0]:CLK
  To:                    fc0/final_count[1]:D
  Delay (ns):            0.639
  Slack (ns):            0.628
  Arrival (ns):          3.300
  Required (ns):         2.672

Path 9
  From:                  fc1/counter[3]:CLK
  To:                    fc1/final_count[3]:D
  Delay (ns):            0.670
  Slack (ns):            0.652
  Arrival (ns):          3.327
  Required (ns):         2.675

Path 10
  From:                  fc0/counter[0]:CLK
  To:                    fc0/final_count[0]:D
  Delay (ns):            0.669
  Slack (ns):            0.658
  Arrival (ns):          3.330
  Required (ns):         2.672

Path 11
  From:                  fc2/counter[3]:CLK
  To:                    fc2/final_count[3]:D
  Delay (ns):            0.679
  Slack (ns):            0.659
  Arrival (ns):          3.340
  Required (ns):         2.681

Path 12
  From:                  fc0/counter[1]:CLK
  To:                    fc0/final_count[2]:D
  Delay (ns):            0.699
  Slack (ns):            0.676
  Arrival (ns):          3.357
  Required (ns):         2.681

Path 13
  From:                  fc0/counter[1]:CLK
  To:                    fc0/final_count[1]:D
  Delay (ns):            0.697
  Slack (ns):            0.683
  Arrival (ns):          3.355
  Required (ns):         2.672

Path 14
  From:                  fc2/counter[1]:CLK
  To:                    fc2/final_count[2]:D
  Delay (ns):            0.704
  Slack (ns):            0.688
  Arrival (ns):          3.349
  Required (ns):         2.661

Path 15
  From:                  fc2/counter[0]:CLK
  To:                    fc2/final_count[2]:D
  Delay (ns):            0.697
  Slack (ns):            0.690
  Arrival (ns):          3.351
  Required (ns):         2.661

Path 16
  From:                  fc1/counter[1]:CLK
  To:                    fc1/final_count[1]:D
  Delay (ns):            0.715
  Slack (ns):            0.697
  Arrival (ns):          3.372
  Required (ns):         2.675

Path 17
  From:                  fc2/counter[1]:CLK
  To:                    fc2/final_count[1]:D
  Delay (ns):            0.720
  Slack (ns):            0.704
  Arrival (ns):          3.365
  Required (ns):         2.661

Path 18
  From:                  fc0/counter[0]:CLK
  To:                    fc0/final_count[2]:D
  Delay (ns):            0.741
  Slack (ns):            0.721
  Arrival (ns):          3.402
  Required (ns):         2.681

Path 19
  From:                  fc2/counter[0]:CLK
  To:                    fc2/final_count[0]:D
  Delay (ns):            0.740
  Slack (ns):            0.732
  Arrival (ns):          3.394
  Required (ns):         2.662

Path 20
  From:                  fc1/counter[2]:CLK
  To:                    fc1/final_count[2]:D
  Delay (ns):            0.783
  Slack (ns):            0.765
  Arrival (ns):          3.440
  Required (ns):         2.675

Path 21
  From:                  fc1/final_count[1]:CLK
  To:                    fc1/ck_ok:D
  Delay (ns):            0.797
  Slack (ns):            0.779
  Arrival (ns):          3.454
  Required (ns):         2.675

Path 22
  From:                  fc2/final_count[1]:CLK
  To:                    fc2/ck_ok:D
  Delay (ns):            0.824
  Slack (ns):            0.810
  Arrival (ns):          3.469
  Required (ns):         2.659

Path 23
  From:                  fc0/counter[2]:CLK
  To:                    fc0/counter[2]:D
  Delay (ns):            0.829
  Slack (ns):            0.829
  Arrival (ns):          3.486
  Required (ns):         2.657

Path 24
  From:                  fc2/counter[0]:CLK
  To:                    fc2/final_count[1]:D
  Delay (ns):            0.837
  Slack (ns):            0.830
  Arrival (ns):          3.491
  Required (ns):         2.661

Path 25
  From:                  fc0/counter[3]:CLK
  To:                    fc0/final_count[3]:D
  Delay (ns):            0.850
  Slack (ns):            0.832
  Arrival (ns):          3.507
  Required (ns):         2.675

Path 26
  From:                  fc2/counter[0]:CLK
  To:                    fc2/final_count[3]:D
  Delay (ns):            0.871
  Slack (ns):            0.844
  Arrival (ns):          3.525
  Required (ns):         2.681

Path 27
  From:                  fc0/final_count[1]:CLK
  To:                    fc0/ck_ok:D
  Delay (ns):            0.876
  Slack (ns):            0.849
  Arrival (ns):          3.530
  Required (ns):         2.681

Path 28
  From:                  fc0/state:CLK
  To:                    fc1/counter[3]:D
  Delay (ns):            0.891
  Slack (ns):            0.874
  Arrival (ns):          3.549
  Required (ns):         2.675

Path 29
  From:                  fc1/final_count[2]:CLK
  To:                    fc1/ck_ok:D
  Delay (ns):            0.898
  Slack (ns):            0.880
  Arrival (ns):          3.555
  Required (ns):         2.675

Path 30
  From:                  fc1/counter[0]:CLK
  To:                    fc1/final_count[2]:D
  Delay (ns):            0.902
  Slack (ns):            0.881
  Arrival (ns):          3.556
  Required (ns):         2.675

Path 31
  From:                  fc1/counter[2]:CLK
  To:                    fc1/counter[2]:D
  Delay (ns):            0.883
  Slack (ns):            0.883
  Arrival (ns):          3.540
  Required (ns):         2.657

Path 32
  From:                  fc1/counter[1]:CLK
  To:                    fc1/final_count[2]:D
  Delay (ns):            0.906
  Slack (ns):            0.888
  Arrival (ns):          3.563
  Required (ns):         2.675

Path 33
  From:                  fc1/final_count[0]:CLK
  To:                    fc1/ck_ok:D
  Delay (ns):            0.909
  Slack (ns):            0.891
  Arrival (ns):          3.566
  Required (ns):         2.675

Path 34
  From:                  fc2/final_count[2]:CLK
  To:                    fc2/ck_ok:D
  Delay (ns):            0.911
  Slack (ns):            0.897
  Arrival (ns):          3.556
  Required (ns):         2.659

Path 35
  From:                  fc0/final_count[0]:CLK
  To:                    fc0/ck_ok:D
  Delay (ns):            0.927
  Slack (ns):            0.900
  Arrival (ns):          3.581
  Required (ns):         2.681

Path 36
  From:                  fc0/state:CLK
  To:                    fc0/counter[2]:D
  Delay (ns):            0.919
  Slack (ns):            0.902
  Arrival (ns):          3.577
  Required (ns):         2.675

Path 37
  From:                  fc1/counter[3]:CLK
  To:                    fc1/counter[3]:D
  Delay (ns):            0.904
  Slack (ns):            0.904
  Arrival (ns):          3.561
  Required (ns):         2.657

Path 38
  From:                  fc1/counter[0]:CLK
  To:                    fc1/counter[1]:D
  Delay (ns):            0.928
  Slack (ns):            0.907
  Arrival (ns):          3.582
  Required (ns):         2.675

Path 39
  From:                  fc1/counter[2]:CLK
  To:                    fc1/final_count[3]:D
  Delay (ns):            0.929
  Slack (ns):            0.911
  Arrival (ns):          3.586
  Required (ns):         2.675

Path 40
  From:                  fc2/final_count[0]:CLK
  To:                    fc2/ck_ok:D
  Delay (ns):            0.924
  Slack (ns):            0.911
  Arrival (ns):          3.570
  Required (ns):         2.659

Path 41
  From:                  fc0/counter[1]:CLK
  To:                    fc0/counter[2]:D
  Delay (ns):            0.929
  Slack (ns):            0.912
  Arrival (ns):          3.587
  Required (ns):         2.675

Path 42
  From:                  fc2/counter[2]:CLK
  To:                    fc2/final_count[3]:D
  Delay (ns):            0.940
  Slack (ns):            0.913
  Arrival (ns):          3.594
  Required (ns):         2.681

Path 43
  From:                  fc2/counter[1]:CLK
  To:                    fc2/final_count[3]:D
  Delay (ns):            0.958
  Slack (ns):            0.922
  Arrival (ns):          3.603
  Required (ns):         2.681

Path 44
  From:                  fc1/counter[1]:CLK
  To:                    fc1/final_count[3]:D
  Delay (ns):            0.941
  Slack (ns):            0.923
  Arrival (ns):          3.598
  Required (ns):         2.675

Path 45
  From:                  fc0/counter[3]:CLK
  To:                    fc0/counter[3]:D
  Delay (ns):            0.931
  Slack (ns):            0.931
  Arrival (ns):          3.588
  Required (ns):         2.657

Path 46
  From:                  fc1/counter[0]:CLK
  To:                    fc1/final_count[3]:D
  Delay (ns):            0.961
  Slack (ns):            0.940
  Arrival (ns):          3.615
  Required (ns):         2.675

Path 47
  From:                  fc0/counter[0]:CLK
  To:                    fc0/counter[1]:D
  Delay (ns):            0.958
  Slack (ns):            0.941
  Arrival (ns):          3.619
  Required (ns):         2.678

Path 48
  From:                  fc1/counter[1]:CLK
  To:                    fc1/counter[2]:D
  Delay (ns):            0.974
  Slack (ns):            0.956
  Arrival (ns):          3.631
  Required (ns):         2.675

Path 49
  From:                  fc0/counter[0]:CLK
  To:                    fc0/counter[2]:D
  Delay (ns):            0.971
  Slack (ns):            0.957
  Arrival (ns):          3.632
  Required (ns):         2.675

Path 50
  From:                  fc1/counter[0]:CLK
  To:                    fc1/counter[2]:D
  Delay (ns):            0.981
  Slack (ns):            0.960
  Arrival (ns):          3.635
  Required (ns):         2.675

Path 51
  From:                  fc0/state:CLK
  To:                    fc1/counter[1]:D
  Delay (ns):            0.981
  Slack (ns):            0.964
  Arrival (ns):          3.639
  Required (ns):         2.675

Path 52
  From:                  fc0/state:CLK
  To:                    fc0/counter[1]:D
  Delay (ns):            0.984
  Slack (ns):            0.964
  Arrival (ns):          3.642
  Required (ns):         2.678

Path 53
  From:                  fc0/state:CLK
  To:                    fc2/counter[3]:D
  Delay (ns):            0.989
  Slack (ns):            0.966
  Arrival (ns):          3.647
  Required (ns):         2.681

Path 54
  From:                  fc0/state:CLK
  To:                    fc2/counter[2]:D
  Delay (ns):            0.981
  Slack (ns):            0.967
  Arrival (ns):          3.639
  Required (ns):         2.672

Path 55
  From:                  fc2/counter[3]:CLK
  To:                    fc2/counter[3]:D
  Delay (ns):            0.970
  Slack (ns):            0.970
  Arrival (ns):          3.631
  Required (ns):         2.661

Path 56
  From:                  fc0/counter[1]:CLK
  To:                    fc0/counter[1]:D
  Delay (ns):            0.987
  Slack (ns):            0.987
  Arrival (ns):          3.645
  Required (ns):         2.658

Path 57
  From:                  fc0/state:CLK
  To:                    fc2/counter[0]:D
  Delay (ns):            1.008
  Slack (ns):            0.994
  Arrival (ns):          3.666
  Required (ns):         2.672

Path 58
  From:                  fc2/counter[2]:CLK
  To:                    fc2/counter[2]:D
  Delay (ns):            0.997
  Slack (ns):            0.997
  Arrival (ns):          3.651
  Required (ns):         2.654

Path 59
  From:                  fc1/counter[1]:CLK
  To:                    fc1/counter[1]:D
  Delay (ns):            1.000
  Slack (ns):            1.000
  Arrival (ns):          3.657
  Required (ns):         2.657

Path 60
  From:                  fc0/final_count[2]:CLK
  To:                    fc0/ck_ok:D
  Delay (ns):            1.021
  Slack (ns):            1.001
  Arrival (ns):          3.682
  Required (ns):         2.681

Path 61
  From:                  fc0/state:CLK
  To:                    fc1/final_count[3]:E
  Delay (ns):            1.027
  Slack (ns):            1.010
  Arrival (ns):          3.685
  Required (ns):         2.675

Path 62
  From:                  fc2/counter[1]:CLK
  To:                    fc2/counter[1]:D
  Delay (ns):            1.012
  Slack (ns):            1.012
  Arrival (ns):          3.657
  Required (ns):         2.645

Path 63
  From:                  fc0/state:CLK
  To:                    fc1/final_count[0]:E
  Delay (ns):            1.050
  Slack (ns):            1.033
  Arrival (ns):          3.708
  Required (ns):         2.675

Path 64
  From:                  fc0/counter[0]:CLK
  To:                    fc0/final_count[3]:D
  Delay (ns):            1.065
  Slack (ns):            1.051
  Arrival (ns):          3.726
  Required (ns):         2.675

Path 65
  From:                  fc0/state:CLK
  To:                    fc2/final_count[3]:E
  Delay (ns):            1.095
  Slack (ns):            1.072
  Arrival (ns):          3.753
  Required (ns):         2.681

Path 66
  From:                  fc0/state:CLK
  To:                    fc0/final_count[0]:E
  Delay (ns):            1.091
  Slack (ns):            1.077
  Arrival (ns):          3.749
  Required (ns):         2.672

Path 67
  From:                  fc2/counter[1]:CLK
  To:                    fc2/counter[2]:D
  Delay (ns):            1.106
  Slack (ns):            1.079
  Arrival (ns):          3.751
  Required (ns):         2.672

Path 68
  From:                  fc2/counter[0]:CLK
  To:                    fc2/counter[2]:D
  Delay (ns):            1.110
  Slack (ns):            1.092
  Arrival (ns):          3.764
  Required (ns):         2.672

Path 69
  From:                  fc0/counter[2]:CLK
  To:                    fc0/final_count[3]:D
  Delay (ns):            1.113
  Slack (ns):            1.095
  Arrival (ns):          3.770
  Required (ns):         2.675

Path 70
  From:                  fc0/state:CLK
  To:                    fc0/final_count[2]:E
  Delay (ns):            1.119
  Slack (ns):            1.096
  Arrival (ns):          3.777
  Required (ns):         2.681

Path 71
  From:                  fc0/state:CLK
  To:                    fc0/final_count[3]:E
  Delay (ns):            1.115
  Slack (ns):            1.098
  Arrival (ns):          3.773
  Required (ns):         2.675

Path 72
  From:                  fc0/state:CLK
  To:                    fc2/final_count[1]:E
  Delay (ns):            1.107
  Slack (ns):            1.104
  Arrival (ns):          3.765
  Required (ns):         2.661

Path 73
  From:                  fc0/state:CLK
  To:                    fc2/final_count[0]:E
  Delay (ns):            1.121
  Slack (ns):            1.117
  Arrival (ns):          3.779
  Required (ns):         2.662

Path 74
  From:                  fc0/counter[0]:CLK
  To:                    fc0/counter[3]:D
  Delay (ns):            1.136
  Slack (ns):            1.122
  Arrival (ns):          3.797
  Required (ns):         2.675

Path 75
  From:                  fc2/counter[0]:CLK
  To:                    fc2/counter[3]:D
  Delay (ns):            1.157
  Slack (ns):            1.130
  Arrival (ns):          3.811
  Required (ns):         2.681

Path 76
  From:                  fc0/state:CLK
  To:                    fc2/final_count[2]:E
  Delay (ns):            1.143
  Slack (ns):            1.140
  Arrival (ns):          3.801
  Required (ns):         2.661

Path 77
  From:                  fc1/counter[2]:CLK
  To:                    fc1/counter[3]:D
  Delay (ns):            1.167
  Slack (ns):            1.149
  Arrival (ns):          3.824
  Required (ns):         2.675

Path 78
  From:                  fc0/counter[1]:CLK
  To:                    fc0/final_count[3]:D
  Delay (ns):            1.167
  Slack (ns):            1.150
  Arrival (ns):          3.825
  Required (ns):         2.675

Path 79
  From:                  fc2/counter[0]:CLK
  To:                    fc2/counter[1]:D
  Delay (ns):            1.158
  Slack (ns):            1.151
  Arrival (ns):          3.812
  Required (ns):         2.661

Path 80
  From:                  fc1/counter[1]:CLK
  To:                    fc1/counter[3]:D
  Delay (ns):            1.179
  Slack (ns):            1.161
  Arrival (ns):          3.836
  Required (ns):         2.675

Path 81
  From:                  fc0/counter[2]:CLK
  To:                    fc0/counter[3]:D
  Delay (ns):            1.184
  Slack (ns):            1.166
  Arrival (ns):          3.841
  Required (ns):         2.675

Path 82
  From:                  fc1/counter[0]:CLK
  To:                    fc1/counter[3]:D
  Delay (ns):            1.199
  Slack (ns):            1.178
  Arrival (ns):          3.853
  Required (ns):         2.675

Path 83
  From:                  fc0/state:CLK
  To:                    fc0/final_count[1]:E
  Delay (ns):            1.201
  Slack (ns):            1.187
  Arrival (ns):          3.859
  Required (ns):         2.672

Path 84
  From:                  fc2/counter[2]:CLK
  To:                    fc2/counter[3]:D
  Delay (ns):            1.226
  Slack (ns):            1.199
  Arrival (ns):          3.880
  Required (ns):         2.681

Path 85
  From:                  fc2/counter[1]:CLK
  To:                    fc2/counter[3]:D
  Delay (ns):            1.244
  Slack (ns):            1.208
  Arrival (ns):          3.889
  Required (ns):         2.681

Path 86
  From:                  fc0/counter[1]:CLK
  To:                    fc0/counter[3]:D
  Delay (ns):            1.238
  Slack (ns):            1.221
  Arrival (ns):          3.896
  Required (ns):         2.675

Path 87
  From:                  fc0/state:CLK
  To:                    fc0/counter[3]:D
  Delay (ns):            1.245
  Slack (ns):            1.228
  Arrival (ns):          3.903
  Required (ns):         2.675

Path 88
  From:                  fc0/state:CLK
  To:                    fc1/counter[0]:D
  Delay (ns):            1.245
  Slack (ns):            1.231
  Arrival (ns):          3.903
  Required (ns):         2.672

Path 89
  From:                  fc0/state:CLK
  To:                    fc1/final_count[1]:E
  Delay (ns):            1.251
  Slack (ns):            1.234
  Arrival (ns):          3.909
  Required (ns):         2.675

Path 90
  From:                  fc0/state:CLK
  To:                    fc1/final_count[2]:E
  Delay (ns):            1.251
  Slack (ns):            1.234
  Arrival (ns):          3.909
  Required (ns):         2.675

Path 91
  From:                  fc0/state:CLK
  To:                    fc0/counter[0]:D
  Delay (ns):            1.258
  Slack (ns):            1.235
  Arrival (ns):          3.916
  Required (ns):         2.681

Path 92
  From:                  fc1/final_count[3]:CLK
  To:                    fc1/ck_ok:D
  Delay (ns):            1.281
  Slack (ns):            1.263
  Arrival (ns):          3.938
  Required (ns):         2.675

Path 93
  From:                  fc0/final_count[3]:CLK
  To:                    fc0/ck_ok:D
  Delay (ns):            1.298
  Slack (ns):            1.274
  Arrival (ns):          3.955
  Required (ns):         2.681

Path 94
  From:                  fc2/final_count[3]:CLK
  To:                    fc2/ck_ok:D
  Delay (ns):            1.303
  Slack (ns):            1.305
  Arrival (ns):          3.964
  Required (ns):         2.659

Path 95
  From:                  fc0/state:CLK
  To:                    fc2/counter[1]:D
  Delay (ns):            1.347
  Slack (ns):            1.344
  Arrival (ns):          4.005
  Required (ns):         2.661

Path 96
  From:                  fc0/state:CLK
  To:                    fc1/counter[2]:D
  Delay (ns):            1.369
  Slack (ns):            1.352
  Arrival (ns):          4.027
  Required (ns):         2.675

