Timing Violation Report Min Delay Analysis

SmartTime Version v11.9 SP5
Microsemi Corporation - Microsemi Libero Software Release v11.9 SP5 (Version 11.9.5.5)
Date: Thu Apr 16 17:32:31 2020


Design: jtag_interface_top
Family: ProASIC3
Die: A3P250
Package: 144 FBGA
Temperature Range: -40 - 85 C
Voltage Range: 1.425 - 1.575 V
Speed Grade: -1
Design State: Post-Layout
Data source: Silicon verified
Min Operating Conditions: BEST - 1.575 V - -40 C
Max Operating Conditions: WORST - 1.425 V - 85 C
Using Enhanced Min Delay Analysis
Scenario for Timing Analysis: Primary


Path 1
  From:                  fc0/counter[0]:CLK
  To:                    fc0/final_count[0]:D
  Delay (ns):            0.434
  Slack (ns):            0.416
  Arrival (ns):          3.091
  Required (ns):         2.675

Path 2
  From:                  fc2/counter[0]:CLK
  To:                    fc2/final_count[0]:D
  Delay (ns):            0.478
  Slack (ns):            0.454
  Arrival (ns):          3.135
  Required (ns):         2.681

Path 3
  From:                  fc2/counter[3]:CLK
  To:                    fc2/final_count[3]:D
  Delay (ns):            0.570
  Slack (ns):            0.551
  Arrival (ns):          3.232
  Required (ns):         2.681

Path 4
  From:                  fc1/counter[3]:CLK
  To:                    fc1/final_count[3]:D
  Delay (ns):            0.576
  Slack (ns):            0.551
  Arrival (ns):          3.238
  Required (ns):         2.687

Path 5
  From:                  fc0/counter[3]:CLK
  To:                    fc0/final_count[3]:D
  Delay (ns):            0.571
  Slack (ns):            0.554
  Arrival (ns):          3.219
  Required (ns):         2.665

Path 6
  From:                  fc0/counter[2]:CLK
  To:                    fc0/final_count[2]:D
  Delay (ns):            0.592
  Slack (ns):            0.568
  Arrival (ns):          3.249
  Required (ns):         2.681

Path 7
  From:                  fc1/final_count[2]:CLK
  To:                    fc1/ck_ok:D
  Delay (ns):            0.592
  Slack (ns):            0.572
  Arrival (ns):          3.253
  Required (ns):         2.681

Path 8
  From:                  fc2/counter[1]:CLK
  To:                    fc2/final_count[1]:D
  Delay (ns):            0.596
  Slack (ns):            0.572
  Arrival (ns):          3.258
  Required (ns):         2.686

Path 9
  From:                  fc2/final_count[2]:CLK
  To:                    fc2/ck_ok:D
  Delay (ns):            0.597
  Slack (ns):            0.582
  Arrival (ns):          3.263
  Required (ns):         2.681

Path 10
  From:                  fc1/counter[0]:CLK
  To:                    fc1/counter[0]:D
  Delay (ns):            0.584
  Slack (ns):            0.584
  Arrival (ns):          3.250
  Required (ns):         2.666

Path 11
  From:                  fc1/counter[1]:CLK
  To:                    fc1/final_count[1]:D
  Delay (ns):            0.618
  Slack (ns):            0.592
  Arrival (ns):          3.279
  Required (ns):         2.687

Path 12
  From:                  fc0/counter[1]:CLK
  To:                    fc0/final_count[1]:D
  Delay (ns):            0.612
  Slack (ns):            0.594
  Arrival (ns):          3.269
  Required (ns):         2.675

Path 13
  From:                  fc2/counter[0]:CLK
  To:                    fc2/counter[0]:D
  Delay (ns):            0.596
  Slack (ns):            0.596
  Arrival (ns):          3.253
  Required (ns):         2.657

Path 14
  From:                  fc1/counter[0]:CLK
  To:                    fc1/counter[1]:D
  Delay (ns):            0.646
  Slack (ns):            0.631
  Arrival (ns):          3.312
  Required (ns):         2.681

Path 15
  From:                  fc2/counter[0]:CLK
  To:                    fc2/counter[1]:D
  Delay (ns):            0.665
  Slack (ns):            0.641
  Arrival (ns):          3.322
  Required (ns):         2.681

Path 16
  From:                  fc0/counter[0]:CLK
  To:                    fc0/counter[0]:D
  Delay (ns):            0.645
  Slack (ns):            0.645
  Arrival (ns):          3.302
  Required (ns):         2.657

Path 17
  From:                  fc1/counter[2]:CLK
  To:                    fc1/counter[2]:D
  Delay (ns):            0.656
  Slack (ns):            0.656
  Arrival (ns):          3.321
  Required (ns):         2.665

Path 18
  From:                  fc0/state:CLK
  To:                    fc1/counter[3]:D
  Delay (ns):            0.699
  Slack (ns):            0.680
  Arrival (ns):          3.361
  Required (ns):         2.681

Path 19
  From:                  fc0/state:CLK
  To:                    fc2/counter[0]:D
  Delay (ns):            0.699
  Slack (ns):            0.686
  Arrival (ns):          3.361
  Required (ns):         2.675

Path 20
  From:                  fc2/counter[1]:CLK
  To:                    fc2/counter[1]:D
  Delay (ns):            0.691
  Slack (ns):            0.691
  Arrival (ns):          3.353
  Required (ns):         2.662

Path 21
  From:                  fc0/counter[0]:CLK
  To:                    fc0/counter[1]:D
  Delay (ns):            0.710
  Slack (ns):            0.692
  Arrival (ns):          3.367
  Required (ns):         2.675

Path 22
  From:                  fc2/counter[1]:CLK
  To:                    fc2/final_count[3]:D
  Delay (ns):            0.713
  Slack (ns):            0.694
  Arrival (ns):          3.375
  Required (ns):         2.681

Path 23
  From:                  fc1/counter[1]:CLK
  To:                    fc1/final_count[2]:D
  Delay (ns):            0.716
  Slack (ns):            0.696
  Arrival (ns):          3.377
  Required (ns):         2.681

Path 24
  From:                  fc0/state:CLK
  To:                    fc2/final_count[0]:E
  Delay (ns):            0.727
  Slack (ns):            0.708
  Arrival (ns):          3.389
  Required (ns):         2.681

Path 25
  From:                  fc0/state:CLK
  To:                    fc0/final_count[2]:E
  Delay (ns):            0.727
  Slack (ns):            0.708
  Arrival (ns):          3.389
  Required (ns):         2.681

Path 26
  From:                  fc0/counter[1]:CLK
  To:                    fc0/final_count[2]:D
  Delay (ns):            0.734
  Slack (ns):            0.710
  Arrival (ns):          3.391
  Required (ns):         2.681

Path 27
  From:                  fc0/counter[1]:CLK
  To:                    fc0/counter[1]:D
  Delay (ns):            0.712
  Slack (ns):            0.712
  Arrival (ns):          3.369
  Required (ns):         2.657

Path 28
  From:                  fc1/counter[1]:CLK
  To:                    fc1/counter[1]:D
  Delay (ns):            0.715
  Slack (ns):            0.715
  Arrival (ns):          3.376
  Required (ns):         2.661

Path 29
  From:                  fc0/counter[0]:CLK
  To:                    fc0/final_count[1]:D
  Delay (ns):            0.760
  Slack (ns):            0.742
  Arrival (ns):          3.417
  Required (ns):         2.675

Path 30
  From:                  fc2/counter[0]:CLK
  To:                    fc2/final_count[1]:D
  Delay (ns):            0.787
  Slack (ns):            0.758
  Arrival (ns):          3.444
  Required (ns):         2.686

Path 31
  From:                  fc0/counter[0]:CLK
  To:                    fc0/final_count[2]:D
  Delay (ns):            0.782
  Slack (ns):            0.758
  Arrival (ns):          3.439
  Required (ns):         2.681

Path 32
  From:                  fc1/counter[0]:CLK
  To:                    fc1/final_count[0]:D
  Delay (ns):            0.774
  Slack (ns):            0.759
  Arrival (ns):          3.440
  Required (ns):         2.681

Path 33
  From:                  fc2/counter[2]:CLK
  To:                    fc2/final_count[2]:D
  Delay (ns):            0.796
  Slack (ns):            0.766
  Arrival (ns):          3.453
  Required (ns):         2.687

Path 34
  From:                  fc1/counter[2]:CLK
  To:                    fc1/final_count[2]:D
  Delay (ns):            0.782
  Slack (ns):            0.766
  Arrival (ns):          3.447
  Required (ns):         2.681

Path 35
  From:                  fc0/state:CLK
  To:                    fc0/counter[2]:D
  Delay (ns):            0.804
  Slack (ns):            0.791
  Arrival (ns):          3.466
  Required (ns):         2.675

Path 36
  From:                  fc1/counter[2]:CLK
  To:                    fc1/final_count[3]:D
  Delay (ns):            0.815
  Slack (ns):            0.793
  Arrival (ns):          3.480
  Required (ns):         2.687

Path 37
  From:                  fc0/final_count[3]:CLK
  To:                    fc0/ck_ok:D
  Delay (ns):            0.820
  Slack (ns):            0.803
  Arrival (ns):          3.468
  Required (ns):         2.665

Path 38
  From:                  fc2/counter[3]:CLK
  To:                    fc2/counter[3]:D
  Delay (ns):            0.804
  Slack (ns):            0.804
  Arrival (ns):          3.466
  Required (ns):         2.662

Path 39
  From:                  fc0/counter[3]:CLK
  To:                    fc0/counter[3]:D
  Delay (ns):            0.805
  Slack (ns):            0.805
  Arrival (ns):          3.453
  Required (ns):         2.648

Path 40
  From:                  fc1/final_count[3]:CLK
  To:                    fc1/ck_ok:D
  Delay (ns):            0.820
  Slack (ns):            0.805
  Arrival (ns):          3.486
  Required (ns):         2.681

Path 41
  From:                  fc1/counter[3]:CLK
  To:                    fc1/counter[3]:D
  Delay (ns):            0.805
  Slack (ns):            0.805
  Arrival (ns):          3.467
  Required (ns):         2.662

Path 42
  From:                  fc2/counter[2]:CLK
  To:                    fc2/counter[2]:D
  Delay (ns):            0.806
  Slack (ns):            0.806
  Arrival (ns):          3.463
  Required (ns):         2.657

Path 43
  From:                  fc2/final_count[3]:CLK
  To:                    fc2/ck_ok:D
  Delay (ns):            0.827
  Slack (ns):            0.808
  Arrival (ns):          3.489
  Required (ns):         2.681

Path 44
  From:                  fc0/final_count[2]:CLK
  To:                    fc0/ck_ok:D
  Delay (ns):            0.815
  Slack (ns):            0.812
  Arrival (ns):          3.477
  Required (ns):         2.665

Path 45
  From:                  fc0/counter[2]:CLK
  To:                    fc0/counter[2]:D
  Delay (ns):            0.825
  Slack (ns):            0.825
  Arrival (ns):          3.482
  Required (ns):         2.657

Path 46
  From:                  fc1/final_count[1]:CLK
  To:                    fc1/ck_ok:D
  Delay (ns):            0.870
  Slack (ns):            0.855
  Arrival (ns):          3.536
  Required (ns):         2.681

Path 47
  From:                  fc2/final_count[1]:CLK
  To:                    fc2/ck_ok:D
  Delay (ns):            0.878
  Slack (ns):            0.862
  Arrival (ns):          3.543
  Required (ns):         2.681

Path 48
  From:                  fc0/final_count[1]:CLK
  To:                    fc0/ck_ok:D
  Delay (ns):            0.870
  Slack (ns):            0.862
  Arrival (ns):          3.527
  Required (ns):         2.665

Path 49
  From:                  fc1/counter[0]:CLK
  To:                    fc1/final_count[2]:D
  Delay (ns):            0.884
  Slack (ns):            0.869
  Arrival (ns):          3.550
  Required (ns):         2.681

Path 50
  From:                  fc1/final_count[0]:CLK
  To:                    fc1/ck_ok:D
  Delay (ns):            0.908
  Slack (ns):            0.888
  Arrival (ns):          3.569
  Required (ns):         2.681

Path 51
  From:                  fc2/final_count[0]:CLK
  To:                    fc2/ck_ok:D
  Delay (ns):            0.917
  Slack (ns):            0.898
  Arrival (ns):          3.579
  Required (ns):         2.681

Path 52
  From:                  fc0/state:CLK
  To:                    fc0/final_count[3]:E
  Delay (ns):            0.904
  Slack (ns):            0.901
  Arrival (ns):          3.566
  Required (ns):         2.665

Path 53
  From:                  fc0/final_count[0]:CLK
  To:                    fc0/ck_ok:D
  Delay (ns):            0.909
  Slack (ns):            0.901
  Arrival (ns):          3.566
  Required (ns):         2.665

Path 54
  From:                  fc0/state:CLK
  To:                    fc1/counter[0]:D
  Delay (ns):            0.929
  Slack (ns):            0.904
  Arrival (ns):          3.591
  Required (ns):         2.687

Path 55
  From:                  fc2/counter[0]:CLK
  To:                    fc2/final_count[2]:D
  Delay (ns):            0.939
  Slack (ns):            0.909
  Arrival (ns):          3.596
  Required (ns):         2.687

Path 56
  From:                  fc1/counter[1]:CLK
  To:                    fc1/counter[2]:D
  Delay (ns):            0.940
  Slack (ns):            0.915
  Arrival (ns):          3.601
  Required (ns):         2.686

Path 57
  From:                  fc2/counter[1]:CLK
  To:                    fc2/counter[3]:D
  Delay (ns):            0.947
  Slack (ns):            0.928
  Arrival (ns):          3.609
  Required (ns):         2.681

Path 58
  From:                  fc2/counter[0]:CLK
  To:                    fc2/counter[2]:D
  Delay (ns):            0.949
  Slack (ns):            0.931
  Arrival (ns):          3.606
  Required (ns):         2.675

Path 59
  From:                  fc2/counter[0]:CLK
  To:                    fc2/final_count[3]:D
  Delay (ns):            0.971
  Slack (ns):            0.947
  Arrival (ns):          3.628
  Required (ns):         2.681

Path 60
  From:                  fc0/counter[1]:CLK
  To:                    fc0/counter[2]:D
  Delay (ns):            0.967
  Slack (ns):            0.949
  Arrival (ns):          3.624
  Required (ns):         2.675

Path 61
  From:                  fc1/counter[0]:CLK
  To:                    fc1/final_count[1]:D
  Delay (ns):            0.974
  Slack (ns):            0.953
  Arrival (ns):          3.640
  Required (ns):         2.687

Path 62
  From:                  fc0/state:CLK
  To:                    fc2/final_count[3]:E
  Delay (ns):            0.973
  Slack (ns):            0.954
  Arrival (ns):          3.635
  Required (ns):         2.681

Path 63
  From:                  fc0/counter[1]:CLK
  To:                    fc0/final_count[3]:D
  Delay (ns):            0.963
  Slack (ns):            0.955
  Arrival (ns):          3.620
  Required (ns):         2.665

Path 64
  From:                  fc2/counter[1]:CLK
  To:                    fc2/final_count[2]:D
  Delay (ns):            0.985
  Slack (ns):            0.960
  Arrival (ns):          3.647
  Required (ns):         2.687

Path 65
  From:                  fc1/counter[0]:CLK
  To:                    fc1/counter[2]:D
  Delay (ns):            0.982
  Slack (ns):            0.962
  Arrival (ns):          3.648
  Required (ns):         2.686

Path 66
  From:                  fc0/state:CLK
  To:                    fc2/counter[1]:D
  Delay (ns):            0.982
  Slack (ns):            0.963
  Arrival (ns):          3.644
  Required (ns):         2.681

Path 67
  From:                  fc0/state:CLK
  To:                    fc1/counter[2]:D
  Delay (ns):            0.988
  Slack (ns):            0.964
  Arrival (ns):          3.650
  Required (ns):         2.686

Path 68
  From:                  fc2/counter[2]:CLK
  To:                    fc2/final_count[3]:D
  Delay (ns):            0.996
  Slack (ns):            0.972
  Arrival (ns):          3.653
  Required (ns):         2.681

Path 69
  From:                  fc2/counter[1]:CLK
  To:                    fc2/counter[2]:D
  Delay (ns):            0.995
  Slack (ns):            0.982
  Arrival (ns):          3.657
  Required (ns):         2.675

Path 70
  From:                  fc1/counter[1]:CLK
  To:                    fc1/final_count[3]:D
  Delay (ns):            1.009
  Slack (ns):            0.983
  Arrival (ns):          3.670
  Required (ns):         2.687

Path 71
  From:                  fc0/state:CLK
  To:                    fc2/counter[2]:D
  Delay (ns):            1.001
  Slack (ns):            0.988
  Arrival (ns):          3.663
  Required (ns):         2.675

Path 72
  From:                  fc0/state:CLK
  To:                    fc2/counter[3]:D
  Delay (ns):            1.012
  Slack (ns):            0.993
  Arrival (ns):          3.674
  Required (ns):         2.681

Path 73
  From:                  fc0/counter[0]:CLK
  To:                    fc0/counter[2]:D
  Delay (ns):            1.015
  Slack (ns):            0.997
  Arrival (ns):          3.672
  Required (ns):         2.675

Path 74
  From:                  fc0/counter[2]:CLK
  To:                    fc0/final_count[3]:D
  Delay (ns):            1.014
  Slack (ns):            1.006
  Arrival (ns):          3.671
  Required (ns):         2.665

Path 75
  From:                  fc0/state:CLK
  To:                    fc0/counter[1]:D
  Delay (ns):            1.032
  Slack (ns):            1.019
  Arrival (ns):          3.694
  Required (ns):         2.675

Path 76
  From:                  fc0/state:CLK
  To:                    fc2/final_count[1]:E
  Delay (ns):            1.047
  Slack (ns):            1.023
  Arrival (ns):          3.709
  Required (ns):         2.686

Path 77
  From:                  fc0/state:CLK
  To:                    fc0/final_count[1]:E
  Delay (ns):            1.038
  Slack (ns):            1.025
  Arrival (ns):          3.700
  Required (ns):         2.675

Path 78
  From:                  fc0/state:CLK
  To:                    fc0/counter[3]:D
  Delay (ns):            1.028
  Slack (ns):            1.025
  Arrival (ns):          3.690
  Required (ns):         2.665

Path 79
  From:                  fc1/counter[2]:CLK
  To:                    fc1/counter[3]:D
  Delay (ns):            1.044
  Slack (ns):            1.028
  Arrival (ns):          3.709
  Required (ns):         2.681

Path 80
  From:                  fc1/counter[0]:CLK
  To:                    fc1/final_count[3]:D
  Delay (ns):            1.051
  Slack (ns):            1.030
  Arrival (ns):          3.717
  Required (ns):         2.687

Path 81
  From:                  fc0/state:CLK
  To:                    fc1/counter[1]:D
  Delay (ns):            1.084
  Slack (ns):            1.065
  Arrival (ns):          3.746
  Required (ns):         2.681

Path 82
  From:                  fc0/counter[0]:CLK
  To:                    fc0/final_count[3]:D
  Delay (ns):            1.092
  Slack (ns):            1.084
  Arrival (ns):          3.749
  Required (ns):         2.665

Path 83
  From:                  fc0/state:CLK
  To:                    fc0/counter[0]:D
  Delay (ns):            1.098
  Slack (ns):            1.085
  Arrival (ns):          3.760
  Required (ns):         2.675

Path 84
  From:                  fc0/state:CLK
  To:                    fc0/final_count[0]:E
  Delay (ns):            1.118
  Slack (ns):            1.105
  Arrival (ns):          3.780
  Required (ns):         2.675

Path 85
  From:                  fc0/state:CLK
  To:                    fc1/final_count[1]:E
  Delay (ns):            1.167
  Slack (ns):            1.142
  Arrival (ns):          3.829
  Required (ns):         2.687

Path 86
  From:                  fc2/counter[0]:CLK
  To:                    fc2/counter[3]:D
  Delay (ns):            1.205
  Slack (ns):            1.181
  Arrival (ns):          3.862
  Required (ns):         2.681

Path 87
  From:                  fc0/counter[1]:CLK
  To:                    fc0/counter[3]:D
  Delay (ns):            1.197
  Slack (ns):            1.189
  Arrival (ns):          3.854
  Required (ns):         2.665

Path 88
  From:                  fc2/counter[2]:CLK
  To:                    fc2/counter[3]:D
  Delay (ns):            1.230
  Slack (ns):            1.206
  Arrival (ns):          3.887
  Required (ns):         2.681

Path 89
  From:                  fc1/counter[1]:CLK
  To:                    fc1/counter[3]:D
  Delay (ns):            1.238
  Slack (ns):            1.218
  Arrival (ns):          3.899
  Required (ns):         2.681

Path 90
  From:                  fc0/counter[2]:CLK
  To:                    fc0/counter[3]:D
  Delay (ns):            1.248
  Slack (ns):            1.240
  Arrival (ns):          3.905
  Required (ns):         2.665

Path 91
  From:                  fc0/state:CLK
  To:                    fc1/final_count[3]:E
  Delay (ns):            1.290
  Slack (ns):            1.265
  Arrival (ns):          3.952
  Required (ns):         2.687

Path 92
  From:                  fc0/state:CLK
  To:                    fc1/final_count[2]:E
  Delay (ns):            1.284
  Slack (ns):            1.265
  Arrival (ns):          3.946
  Required (ns):         2.681

Path 93
  From:                  fc1/counter[0]:CLK
  To:                    fc1/counter[3]:D
  Delay (ns):            1.280
  Slack (ns):            1.265
  Arrival (ns):          3.946
  Required (ns):         2.681

Path 94
  From:                  fc0/state:CLK
  To:                    fc1/final_count[0]:E
  Delay (ns):            1.312
  Slack (ns):            1.293
  Arrival (ns):          3.974
  Required (ns):         2.681

Path 95
  From:                  fc0/counter[0]:CLK
  To:                    fc0/counter[3]:D
  Delay (ns):            1.326
  Slack (ns):            1.318
  Arrival (ns):          3.983
  Required (ns):         2.665

Path 96
  From:                  fc0/state:CLK
  To:                    fc2/final_count[2]:E
  Delay (ns):            1.387
  Slack (ns):            1.362
  Arrival (ns):          4.049
  Required (ns):         2.687

