Timing Violation Report Min Delay Analysis

SmartTime Version v11.9 SP5
Microsemi Corporation - Microsemi Libero Software Release v11.9 SP5 (Version 11.9.5.5)
Date: Wed Apr 15 16:14:07 2020


Design: jtag_interface_top
Family: ProASIC3
Die: A3P250
Package: 144 FBGA
Temperature Range: -40 - 85 C
Voltage Range: 1.425 - 1.575 V
Speed Grade: -1
Design State: Post-Layout
Data source: Silicon verified
Min Operating Conditions: BEST - 1.575 V - -40 C
Max Operating Conditions: WORST - 1.425 V - 85 C
Using Enhanced Min Delay Analysis
Scenario for Timing Analysis: Primary


Path 1
  From:                  fc1/counter[2]:CLK
  To:                    fc1/final_count[2]:D
  Delay (ns):            0.593
  Slack (ns):            0.576
  Arrival (ns):          3.240
  Required (ns):         2.664

Path 2
  From:                  fc0/counter[2]:CLK
  To:                    fc0/final_count[2]:D
  Delay (ns):            0.590
  Slack (ns):            0.577
  Arrival (ns):          3.248
  Required (ns):         2.671

Path 3
  From:                  fc1/counter[0]:CLK
  To:                    fc1/final_count[1]:D
  Delay (ns):            0.612
  Slack (ns):            0.581
  Arrival (ns):          3.259
  Required (ns):         2.678

Path 4
  From:                  fc2/counter[0]:CLK
  To:                    fc2/final_count[1]:D
  Delay (ns):            0.613
  Slack (ns):            0.594
  Arrival (ns):          3.272
  Required (ns):         2.678

Path 5
  From:                  fc0/counter[0]:CLK
  To:                    fc0/counter[0]:D
  Delay (ns):            0.595
  Slack (ns):            0.595
  Arrival (ns):          3.248
  Required (ns):         2.653

Path 6
  From:                  fc2/counter[0]:CLK
  To:                    fc2/counter[0]:D
  Delay (ns):            0.595
  Slack (ns):            0.595
  Arrival (ns):          3.254
  Required (ns):         2.659

Path 7
  From:                  fc1/counter[0]:CLK
  To:                    fc1/counter[0]:D
  Delay (ns):            0.595
  Slack (ns):            0.595
  Arrival (ns):          3.242
  Required (ns):         2.647

Path 8
  From:                  fc0/counter[0]:CLK
  To:                    fc0/final_count[1]:D
  Delay (ns):            0.613
  Slack (ns):            0.595
  Arrival (ns):          3.266
  Required (ns):         2.671

Path 9
  From:                  fc0/state:CLK
  To:                    fc2/final_count[1]:E
  Delay (ns):            0.640
  Slack (ns):            0.621
  Arrival (ns):          3.299
  Required (ns):         2.678

Path 10
  From:                  fc0/counter[3]:CLK
  To:                    fc0/final_count[3]:D
  Delay (ns):            0.672
  Slack (ns):            0.653
  Arrival (ns):          3.331
  Required (ns):         2.678

Path 11
  From:                  fc2/counter[3]:CLK
  To:                    fc2/final_count[3]:D
  Delay (ns):            0.672
  Slack (ns):            0.655
  Arrival (ns):          3.324
  Required (ns):         2.669

Path 12
  From:                  fc1/counter[3]:CLK
  To:                    fc1/final_count[3]:D
  Delay (ns):            0.671
  Slack (ns):            0.656
  Arrival (ns):          3.314
  Required (ns):         2.658

Path 13
  From:                  fc1/counter[1]:CLK
  To:                    fc1/final_count[1]:D
  Delay (ns):            0.715
  Slack (ns):            0.684
  Arrival (ns):          3.362
  Required (ns):         2.678

Path 14
  From:                  fc2/counter[1]:CLK
  To:                    fc2/final_count[1]:D
  Delay (ns):            0.716
  Slack (ns):            0.690
  Arrival (ns):          3.368
  Required (ns):         2.678

Path 15
  From:                  fc1/counter[0]:CLK
  To:                    fc1/final_count[2]:D
  Delay (ns):            0.712
  Slack (ns):            0.695
  Arrival (ns):          3.359
  Required (ns):         2.664

Path 16
  From:                  fc0/counter[0]:CLK
  To:                    fc0/final_count[2]:D
  Delay (ns):            0.713
  Slack (ns):            0.695
  Arrival (ns):          3.366
  Required (ns):         2.671

Path 17
  From:                  fc1/counter[1]:CLK
  To:                    fc1/final_count[2]:D
  Delay (ns):            0.716
  Slack (ns):            0.699
  Arrival (ns):          3.363
  Required (ns):         2.664

Path 18
  From:                  fc0/counter[1]:CLK
  To:                    fc0/final_count[1]:D
  Delay (ns):            0.717
  Slack (ns):            0.704
  Arrival (ns):          3.375
  Required (ns):         2.671

Path 19
  From:                  fc0/counter[1]:CLK
  To:                    fc0/final_count[2]:D
  Delay (ns):            0.717
  Slack (ns):            0.704
  Arrival (ns):          3.375
  Required (ns):         2.671

Path 20
  From:                  fc1/counter[0]:CLK
  To:                    fc1/final_count[0]:D
  Delay (ns):            0.782
  Slack (ns):            0.751
  Arrival (ns):          3.429
  Required (ns):         2.678

Path 21
  From:                  fc2/counter[2]:CLK
  To:                    fc2/final_count[2]:D
  Delay (ns):            0.789
  Slack (ns):            0.772
  Arrival (ns):          3.441
  Required (ns):         2.669

Path 22
  From:                  fc0/final_count[1]:CLK
  To:                    fc0/ck_ok:D
  Delay (ns):            0.816
  Slack (ns):            0.798
  Arrival (ns):          3.469
  Required (ns):         2.671

Path 23
  From:                  fc1/final_count[1]:CLK
  To:                    fc1/ck_ok:D
  Delay (ns):            0.816
  Slack (ns):            0.804
  Arrival (ns):          3.475
  Required (ns):         2.671

Path 24
  From:                  fc2/final_count[1]:CLK
  To:                    fc2/ck_ok:D
  Delay (ns):            0.816
  Slack (ns):            0.806
  Arrival (ns):          3.475
  Required (ns):         2.669

Path 25
  From:                  fc1/final_count[2]:CLK
  To:                    fc1/ck_ok:D
  Delay (ns):            0.898
  Slack (ns):            0.874
  Arrival (ns):          3.545
  Required (ns):         2.671

Path 26
  From:                  fc2/final_count[2]:CLK
  To:                    fc2/ck_ok:D
  Delay (ns):            0.898
  Slack (ns):            0.881
  Arrival (ns):          3.550
  Required (ns):         2.669

Path 27
  From:                  fc2/counter[2]:CLK
  To:                    fc2/counter[2]:D
  Delay (ns):            0.884
  Slack (ns):            0.884
  Arrival (ns):          3.536
  Required (ns):         2.652

Path 28
  From:                  fc2/counter[0]:CLK
  To:                    fc2/final_count[0]:D
  Delay (ns):            0.904
  Slack (ns):            0.885
  Arrival (ns):          3.563
  Required (ns):         2.678

Path 29
  From:                  fc0/state:CLK
  To:                    fc0/final_count[3]:E
  Delay (ns):            0.909
  Slack (ns):            0.890
  Arrival (ns):          3.568
  Required (ns):         2.678

Path 30
  From:                  fc2/counter[1]:CLK
  To:                    fc2/final_count[2]:D
  Delay (ns):            0.912
  Slack (ns):            0.895
  Arrival (ns):          3.564
  Required (ns):         2.669

Path 31
  From:                  fc0/final_count[0]:CLK
  To:                    fc0/ck_ok:D
  Delay (ns):            0.909
  Slack (ns):            0.897
  Arrival (ns):          3.568
  Required (ns):         2.671

Path 32
  From:                  fc1/final_count[0]:CLK
  To:                    fc1/ck_ok:D
  Delay (ns):            0.909
  Slack (ns):            0.897
  Arrival (ns):          3.568
  Required (ns):         2.671

Path 33
  From:                  fc2/counter[0]:CLK
  To:                    fc2/final_count[2]:D
  Delay (ns):            0.908
  Slack (ns):            0.898
  Arrival (ns):          3.567
  Required (ns):         2.669

Path 34
  From:                  fc2/final_count[0]:CLK
  To:                    fc2/ck_ok:D
  Delay (ns):            0.909
  Slack (ns):            0.899
  Arrival (ns):          3.568
  Required (ns):         2.669

Path 35
  From:                  fc0/counter[0]:CLK
  To:                    fc0/counter[1]:D
  Delay (ns):            0.932
  Slack (ns):            0.907
  Arrival (ns):          3.585
  Required (ns):         2.678

Path 36
  From:                  fc1/counter[2]:CLK
  To:                    fc1/counter[2]:D
  Delay (ns):            0.908
  Slack (ns):            0.908
  Arrival (ns):          3.555
  Required (ns):         2.647

Path 37
  From:                  fc0/state:CLK
  To:                    fc2/counter[1]:D
  Delay (ns):            0.918
  Slack (ns):            0.908
  Arrival (ns):          3.577
  Required (ns):         2.669

Path 38
  From:                  fc2/counter[0]:CLK
  To:                    fc2/final_count[3]:D
  Delay (ns):            0.918
  Slack (ns):            0.908
  Arrival (ns):          3.577
  Required (ns):         2.669

Path 39
  From:                  fc0/state:CLK
  To:                    fc2/final_count[3]:E
  Delay (ns):            0.919
  Slack (ns):            0.909
  Arrival (ns):          3.578
  Required (ns):         2.669

Path 40
  From:                  fc0/counter[2]:CLK
  To:                    fc0/counter[2]:D
  Delay (ns):            0.909
  Slack (ns):            0.909
  Arrival (ns):          3.567
  Required (ns):         2.658

Path 41
  From:                  fc1/counter[0]:CLK
  To:                    fc1/counter[1]:D
  Delay (ns):            0.928
  Slack (ns):            0.911
  Arrival (ns):          3.575
  Required (ns):         2.664

Path 42
  From:                  fc2/counter[2]:CLK
  To:                    fc2/final_count[3]:D
  Delay (ns):            0.930
  Slack (ns):            0.913
  Arrival (ns):          3.582
  Required (ns):         2.669

Path 43
  From:                  fc2/counter[0]:CLK
  To:                    fc2/counter[1]:D
  Delay (ns):            0.928
  Slack (ns):            0.918
  Arrival (ns):          3.587
  Required (ns):         2.669

Path 44
  From:                  fc1/counter[2]:CLK
  To:                    fc1/final_count[3]:D
  Delay (ns):            0.930
  Slack (ns):            0.919
  Arrival (ns):          3.577
  Required (ns):         2.658

Path 45
  From:                  fc1/counter[0]:CLK
  To:                    fc1/final_count[3]:D
  Delay (ns):            0.932
  Slack (ns):            0.921
  Arrival (ns):          3.579
  Required (ns):         2.658

Path 46
  From:                  fc2/counter[1]:CLK
  To:                    fc2/final_count[3]:D
  Delay (ns):            0.942
  Slack (ns):            0.925
  Arrival (ns):          3.594
  Required (ns):         2.669

Path 47
  From:                  fc1/counter[1]:CLK
  To:                    fc1/final_count[3]:D
  Delay (ns):            0.942
  Slack (ns):            0.931
  Arrival (ns):          3.589
  Required (ns):         2.658

Path 48
  From:                  fc0/counter[0]:CLK
  To:                    fc0/final_count[0]:D
  Delay (ns):            0.963
  Slack (ns):            0.938
  Arrival (ns):          3.616
  Required (ns):         2.678

Path 49
  From:                  fc0/counter[3]:CLK
  To:                    fc0/counter[3]:D
  Delay (ns):            0.956
  Slack (ns):            0.956
  Arrival (ns):          3.615
  Required (ns):         2.659

Path 50
  From:                  fc2/counter[3]:CLK
  To:                    fc2/counter[3]:D
  Delay (ns):            0.956
  Slack (ns):            0.956
  Arrival (ns):          3.608
  Required (ns):         2.652

Path 51
  From:                  fc1/counter[3]:CLK
  To:                    fc1/counter[3]:D
  Delay (ns):            0.957
  Slack (ns):            0.957
  Arrival (ns):          3.600
  Required (ns):         2.643

Path 52
  From:                  fc0/state:CLK
  To:                    fc1/final_count[2]:E
  Delay (ns):            0.963
  Slack (ns):            0.958
  Arrival (ns):          3.622
  Required (ns):         2.664

Path 53
  From:                  fc2/counter[1]:CLK
  To:                    fc2/counter[2]:D
  Delay (ns):            0.975
  Slack (ns):            0.958
  Arrival (ns):          3.627
  Required (ns):         2.669

Path 54
  From:                  fc2/counter[0]:CLK
  To:                    fc2/counter[2]:D
  Delay (ns):            0.982
  Slack (ns):            0.972
  Arrival (ns):          3.641
  Required (ns):         2.669

Path 55
  From:                  fc1/counter[1]:CLK
  To:                    fc1/counter[2]:D
  Delay (ns):            0.999
  Slack (ns):            0.982
  Arrival (ns):          3.646
  Required (ns):         2.664

Path 56
  From:                  fc0/counter[1]:CLK
  To:                    fc0/counter[2]:D
  Delay (ns):            1.005
  Slack (ns):            0.985
  Arrival (ns):          3.663
  Required (ns):         2.678

Path 57
  From:                  fc0/counter[0]:CLK
  To:                    fc0/counter[2]:D
  Delay (ns):            1.012
  Slack (ns):            0.987
  Arrival (ns):          3.665
  Required (ns):         2.678

Path 58
  From:                  fc1/counter[0]:CLK
  To:                    fc1/counter[2]:D
  Delay (ns):            1.006
  Slack (ns):            0.989
  Arrival (ns):          3.653
  Required (ns):         2.664

Path 59
  From:                  fc0/counter[0]:CLK
  To:                    fc0/final_count[3]:D
  Delay (ns):            1.025
  Slack (ns):            1.000
  Arrival (ns):          3.678
  Required (ns):         2.678

Path 60
  From:                  fc1/counter[1]:CLK
  To:                    fc1/counter[1]:D
  Delay (ns):            1.000
  Slack (ns):            1.000
  Arrival (ns):          3.647
  Required (ns):         2.647

Path 61
  From:                  fc2/counter[1]:CLK
  To:                    fc2/counter[1]:D
  Delay (ns):            1.000
  Slack (ns):            1.000
  Arrival (ns):          3.652
  Required (ns):         2.652

Path 62
  From:                  fc0/counter[1]:CLK
  To:                    fc0/counter[1]:D
  Delay (ns):            1.006
  Slack (ns):            1.006
  Arrival (ns):          3.664
  Required (ns):         2.658

Path 63
  From:                  fc0/state:CLK
  To:                    fc1/final_count[1]:E
  Delay (ns):            1.035
  Slack (ns):            1.016
  Arrival (ns):          3.694
  Required (ns):         2.678

Path 64
  From:                  fc0/state:CLK
  To:                    fc1/final_count[0]:E
  Delay (ns):            1.035
  Slack (ns):            1.016
  Arrival (ns):          3.694
  Required (ns):         2.678

Path 65
  From:                  fc0/state:CLK
  To:                    fc0/final_count[0]:E
  Delay (ns):            1.035
  Slack (ns):            1.016
  Arrival (ns):          3.694
  Required (ns):         2.678

Path 66
  From:                  fc0/state:CLK
  To:                    fc0/final_count[2]:E
  Delay (ns):            1.035
  Slack (ns):            1.023
  Arrival (ns):          3.694
  Required (ns):         2.671

Path 67
  From:                  fc0/state:CLK
  To:                    fc0/final_count[1]:E
  Delay (ns):            1.035
  Slack (ns):            1.023
  Arrival (ns):          3.694
  Required (ns):         2.671

Path 68
  From:                  fc0/counter[2]:CLK
  To:                    fc0/final_count[3]:D
  Delay (ns):            1.043
  Slack (ns):            1.023
  Arrival (ns):          3.701
  Required (ns):         2.678

Path 69
  From:                  fc0/counter[1]:CLK
  To:                    fc0/final_count[3]:D
  Delay (ns):            1.056
  Slack (ns):            1.036
  Arrival (ns):          3.714
  Required (ns):         2.678

Path 70
  From:                  fc0/final_count[2]:CLK
  To:                    fc0/ck_ok:D
  Delay (ns):            1.067
  Slack (ns):            1.049
  Arrival (ns):          3.720
  Required (ns):         2.671

Path 71
  From:                  fc0/state:CLK
  To:                    fc2/final_count[2]:E
  Delay (ns):            1.066
  Slack (ns):            1.056
  Arrival (ns):          3.725
  Required (ns):         2.669

Path 72
  From:                  fc0/state:CLK
  To:                    fc2/final_count[0]:E
  Delay (ns):            1.096
  Slack (ns):            1.077
  Arrival (ns):          3.755
  Required (ns):         2.678

Path 73
  From:                  fc0/state:CLK
  To:                    fc1/final_count[3]:E
  Delay (ns):            1.093
  Slack (ns):            1.094
  Arrival (ns):          3.752
  Required (ns):         2.658

Path 74
  From:                  fc0/state:CLK
  To:                    fc2/counter[3]:D
  Delay (ns):            1.129
  Slack (ns):            1.119
  Arrival (ns):          3.788
  Required (ns):         2.669

Path 75
  From:                  fc2/counter[0]:CLK
  To:                    fc2/counter[3]:D
  Delay (ns):            1.197
  Slack (ns):            1.187
  Arrival (ns):          3.856
  Required (ns):         2.669

Path 76
  From:                  fc2/counter[2]:CLK
  To:                    fc2/counter[3]:D
  Delay (ns):            1.209
  Slack (ns):            1.192
  Arrival (ns):          3.861
  Required (ns):         2.669

Path 77
  From:                  fc0/state:CLK
  To:                    fc0/counter[2]:D
  Delay (ns):            1.212
  Slack (ns):            1.193
  Arrival (ns):          3.871
  Required (ns):         2.678

Path 78
  From:                  fc1/counter[2]:CLK
  To:                    fc1/counter[3]:D
  Delay (ns):            1.210
  Slack (ns):            1.199
  Arrival (ns):          3.857
  Required (ns):         2.658

Path 79
  From:                  fc0/state:CLK
  To:                    fc1/counter[1]:D
  Delay (ns):            1.204
  Slack (ns):            1.199
  Arrival (ns):          3.863
  Required (ns):         2.664

Path 80
  From:                  fc1/counter[0]:CLK
  To:                    fc1/counter[3]:D
  Delay (ns):            1.212
  Slack (ns):            1.201
  Arrival (ns):          3.859
  Required (ns):         2.658

Path 81
  From:                  fc2/counter[1]:CLK
  To:                    fc2/counter[3]:D
  Delay (ns):            1.221
  Slack (ns):            1.204
  Arrival (ns):          3.873
  Required (ns):         2.669

Path 82
  From:                  fc1/counter[1]:CLK
  To:                    fc1/counter[3]:D
  Delay (ns):            1.222
  Slack (ns):            1.211
  Arrival (ns):          3.869
  Required (ns):         2.658

Path 83
  From:                  fc0/state:CLK
  To:                    fc2/counter[0]:D
  Delay (ns):            1.238
  Slack (ns):            1.219
  Arrival (ns):          3.897
  Required (ns):         2.678

Path 84
  From:                  fc0/state:CLK
  To:                    fc2/counter[2]:D
  Delay (ns):            1.236
  Slack (ns):            1.226
  Arrival (ns):          3.895
  Required (ns):         2.669

Path 85
  From:                  fc0/state:CLK
  To:                    fc1/counter[2]:D
  Delay (ns):            1.241
  Slack (ns):            1.236
  Arrival (ns):          3.900
  Required (ns):         2.664

Path 86
  From:                  fc1/final_count[3]:CLK
  To:                    fc1/ck_ok:D
  Delay (ns):            1.282
  Slack (ns):            1.254
  Arrival (ns):          3.925
  Required (ns):         2.671

Path 87
  From:                  fc2/final_count[3]:CLK
  To:                    fc2/ck_ok:D
  Delay (ns):            1.281
  Slack (ns):            1.264
  Arrival (ns):          3.933
  Required (ns):         2.669

Path 88
  From:                  fc0/final_count[3]:CLK
  To:                    fc0/ck_ok:D
  Delay (ns):            1.282
  Slack (ns):            1.270
  Arrival (ns):          3.941
  Required (ns):         2.671

Path 89
  From:                  fc0/state:CLK
  To:                    fc1/counter[3]:D
  Delay (ns):            1.276
  Slack (ns):            1.277
  Arrival (ns):          3.935
  Required (ns):         2.658

Path 90
  From:                  fc0/counter[0]:CLK
  To:                    fc0/counter[3]:D
  Delay (ns):            1.304
  Slack (ns):            1.279
  Arrival (ns):          3.957
  Required (ns):         2.678

Path 91
  From:                  fc0/state:CLK
  To:                    fc0/counter[3]:D
  Delay (ns):            1.313
  Slack (ns):            1.294
  Arrival (ns):          3.972
  Required (ns):         2.678

Path 92
  From:                  fc0/counter[2]:CLK
  To:                    fc0/counter[3]:D
  Delay (ns):            1.322
  Slack (ns):            1.302
  Arrival (ns):          3.980
  Required (ns):         2.678

Path 93
  From:                  fc0/counter[1]:CLK
  To:                    fc0/counter[3]:D
  Delay (ns):            1.335
  Slack (ns):            1.315
  Arrival (ns):          3.993
  Required (ns):         2.678

Path 94
  From:                  fc0/state:CLK
  To:                    fc0/counter[0]:D
  Delay (ns):            1.339
  Slack (ns):            1.327
  Arrival (ns):          3.998
  Required (ns):         2.671

Path 95
  From:                  fc0/state:CLK
  To:                    fc1/counter[0]:D
  Delay (ns):            1.364
  Slack (ns):            1.359
  Arrival (ns):          4.023
  Required (ns):         2.664

Path 96
  From:                  fc0/state:CLK
  To:                    fc0/counter[1]:D
  Delay (ns):            1.437
  Slack (ns):            1.418
  Arrival (ns):          4.096
  Required (ns):         2.678

