Timing Report Max Delay Analysis

SmartTime Version v11.9 SP5
Microsemi Corporation - Microsemi Libero Software Release v11.9 SP5 (Version 11.9.5.5)
Date: Thu Apr 16 17:18:23 2020


Design: jtag_interface_top
Family: ProASIC3
Die: A3P250
Package: 144 FBGA
Temperature Range: -40 - 85 C
Voltage Range: 1.425 - 1.575 V
Speed Grade: -1
Design State: Post-Layout
Data source: Silicon verified
Min Operating Conditions: BEST - 1.575 V - -40 C
Max Operating Conditions: WORST - 1.425 V - 85 C
Using Enhanced Min Delay Analysis
Scenario for Timing Analysis: Primary


-----------------------------------------------------
SUMMARY

Clock Domain:               clocking/Core:GLA
Period (ns):                0.864
Frequency (MHz):            1157.407
Required Period (ns):       25.000
Required Frequency (MHz):   40.000
External Setup (ns):        -1.411
Max Clock-To-Out (ns):      12.246

Clock Domain:               clocking/Core:GLB
Period (ns):                4.224
Frequency (MHz):            236.742
Required Period (ns):       4.167
Required Frequency (MHz):   239.981
External Setup (ns):        -0.359
Max Clock-To-Out (ns):      N/A

Clock Domain:               gbt_clk40
Period (ns):                4.000
Frequency (MHz):            250.000
Required Period (ns):       24.950
Required Frequency (MHz):   40.080
External Setup (ns):        N/A
Max Clock-To-Out (ns):      N/A

Clock Domain:               osc_clk40
Period (ns):                4.000
Frequency (MHz):            250.000
Required Period (ns):       25.000
Required Frequency (MHz):   40.000
External Setup (ns):        N/A
Max Clock-To-Out (ns):      N/A

                            Input to Output
Max Delay (ns):             N/A

END SUMMARY
-----------------------------------------------------

Clock Domain clocking/Core:GLA

Info: The maximum frequency of this clock domain is limited by the minimum pulse widths of pin jtag_out_loc[3]:CLK

SET Register to Register

No Path

END SET Register to Register

----------------------------------------------------

SET External Setup

Path 1
  From:                  gbt_tdi_p[1]
  To:                    jtag_out_rem[1]:D
  Delay (ns):            3.127
  Slack (ns):
  Arrival (ns):          3.127
  Required (ns):
  Setup (ns):            0.616
  External Setup (ns):   -1.411

Path 2
  From:                  gbt_tdi_n[1]
  To:                    jtag_out_rem[1]:D
  Delay (ns):            3.113
  Slack (ns):
  Arrival (ns):          3.113
  Required (ns):
  Setup (ns):            0.616
  External Setup (ns):   -1.425

Path 3
  From:                  gbt_rst_p[0]
  To:                    jtag_out_loc[3]:D
  Delay (ns):            3.082
  Slack (ns):
  Arrival (ns):          3.082
  Required (ns):
  Setup (ns):            0.616
  External Setup (ns):   -1.539

Path 4
  From:                  gbt_rst_n[0]
  To:                    jtag_out_loc[3]:D
  Delay (ns):            3.068
  Slack (ns):
  Arrival (ns):          3.068
  Required (ns):
  Setup (ns):            0.616
  External Setup (ns):   -1.553

Path 5
  From:                  gbt_dvalid
  To:                    jtag_out_rem_tri_enable:D
  Delay (ns):            2.958
  Slack (ns):
  Arrival (ns):          2.958
  Required (ns):
  Setup (ns):            0.616
  External Setup (ns):   -1.585


Expanded Path 1
  From: gbt_tdi_p[1]
  To: jtag_out_rem[1]:D
  data required time                             N/C
  data arrival time                          -   3.127
  slack                                          N/C
  ________________________________________________________
  Data arrival time calculation
  0.000                        gbt_tdi_p[1] (f)
               +     0.000          net: gbt_tdi_p[1]
  0.000                        jtag_in1/\\INBUF_LVDS[1]\\/U0/U0:PAD (f)
               +     1.436          cell: ADLIB:IOPADP_IN
  1.436                        jtag_in1/\\INBUF_LVDS[1]\\/U0/U0:Y (f)
               +     0.000          net: jtag_in1/_INBUF_LVDS[1]_/U0/NET1
  1.436                        jtag_in1/\\INBUF_LVDS[1]\\/U0/U1:YIN (f)
               +     0.035          cell: ADLIB:IOIN_IB
  1.471                        jtag_in1/\\INBUF_LVDS[1]\\/U0/U1:Y (f)
               +     1.656          net: jtag_rem[1]
  3.127                        jtag_out_rem[1]:D (f)
                                    
  3.127                        data arrival time
  ________________________________________________________
  Data required time calculation
  N/C                          clocking/Core:GLA
               +     0.000          Clock source
  N/C                          clocking/Core:GLA (f)
               +     4.552          Clock generation
  N/C
               +     0.602          net: GLA
  N/C                          jtag_out_rem[1]:CLK (f)
               -     0.616          Library setup time: ADLIB:DFN0
  N/C                          jtag_out_rem[1]:D


END SET External Setup

----------------------------------------------------

SET Clock to Output

Path 1
  From:                  jtag_out_rem_tri_enable:CLK
  To:                    proasic_tdi[0]
  Delay (ns):            7.087
  Slack (ns):
  Arrival (ns):          12.246
  Required (ns):
  Clock to Out (ns):     12.246

Path 2
  From:                  jtag_out_rem_tri_enable:CLK
  To:                    proasic_tdi[1]
  Delay (ns):            6.822
  Slack (ns):
  Arrival (ns):          11.981
  Required (ns):
  Clock to Out (ns):     11.981

Path 3
  From:                  jtag_out_rem_tri_enable:CLK
  To:                    proasic_rst[1]
  Delay (ns):            6.095
  Slack (ns):
  Arrival (ns):          11.254
  Required (ns):
  Clock to Out (ns):     11.254

Path 4
  From:                  jtag_out_rem_tri_enable:CLK
  To:                    proasic_rst[0]
  Delay (ns):            6.065
  Slack (ns):
  Arrival (ns):          11.224
  Required (ns):
  Clock to Out (ns):     11.224

Path 5
  From:                  jtag_out_rem_tri_enable:CLK
  To:                    proasic_tck[1]
  Delay (ns):            5.786
  Slack (ns):
  Arrival (ns):          10.945
  Required (ns):
  Clock to Out (ns):     10.945


Expanded Path 1
  From: jtag_out_rem_tri_enable:CLK
  To: proasic_tdi[0]
  data required time                             N/C
  data arrival time                          -   12.246
  slack                                          N/C
  ________________________________________________________
  Data arrival time calculation
  0.000                        clocking/Core:GLA
               +     0.000          Clock source
  0.000                        clocking/Core:GLA (f)
               +     4.552          Clock generation
  4.552
               +     0.607          net: GLA
  5.159                        jtag_out_rem_tri_enable:CLK (f)
               +     0.565          cell: ADLIB:DFN0
  5.724                        jtag_out_rem_tri_enable:Q (f)
               +     3.348          net: jtag_out_rem_tri_enable
  9.072                        proasic_tdi_pad[0]/U0/U1:E (f)
               +     0.360          cell: ADLIB:IOTRI_OB_EB
  9.432                        proasic_tdi_pad[0]/U0/U1:EOUT (f)
               +     0.000          net: proasic_tdi_pad[0]/U0/NET2
  9.432                        proasic_tdi_pad[0]/U0/U0:E (f)
               +     2.814          cell: ADLIB:IOPAD_TRI
  12.246                       proasic_tdi_pad[0]/U0/U0:PAD (f)
               +     0.000          net: proasic_tdi_0[0]
  12.246                       proasic_tdi[0] (f)
                                    
  12.246                       data arrival time
  ________________________________________________________
  Data required time calculation
  N/C                          clocking/Core:GLA
               +     0.000          Clock source
  N/C                          clocking/Core:GLA (r)
               +     4.552          Clock generation
  N/C
                                    
  N/C                          proasic_tdi[0] (f)


END SET Clock to Output

----------------------------------------------------

SET Register to Asynchronous

No Path

END SET Register to Asynchronous

----------------------------------------------------

SET External Recovery

No Path

END SET External Recovery

----------------------------------------------------

SET Asynchronous to Register

No Path

END SET Asynchronous to Register

----------------------------------------------------

Clock Domain clocking/Core:GLB

SET Register to Register

Path 1
  From:                  fc2/counter[1]:CLK
  To:                    fc2/counter[3]:D
  Delay (ns):            3.707
  Slack (ns):            -0.057
  Arrival (ns):          9.542
  Required (ns):         9.485
  Setup (ns):            0.466
  Minimum Period (ns):   4.224

Path 2
  From:                  fc2/counter[0]:CLK
  To:                    fc2/counter[3]:D
  Delay (ns):            3.699
  Slack (ns):            -0.049
  Arrival (ns):          9.534
  Required (ns):         9.485
  Setup (ns):            0.466
  Minimum Period (ns):   4.216

Path 3
  From:                  fc0/counter[0]:CLK
  To:                    fc0/counter[3]:D
  Delay (ns):            3.769
  Slack (ns):            -0.044
  Arrival (ns):          9.595
  Required (ns):         9.551
  Setup (ns):            0.466
  Minimum Period (ns):   4.211

Path 4
  From:                  fc1/counter[0]:CLK
  To:                    fc1/final_count[3]:D
  Delay (ns):            3.693
  Slack (ns):            -0.037
  Arrival (ns):          9.543
  Required (ns):         9.506
  Setup (ns):            0.466
  Minimum Period (ns):   4.204

Path 5
  From:                  fc1/counter[1]:CLK
  To:                    fc1/final_count[3]:D
  Delay (ns):            3.658
  Slack (ns):            -0.002
  Arrival (ns):          9.508
  Required (ns):         9.506
  Setup (ns):            0.466
  Minimum Period (ns):   4.169


Expanded Path 1
  From: fc2/counter[1]:CLK
  To: fc2/counter[3]:D
  data required time                             9.485
  data arrival time                          -   9.542
  slack                                          -0.057
  ________________________________________________________
  Data arrival time calculation
  0.000                        clocking/Core:GLB
               +     0.000          Clock source
  0.000                        clocking/Core:GLB (r)
               +     5.201          Clock generation
  5.201
               +     0.634          net: GLB
  5.835                        fc2/counter[1]:CLK (r)
               +     0.637          cell: ADLIB:DFN1
  6.472                        fc2/counter[1]:Q (f)
               +     0.497          net: fc2/counter[1]
  6.969                        HIEFFPLA_INST_0_776:B (f)
               +     0.554          cell: ADLIB:AND3
  7.523                        HIEFFPLA_INST_0_776:Y (f)
               +     0.289          net: HIEFFPLA_NET_0_1637
  7.812                        HIEFFPLA_INST_0_778:B (f)
               +     0.809          cell: ADLIB:XOR2
  8.621                        HIEFFPLA_INST_0_778:Y (r)
               +     0.287          net: HIEFFPLA_NET_0_1636
  8.908                        HIEFFPLA_INST_0_769:C (r)
               +     0.344          cell: ADLIB:OA1A
  9.252                        HIEFFPLA_INST_0_769:Y (r)
               +     0.290          net: HIEFFPLA_NET_0_1640
  9.542                        fc2/counter[3]:D (r)
                                    
  9.542                        data arrival time
  ________________________________________________________
  Data required time calculation
  4.167                        clocking/Core:GLB
               +     0.000          Clock source
  4.167                        clocking/Core:GLB (r)
               +     5.201          Clock generation
  9.368
               +     0.583          net: GLB
  9.951                        fc2/counter[3]:CLK (r)
               -     0.466          Library setup time: ADLIB:DFN1
  9.485                        fc2/counter[3]:D
                                    
  9.485                        data required time


END SET Register to Register

----------------------------------------------------

SET External Setup

Path 1
  From:                  gbt_rxrdy
  To:                    fc1/ck_ok:D
  Delay (ns):            4.980
  Slack (ns):
  Arrival (ns):          4.980
  Required (ns):
  Setup (ns):            0.466
  External Setup (ns):   -0.359

Path 2
  From:                  gbt_clk40
  To:                    fc0/counter[1]:D
  Delay (ns):            4.992
  Slack (ns):
  Arrival (ns):          4.992
  Required (ns):
  Setup (ns):            0.466
  External Setup (ns):   -0.392

Path 3
  From:                  gbt_clk40
  To:                    fc1/counter[3]:D
  Delay (ns):            4.946
  Slack (ns):
  Arrival (ns):          4.946
  Required (ns):
  Setup (ns):            0.466
  External Setup (ns):   -0.438

Path 4
  From:                  gbt_rxrdy
  To:                    fc2/ck_ok:D
  Delay (ns):            4.873
  Slack (ns):
  Arrival (ns):          4.873
  Required (ns):
  Setup (ns):            0.466
  External Setup (ns):   -0.487

Path 5
  From:                  gbt_clk40
  To:                    fc2/counter[1]:D
  Delay (ns):            4.464
  Slack (ns):
  Arrival (ns):          4.464
  Required (ns):
  Setup (ns):            0.466
  External Setup (ns):   -0.905


Expanded Path 1
  From: gbt_rxrdy
  To: fc1/ck_ok:D
  data required time                             N/C
  data arrival time                          -   4.980
  slack                                          N/C
  ________________________________________________________
  Data arrival time calculation
  0.000                        gbt_rxrdy (r)
               +     0.000          net: gbt_rxrdy
  0.000                        gbt_rxrdy_pad/U0/U0:PAD (r)
               +     0.875          cell: ADLIB:IOPAD_IN
  0.875                        gbt_rxrdy_pad/U0/U0:Y (r)
               +     0.000          net: gbt_rxrdy_pad/U0/NET1
  0.875                        gbt_rxrdy_pad/U0/U1:YIN (r)
               +     0.037          cell: ADLIB:IOIN_IB
  0.912                        gbt_rxrdy_pad/U0/U1:Y (r)
               +     3.116          net: gbt_rxrdy_c
  4.028                        HIEFFPLA_INST_0_1579:C (r)
               +     0.662          cell: ADLIB:AO1B
  4.690                        HIEFFPLA_INST_0_1579:Y (f)
               +     0.290          net: HIEFFPLA_NET_0_1653
  4.980                        fc1/ck_ok:D (f)
                                    
  4.980                        data arrival time
  ________________________________________________________
  Data required time calculation
  N/C                          clocking/Core:GLB
               +     0.000          Clock source
  N/C                          clocking/Core:GLB (r)
               +     5.201          Clock generation
  N/C
               +     0.604          net: GLB
  N/C                          fc1/ck_ok:CLK (r)
               -     0.466          Library setup time: ADLIB:DFN1
  N/C                          fc1/ck_ok:D


END SET External Setup

----------------------------------------------------

SET Clock to Output

No Path

END SET Clock to Output

----------------------------------------------------

SET Register to Asynchronous

No Path

END SET Register to Asynchronous

----------------------------------------------------

SET External Recovery

No Path

END SET External Recovery

----------------------------------------------------

SET Asynchronous to Register

No Path

END SET Asynchronous to Register

----------------------------------------------------

Clock Domain gbt_clk40

Info: The maximum frequency of this clock domain is limited by the minimum pulse widths of pin gbt_clk40_pad/U0/U0:PAD

SET Register to Register

No Path

END SET Register to Register

----------------------------------------------------

SET External Setup

No Path

END SET External Setup

----------------------------------------------------

SET Clock to Output

No Path

END SET Clock to Output

----------------------------------------------------

SET Register to Asynchronous

No Path

END SET Register to Asynchronous

----------------------------------------------------

SET External Recovery

No Path

END SET External Recovery

----------------------------------------------------

SET Asynchronous to Register

No Path

END SET Asynchronous to Register

----------------------------------------------------

Clock Domain osc_clk40

Info: The maximum frequency of this clock domain is limited by the minimum pulse widths of pin osc_clk40_pad/U0/U0:PAD

SET Register to Register

No Path

END SET Register to Register

----------------------------------------------------

SET External Setup

No Path

END SET External Setup

----------------------------------------------------

SET Clock to Output

No Path

END SET Clock to Output

----------------------------------------------------

SET Register to Asynchronous

No Path

END SET Register to Asynchronous

----------------------------------------------------

SET External Recovery

No Path

END SET External Recovery

----------------------------------------------------

SET Asynchronous to Register

No Path

END SET Asynchronous to Register

----------------------------------------------------

Path set Pin to Pin

SET Input to Output

No Path

END SET Input to Output

----------------------------------------------------

Path set User Sets

