Timing Violation Report Max Delay Analysis

SmartTime Version v11.9 SP5
Microsemi Corporation - Microsemi Libero Software Release v11.9 SP5 (Version 11.9.5.5)
Date: Wed Apr 15 16:31:02 2020


Design: jtag_interface_top
Family: ProASIC3
Die: A3P250
Package: 144 FBGA
Temperature Range: -40 - 85 C
Voltage Range: 1.425 - 1.575 V
Speed Grade: -1
Design State: Post-Layout
Data source: Silicon verified
Min Operating Conditions: BEST - 1.575 V - -40 C
Max Operating Conditions: WORST - 1.425 V - 85 C
Using Enhanced Min Delay Analysis
Scenario for Timing Analysis: Primary


Path 1
  From:                  fc1/counter[1]:CLK
  To:                    fc1/counter[3]:D
  Delay (ns):            3.686
  Slack (ns):            0.039
  Arrival (ns):          9.478
  Required (ns):         9.517

Path 2
  From:                  fc0/counter[0]:CLK
  To:                    fc0/counter[3]:D
  Delay (ns):            3.579
  Slack (ns):            0.122
  Arrival (ns):          9.396
  Required (ns):         9.518

Path 3
  From:                  fc0/state:CLK
  To:                    fc2/counter[3]:D
  Delay (ns):            3.533
  Slack (ns):            0.138
  Arrival (ns):          9.378
  Required (ns):         9.516

Path 4
  From:                  fc2/counter[0]:CLK
  To:                    fc2/counter[3]:D
  Delay (ns):            3.526
  Slack (ns):            0.173
  Arrival (ns):          9.343
  Required (ns):         9.516

Path 5
  From:                  fc0/final_count[3]:CLK
  To:                    fc0/ck_ok:D
  Delay (ns):            3.426
  Slack (ns):            0.216
  Arrival (ns):          9.271
  Required (ns):         9.487

Path 6
  From:                  fc0/state:CLK
  To:                    fc1/counter[2]:D
  Delay (ns):            3.384
  Slack (ns):            0.234
  Arrival (ns):          9.229
  Required (ns):         9.463

Path 7
  From:                  fc2/final_count[3]:CLK
  To:                    fc2/ck_ok:D
  Delay (ns):            3.426
  Slack (ns):            0.244
  Arrival (ns):          9.243
  Required (ns):         9.487

Path 8
  From:                  fc1/final_count[3]:CLK
  To:                    fc1/ck_ok:D
  Delay (ns):            3.426
  Slack (ns):            0.245
  Arrival (ns):          9.242
  Required (ns):         9.487

Path 9
  From:                  fc0/counter[1]:CLK
  To:                    fc0/counter[1]:D
  Delay (ns):            3.416
  Slack (ns):            0.255
  Arrival (ns):          9.233
  Required (ns):         9.488

Path 10
  From:                  fc2/counter[1]:CLK
  To:                    fc2/counter[3]:D
  Delay (ns):            3.378
  Slack (ns):            0.321
  Arrival (ns):          9.195
  Required (ns):         9.516

Path 11
  From:                  fc0/final_count[2]:CLK
  To:                    fc0/ck_ok:D
  Delay (ns):            3.337
  Slack (ns):            0.335
  Arrival (ns):          9.182
  Required (ns):         9.517

Path 12
  From:                  fc2/final_count[2]:CLK
  To:                    fc2/ck_ok:D
  Delay (ns):            3.335
  Slack (ns):            0.337
  Arrival (ns):          9.180
  Required (ns):         9.517

Path 13
  From:                  fc1/final_count[2]:CLK
  To:                    fc1/ck_ok:D
  Delay (ns):            3.335
  Slack (ns):            0.337
  Arrival (ns):          9.180
  Required (ns):         9.517

Path 14
  From:                  fc2/counter[2]:CLK
  To:                    fc2/counter[3]:D
  Delay (ns):            3.344
  Slack (ns):            0.345
  Arrival (ns):          9.171
  Required (ns):         9.516

Path 15
  From:                  fc0/counter[1]:CLK
  To:                    fc0/counter[3]:D
  Delay (ns):            3.269
  Slack (ns):            0.432
  Arrival (ns):          9.086
  Required (ns):         9.518

Path 16
  From:                  fc0/counter[2]:CLK
  To:                    fc0/counter[3]:D
  Delay (ns):            3.235
  Slack (ns):            0.438
  Arrival (ns):          9.080
  Required (ns):         9.518

Path 17
  From:                  fc0/state:CLK
  To:                    fc0/counter[0]:D
  Delay (ns):            3.215
  Slack (ns):            0.458
  Arrival (ns):          9.060
  Required (ns):         9.518

Path 18
  From:                  fc0/state:CLK
  To:                    fc1/counter[0]:D
  Delay (ns):            3.198
  Slack (ns):            0.474
  Arrival (ns):          9.043
  Required (ns):         9.517

Path 19
  From:                  fc1/counter[2]:CLK
  To:                    fc1/counter[3]:D
  Delay (ns):            3.235
  Slack (ns):            0.490
  Arrival (ns):          9.027
  Required (ns):         9.517

Path 20
  From:                  fc0/counter[1]:CLK
  To:                    fc0/final_count[1]:D
  Delay (ns):            3.164
  Slack (ns):            0.535
  Arrival (ns):          8.981
  Required (ns):         9.516

Path 21
  From:                  fc0/state:CLK
  To:                    fc0/counter[1]:D
  Delay (ns):            3.092
  Slack (ns):            0.581
  Arrival (ns):          8.937
  Required (ns):         9.518

Path 22
  From:                  fc1/counter[0]:CLK
  To:                    fc1/counter[2]:D
  Delay (ns):            3.084
  Slack (ns):            0.593
  Arrival (ns):          8.900
  Required (ns):         9.493

Path 23
  From:                  fc0/state:CLK
  To:                    fc1/final_count[3]:E
  Delay (ns):            3.167
  Slack (ns):            0.596
  Arrival (ns):          9.012
  Required (ns):         9.608

Path 24
  From:                  fc0/state:CLK
  To:                    fc1/counter[1]:D
  Delay (ns):            3.035
  Slack (ns):            0.613
  Arrival (ns):          8.880
  Required (ns):         9.493

Path 25
  From:                  fc1/counter[0]:CLK
  To:                    fc1/counter[3]:D
  Delay (ns):            3.067
  Slack (ns):            0.634
  Arrival (ns):          8.883
  Required (ns):         9.517

Path 26
  From:                  fc0/counter[0]:CLK
  To:                    fc0/counter[1]:D
  Delay (ns):            3.060
  Slack (ns):            0.641
  Arrival (ns):          8.877
  Required (ns):         9.518

Path 27
  From:                  fc0/state:CLK
  To:                    fc0/counter[2]:D
  Delay (ns):            3.044
  Slack (ns):            0.657
  Arrival (ns):          8.889
  Required (ns):         9.546

Path 28
  From:                  fc1/counter[1]:CLK
  To:                    fc1/final_count[3]:D
  Delay (ns):            3.066
  Slack (ns):            0.659
  Arrival (ns):          8.858
  Required (ns):         9.517

Path 29
  From:                  fc2/final_count[1]:CLK
  To:                    fc2/ck_ok:D
  Delay (ns):            3.005
  Slack (ns):            0.667
  Arrival (ns):          8.850
  Required (ns):         9.517

Path 30
  From:                  fc0/state:CLK
  To:                    fc1/final_count[0]:E
  Delay (ns):            3.104
  Slack (ns):            0.688
  Arrival (ns):          8.949
  Required (ns):         9.637

Path 31
  From:                  fc0/state:CLK
  To:                    fc2/counter[1]:D
  Delay (ns):            2.978
  Slack (ns):            0.695
  Arrival (ns):          8.823
  Required (ns):         9.518

Path 32
  From:                  fc0/state:CLK
  To:                    fc1/final_count[1]:E
  Delay (ns):            3.066
  Slack (ns):            0.697
  Arrival (ns):          8.911
  Required (ns):         9.608

Path 33
  From:                  fc0/state:CLK
  To:                    fc2/counter[2]:D
  Delay (ns):            2.955
  Slack (ns):            0.728
  Arrival (ns):          8.800
  Required (ns):         9.528

Path 34
  From:                  fc1/counter[1]:CLK
  To:                    fc1/counter[2]:D
  Delay (ns):            2.959
  Slack (ns):            0.742
  Arrival (ns):          8.751
  Required (ns):         9.493

Path 35
  From:                  fc2/counter[3]:CLK
  To:                    fc2/counter[3]:D
  Delay (ns):            2.945
  Slack (ns):            0.756
  Arrival (ns):          8.790
  Required (ns):         9.546

Path 36
  From:                  fc0/counter[0]:CLK
  To:                    fc0/final_count[3]:D
  Delay (ns):            2.959
  Slack (ns):            0.770
  Arrival (ns):          8.776
  Required (ns):         9.546

Path 37
  From:                  fc0/state:CLK
  To:                    fc1/counter[3]:D
  Delay (ns):            2.881
  Slack (ns):            0.791
  Arrival (ns):          8.726
  Required (ns):         9.517

Path 38
  From:                  fc0/state:CLK
  To:                    fc2/counter[0]:D
  Delay (ns):            2.861
  Slack (ns):            0.812
  Arrival (ns):          8.706
  Required (ns):         9.518

Path 39
  From:                  fc0/counter[0]:CLK
  To:                    fc0/counter[2]:D
  Delay (ns):            2.886
  Slack (ns):            0.813
  Arrival (ns):          8.703
  Required (ns):         9.516

Path 40
  From:                  fc2/counter[1]:CLK
  To:                    fc2/counter[1]:D
  Delay (ns):            2.854
  Slack (ns):            0.817
  Arrival (ns):          8.671
  Required (ns):         9.488

Path 41
  From:                  fc0/counter[1]:CLK
  To:                    fc0/counter[2]:D
  Delay (ns):            2.874
  Slack (ns):            0.825
  Arrival (ns):          8.691
  Required (ns):         9.516

Path 42
  From:                  fc2/counter[1]:CLK
  To:                    fc2/counter[2]:D
  Delay (ns):            2.827
  Slack (ns):            0.854
  Arrival (ns):          8.644
  Required (ns):         9.498

Path 43
  From:                  fc1/counter[1]:CLK
  To:                    fc1/counter[1]:D
  Delay (ns):            2.791
  Slack (ns):            0.880
  Arrival (ns):          8.583
  Required (ns):         9.463

Path 44
  From:                  fc0/state:CLK
  To:                    fc0/final_count[3]:E
  Delay (ns):            2.906
  Slack (ns):            0.886
  Arrival (ns):          8.751
  Required (ns):         9.637

Path 45
  From:                  fc0/state:CLK
  To:                    fc0/final_count[0]:E
  Delay (ns):            2.906
  Slack (ns):            0.886
  Arrival (ns):          8.751
  Required (ns):         9.637

Path 46
  From:                  fc0/counter[0]:CLK
  To:                    fc0/final_count[1]:D
  Delay (ns):            2.832
  Slack (ns):            0.897
  Arrival (ns):          8.649
  Required (ns):         9.546

Path 47
  From:                  fc2/counter[0]:CLK
  To:                    fc2/final_count[3]:D
  Delay (ns):            2.800
  Slack (ns):            0.901
  Arrival (ns):          8.617
  Required (ns):         9.518

Path 48
  From:                  fc2/counter[0]:CLK
  To:                    fc2/counter[2]:D
  Delay (ns):            2.764
  Slack (ns):            0.917
  Arrival (ns):          8.581
  Required (ns):         9.498

Path 49
  From:                  fc1/counter[0]:CLK
  To:                    fc1/final_count[2]:D
  Delay (ns):            2.759
  Slack (ns):            0.941
  Arrival (ns):          8.575
  Required (ns):         9.516

Path 50
  From:                  fc0/counter[3]:CLK
  To:                    fc0/counter[3]:D
  Delay (ns):            2.728
  Slack (ns):            0.943
  Arrival (ns):          8.545
  Required (ns):         9.488

Path 51
  From:                  fc1/counter[3]:CLK
  To:                    fc1/counter[3]:D
  Delay (ns):            2.727
  Slack (ns):            0.944
  Arrival (ns):          8.543
  Required (ns):         9.487

Path 52
  From:                  fc0/state:CLK
  To:                    fc2/final_count[3]:E
  Delay (ns):            2.804
  Slack (ns):            0.960
  Arrival (ns):          8.649
  Required (ns):         9.609

Path 53
  From:                  fc0/state:CLK
  To:                    fc2/final_count[0]:E
  Delay (ns):            2.810
  Slack (ns):            0.982
  Arrival (ns):          8.655
  Required (ns):         9.637

Path 54
  From:                  fc0/state:CLK
  To:                    fc2/final_count[2]:E
  Delay (ns):            2.810
  Slack (ns):            0.982
  Arrival (ns):          8.655
  Required (ns):         9.637

Path 55
  From:                  fc2/counter[1]:CLK
  To:                    fc2/final_count[3]:D
  Delay (ns):            2.652
  Slack (ns):            1.049
  Arrival (ns):          8.469
  Required (ns):         9.518

Path 56
  From:                  fc2/counter[0]:CLK
  To:                    fc2/counter[1]:D
  Delay (ns):            2.604
  Slack (ns):            1.067
  Arrival (ns):          8.421
  Required (ns):         9.488

Path 57
  From:                  fc2/counter[2]:CLK
  To:                    fc2/final_count[3]:D
  Delay (ns):            2.618
  Slack (ns):            1.073
  Arrival (ns):          8.445
  Required (ns):         9.518

Path 58
  From:                  fc0/counter[1]:CLK
  To:                    fc0/final_count[3]:D
  Delay (ns):            2.649
  Slack (ns):            1.080
  Arrival (ns):          8.466
  Required (ns):         9.546

Path 59
  From:                  fc0/final_count[0]:CLK
  To:                    fc0/ck_ok:D
  Delay (ns):            2.586
  Slack (ns):            1.086
  Arrival (ns):          8.431
  Required (ns):         9.517

Path 60
  From:                  fc1/final_count[0]:CLK
  To:                    fc1/ck_ok:D
  Delay (ns):            2.586
  Slack (ns):            1.086
  Arrival (ns):          8.431
  Required (ns):         9.517

Path 61
  From:                  fc2/final_count[0]:CLK
  To:                    fc2/ck_ok:D
  Delay (ns):            2.586
  Slack (ns):            1.086
  Arrival (ns):          8.431
  Required (ns):         9.517

Path 62
  From:                  fc0/counter[2]:CLK
  To:                    fc0/final_count[3]:D
  Delay (ns):            2.615
  Slack (ns):            1.086
  Arrival (ns):          8.460
  Required (ns):         9.546

Path 63
  From:                  fc1/counter[1]:CLK
  To:                    fc1/final_count[2]:D
  Delay (ns):            2.634
  Slack (ns):            1.090
  Arrival (ns):          8.426
  Required (ns):         9.516

Path 64
  From:                  fc1/counter[2]:CLK
  To:                    fc1/final_count[3]:D
  Delay (ns):            2.615
  Slack (ns):            1.110
  Arrival (ns):          8.407
  Required (ns):         9.517

Path 65
  From:                  fc0/state:CLK
  To:                    fc0/final_count[2]:E
  Delay (ns):            2.675
  Slack (ns):            1.117
  Arrival (ns):          8.520
  Required (ns):         9.637

Path 66
  From:                  fc0/state:CLK
  To:                    fc0/final_count[1]:E
  Delay (ns):            2.659
  Slack (ns):            1.133
  Arrival (ns):          8.504
  Required (ns):         9.637

Path 67
  From:                  fc0/final_count[1]:CLK
  To:                    fc0/ck_ok:D
  Delay (ns):            2.526
  Slack (ns):            1.146
  Arrival (ns):          8.371
  Required (ns):         9.517

Path 68
  From:                  fc1/counter[0]:CLK
  To:                    fc1/counter[1]:D
  Delay (ns):            2.497
  Slack (ns):            1.150
  Arrival (ns):          8.313
  Required (ns):         9.463

Path 69
  From:                  fc1/counter[2]:CLK
  To:                    fc1/counter[2]:D
  Delay (ns):            2.537
  Slack (ns):            1.164
  Arrival (ns):          8.329
  Required (ns):         9.493

Path 70
  From:                  fc1/final_count[1]:CLK
  To:                    fc1/ck_ok:D
  Delay (ns):            2.468
  Slack (ns):            1.233
  Arrival (ns):          8.284
  Required (ns):         9.517

Path 71
  From:                  fc1/counter[0]:CLK
  To:                    fc1/final_count[3]:D
  Delay (ns):            2.447
  Slack (ns):            1.254
  Arrival (ns):          8.263
  Required (ns):         9.517

Path 72
  From:                  fc2/counter[1]:CLK
  To:                    fc2/final_count[2]:D
  Delay (ns):            2.426
  Slack (ns):            1.273
  Arrival (ns):          8.243
  Required (ns):         9.516

Path 73
  From:                  fc0/counter[2]:CLK
  To:                    fc0/counter[2]:D
  Delay (ns):            2.386
  Slack (ns):            1.285
  Arrival (ns):          8.231
  Required (ns):         9.516

Path 74
  From:                  fc2/counter[2]:CLK
  To:                    fc2/counter[2]:D
  Delay (ns):            2.339
  Slack (ns):            1.332
  Arrival (ns):          8.166
  Required (ns):         9.498

Path 75
  From:                  fc2/counter[0]:CLK
  To:                    fc2/final_count[2]:D
  Delay (ns):            2.363
  Slack (ns):            1.336
  Arrival (ns):          8.180
  Required (ns):         9.516

Path 76
  From:                  fc0/counter[0]:CLK
  To:                    fc0/final_count[2]:D
  Delay (ns):            2.257
  Slack (ns):            1.442
  Arrival (ns):          8.074
  Required (ns):         9.516

Path 77
  From:                  fc0/counter[1]:CLK
  To:                    fc0/final_count[2]:D
  Delay (ns):            2.245
  Slack (ns):            1.454
  Arrival (ns):          8.062
  Required (ns):         9.516

Path 78
  From:                  fc2/counter[1]:CLK
  To:                    fc2/final_count[1]:D
  Delay (ns):            2.238
  Slack (ns):            1.461
  Arrival (ns):          8.055
  Required (ns):         9.516

Path 79
  From:                  fc1/counter[2]:CLK
  To:                    fc1/final_count[2]:D
  Delay (ns):            2.248
  Slack (ns):            1.506
  Arrival (ns):          8.040
  Required (ns):         9.546

Path 80
  From:                  fc0/state:CLK
  To:                    fc0/counter[3]:D
  Delay (ns):            2.163
  Slack (ns):            1.510
  Arrival (ns):          8.008
  Required (ns):         9.518

Path 81
  From:                  fc1/counter[1]:CLK
  To:                    fc1/final_count[1]:D
  Delay (ns):            2.175
  Slack (ns):            1.520
  Arrival (ns):          7.967
  Required (ns):         9.487

Path 82
  From:                  fc2/counter[3]:CLK
  To:                    fc2/final_count[3]:D
  Delay (ns):            2.112
  Slack (ns):            1.531
  Arrival (ns):          7.957
  Required (ns):         9.488

Path 83
  From:                  fc1/counter[3]:CLK
  To:                    fc1/final_count[3]:D
  Delay (ns):            2.109
  Slack (ns):            1.562
  Arrival (ns):          7.925
  Required (ns):         9.487

Path 84
  From:                  fc0/counter[3]:CLK
  To:                    fc0/final_count[3]:D
  Delay (ns):            2.112
  Slack (ns):            1.587
  Arrival (ns):          7.929
  Required (ns):         9.516

Path 85
  From:                  fc2/counter[0]:CLK
  To:                    fc2/final_count[1]:D
  Delay (ns):            1.988
  Slack (ns):            1.711
  Arrival (ns):          7.805
  Required (ns):         9.516

Path 86
  From:                  fc2/counter[2]:CLK
  To:                    fc2/final_count[2]:D
  Delay (ns):            1.938
  Slack (ns):            1.751
  Arrival (ns):          7.765
  Required (ns):         9.516

Path 87
  From:                  fc1/counter[0]:CLK
  To:                    fc1/final_count[1]:D
  Delay (ns):            1.881
  Slack (ns):            1.790
  Arrival (ns):          7.697
  Required (ns):         9.487

Path 88
  From:                  fc0/state:CLK
  To:                    fc1/final_count[2]:E
  Delay (ns):            1.998
  Slack (ns):            1.794
  Arrival (ns):          7.843
  Required (ns):         9.637

Path 89
  From:                  fc0/state:CLK
  To:                    fc2/final_count[1]:E
  Delay (ns):            1.998
  Slack (ns):            1.794
  Arrival (ns):          7.843
  Required (ns):         9.637

Path 90
  From:                  fc1/counter[0]:CLK
  To:                    fc1/counter[0]:D
  Delay (ns):            1.851
  Slack (ns):            1.850
  Arrival (ns):          7.667
  Required (ns):         9.517

Path 91
  From:                  fc0/counter[2]:CLK
  To:                    fc0/final_count[2]:D
  Delay (ns):            1.757
  Slack (ns):            1.914
  Arrival (ns):          7.602
  Required (ns):         9.516

Path 92
  From:                  fc2/counter[0]:CLK
  To:                    fc2/final_count[0]:D
  Delay (ns):            1.772
  Slack (ns):            1.957
  Arrival (ns):          7.589
  Required (ns):         9.546

Path 93
  From:                  fc2/counter[0]:CLK
  To:                    fc2/counter[0]:D
  Delay (ns):            1.727
  Slack (ns):            1.974
  Arrival (ns):          7.544
  Required (ns):         9.518

Path 94
  From:                  fc0/counter[0]:CLK
  To:                    fc0/counter[0]:D
  Delay (ns):            1.699
  Slack (ns):            2.002
  Arrival (ns):          7.516
  Required (ns):         9.518

Path 95
  From:                  fc0/counter[0]:CLK
  To:                    fc0/final_count[0]:D
  Delay (ns):            1.523
  Slack (ns):            2.206
  Arrival (ns):          7.340
  Required (ns):         9.546

Path 96
  From:                  fc1/counter[0]:CLK
  To:                    fc1/final_count[0]:D
  Delay (ns):            1.192
  Slack (ns):            2.538
  Arrival (ns):          7.008
  Required (ns):         9.546

